﻿<?xml version="1.0"?>
<!-- Generator: Adobe Illustrator 10.0, SVG Export Plug-In . SVG Version: 3.0.0 Build 77)  -->
<!DOCTYPE svg PUBLIC "-//W3C//DTD SVG 1.0//EN" "http://www.w3.org/TR/2001/REC-SVG-20010904/DTD/svg10.dtd"[
	<!ENTITY ns_flows "http://ns.adobe.com/Flows/1.0/">
	<!ENTITY ns_svg "http://www.w3.org/2000/svg">
	<!ENTITY ns_xlink "http://www.w3.org/1999/xlink">
	<!ENTITY st0 "fill:none;stroke:#000000;stroke-linecap:round;stroke-linejoin:round;">
	<!ENTITY st1 "fill:none;stroke:#000000;stroke-width:0.6;stroke-linecap:round;stroke-linejoin:round;">
	<!ENTITY st2 "font-size:6px;">
	<!ENTITY st3 "font-family:'Arial';">
	<!ATTLIST svg
		ewd:ver CDATA #IMPLIED
		xmlns:ewd CDATA #FIXED "http://shcl.co.jp/ewd"
		xmlns:a CDATA #FIXED "http://ns.adobe.com/AdobeSVGViewerExtensions/3.0/">
	<!ATTLIST g
		ewd:pinNo CDATA #IMPLIED>
]>
<svg width="69.215" height="45.873" viewBox="0 0 69.215 45.873" style="overflow:visible;enable-background:new 0 0 69.215 45.873" xml:space="preserve" onload="call_execInitLoadProc_svg('connector')" ewd:ver="2.1.2.9" xmlns="&ns_svg;" xmlns:ewd="http://shcl.co.jp/ewd" xmlns:a="http://ns.adobe.com/AdobeSVGViewerExtensions/3.0/" xmlns:xlink="&ns_xlink;">
<script type="text/javascript" xlink:href="../../../../../system/js/ewd/fig/svgfig.js"/>
<g id="レイヤー_1">
	<path style="&st1;" d="M2.766,39.707h63.683"/>
	<path style="&st0;" d="M0.5,10.019v27.422"/>
	<path style="&st0;" d="M68.715,10.019v27.422"/>
	<path style="&st0;" d="M2.766,7.752h23.909"/>
	<path style="&st0;" d="M9.37,45.373h50.476"/>
	<path style="&st1;" d="M22.483,13.305h24.25"/>
	<path style="&st0;" d="M2.766,39.707v1.586"/>
	<path style="&st0;" d="M66.449,39.707v1.586"/>
	<path style="&st0;" d="M3.899,42.427h1.586"/>
	<path style="&st0;" d="M5.486,42.427l2.283,2.283"/>
	<path style="&st0;" d="M61.446,44.71l2.283-2.283"/>
	<path style="&st0;" d="M42.54,1.86v5.893"/>
	<path style="&st0;" d="M26.675,1.86v5.893"/>
	<path style="&st1;" d="M5.146,25.316h58.924"/>
	<path style="&st1;" d="M22.143,36.081h24.929"/>
	<path style="&st1;" d="M26.675,10.529H42.54"/>
	<path style="&st0;" d="M28.035,0.5H41.18"/>
	<path style="&st1;" d="M26.675,7.752v7.932"/>
	<path style="&st1;" d="M42.54,7.752v7.932"/>
	<path style="&st0;" d="M42.54,7.752h23.909"/>
	<path style="&st1;" d="M26.675,7.752H42.54"/>
	<path style="&st1;" d="M5.486,42.427h58.244"/>
	<path style="&st0;" d="M63.729,42.427h1.586"/>
	<path style="&st1;" d="M34.607,36.081V25.316"/>
	<path style="&st0;" d="M0.5,37.441c0,1.251,1.015,2.266,2.266,2.266"/>
	<path style="&st0;" d="M66.449,39.707c1.252,0,2.267-1.015,2.267-2.266"/>
	<path style="&st0;" d="M2.766,7.752c-1.251,0-2.266,1.015-2.266,2.266"/>
	<path style="&st0;" d="M68.715,10.019c0-1.251-1.015-2.266-2.267-2.266"/>
	<path style="&st0;" d="M2.766,41.293c0,0.625,0.507,1.133,1.133,1.133"/>
	<path style="&st0;" d="M65.316,42.427c0.625,0,1.133-0.508,1.133-1.133"/>
	<path style="&st0;" d="M7.769,44.71c0.442,0.441,0.976,0.662,1.601,0.662"/>
	<path style="&st0;" d="M59.846,45.373c0.625,0,1.159-0.221,1.601-0.662"/>
	<path style="&st0;" d="M28.035,0.5c-0.751,0-1.36,0.609-1.36,1.36"/>
	<path style="&st0;" d="M42.54,1.86c0-0.751-0.609-1.36-1.36-1.36"/>
	<path style="&st1;" d="M0.5,11.605c0,0.375,0.304,0.68,0.68,0.68"/>
	<path style="&st1;" d="M1.18,35.174c-0.375,0-0.68,0.305-0.68,0.68"/>
	<path style="&st1;" d="M68.035,12.285c0.375,0,0.68-0.305,0.68-0.68"/>
	<path style="&st1;" d="M68.715,35.854c0-0.375-0.305-0.68-0.68-0.68"/>
	<path style="&st1;" d="M37.554,7.752V2.767h-5.892v4.986"/>
	<path style="&st1;" d="M49.508,7.752l-2.776,2.776v5.156h-2.72v6.798h-21.53V10.529l-2.776-2.776"/>
	<path style="&st1;" d="M22.143,34.891H17.61v3.399h4.533V34.891"/>
	<path style="&st1;" d="M51.604,34.891h-4.532v3.399h4.532V34.891"/>
	<path style="&st1;" d="M51.604,36.081h12.465V11.378H49.338v23.513"/>
	<path style="&st1;" d="M19.877,34.891V11.378H5.146v24.703H17.61"/>
	<path style="&st1;" d="M1.18,35.174h1.586V12.285H1.18"/>
	<path style="&st1;" d="M68.035,35.174h-1.586V12.285h1.586"/>
	<path style="&st1;" d="M44.013,15.685h-21.53"/>
	<g ewd:pinNo="1">
		<text transform="matrix(1 0 0 1 10.6118 20.4355)"><tspan x="0" y="0" style="&st3; &st2;">1</tspan></text>
	</g>
	<g ewd:pinNo="2">
		<text transform="matrix(1 0 0 1 54.8042 20.4355)"><tspan x="0" y="0" style="&st3; &st2;">2</tspan></text>
	</g>
	<g ewd:pinNo="3">
		<text transform="matrix(1 0 0 1 10.6118 32.7871)"><tspan x="0" y="0" style="&st3; &st2;">3</tspan></text>
	</g>
	<g ewd:pinNo="4">
		<text transform="matrix(1 0 0 1 25.3428 32.7871)"><tspan x="0" y="0" style="&st3; &st2;">4</tspan></text>
	</g>
	<g ewd:pinNo="5">
		<text transform="matrix(1 0 0 1 40.0732 32.7871)"><tspan x="0" y="0" style="&st3; &st2;">5</tspan></text>
	</g>
	<g ewd:pinNo="6">
		<text transform="matrix(1 0 0 1 54.8042 32.7871)"><tspan x="0" y="0" style="&st3; &st2;">6</tspan></text>
	</g>
</g>
</svg>