﻿<?xml version="1.0" encoding="utf-8"?>
<!DOCTYPE svg PUBLIC "-//W3C//DTD SVG 1.0//EN" "http://www.w3.org/TR/2001/REC-SVG-20010904/DTD/svg10.dtd"[
	<!ENTITY ns_flows "http://ns.adobe.com/Flows/1.0/">
	<!ENTITY ns_svg "http://www.w3.org/2000/svg">
	<!ENTITY ns_xlink "http://www.w3.org/1999/xlink">
	<!ENTITY st0 "font-size:7px;font-family:'MS-PGothic';adobe-font-script:japanese;">
	<!ENTITY st1 "font-size:6px;font-family:'ArialMT';">
	<!-- White fill  -->
	<!ENTITY st2 "fill:#FFFFFF;stroke:#000000; stroke-width:1.41;stroke-linecap:round;stroke-linejoin:round;">
	<!-- Yellow fill  -->
	<!ENTITY st3 "fill:#FFFFCC;stroke:#FFFFCC; stroke-width:0.1;stroke-linecap:round;stroke-linejoin:round;">
	<!-- Gray fill  -->
	<!ENTITY st4 "fill:#CCCCCC;stroke:#CCCCCC; stroke-width:0.1;stroke-linecap:round;stroke-linejoin:round;">
	<!-- Light-blue fill -->
	<!ENTITY st5 "fill:#CCECF4;stroke:#000000; stroke-width:1.133;stroke-linecap:round;stroke-linejoin:round;">
	<!ENTITY st6 "fill:none;stroke-linecap:butt; stroke-linejoin:round;">
	<!ENTITY st7 "fill:none;stroke:#000000;stroke-linecap:round;stroke-linejoin:round;">
	<!ENTITY st8 "enable-background:new    ;">
	<!-- Black fill -->
	<!ENTITY st9 "fill:#000000;stroke:#000000; stroke-linecap:round;stroke-linejoin:round;">
	<!-- SRS note   -->
	<!ENTITY st10 "font-size:9px;font-family:'ArialMT';">
	<!ENTITY st11 "font-size:9px;font-family:'Svg Symbol';">
	<!ENTITY st12 "font-size:6px;font-family:'Svg Symbol';">
	<!ENTITY st13 "fill:none;stroke:#ff0000;stroke-linecap:round;stroke-linejoin:round;">
	<!-- Yellow fill  -->
	<!ENTITY st14 "fill:#FFFF00;stroke:#FFFF00; stroke-width:0.1;stroke-linecap:round;stroke-linejoin:round;">
	<!ENTITY st15 "font-size:6px;font-family:'MS-PGothic';adobe-font-script:japanese;">
	<!ENTITY st16 "1.00 0.00 0.00 1.00">
	<!ENTITY st17 "0.00 -1.00 1.00 0.00">
	<!ENTITY st18 "font-size:6px;font-family:'Arial';">
	<!ENTITY st19 "font-size:9px;font-family:'Arial';">
	<!ENTITY st20 "font-size:6px;font-family:'MS-PGothic','MS PGothic';adobe-font-script:japanese;">
	<!ENTITY st21 "font-size:7px;font-family:'MS-PGothic','MS PGothic';adobe-font-script:japanese;">
	<!ATTLIST svg
		xmlns:ewd CDATA #FIXED "http://shcl.co.jp/ewd"
		xmlns:a CDATA #FIXED "http://ns.adobe.com/AdobeSVGViewerExtensions/3.0/"
		ewd:ver CDATA #IMPLIED
	>
	<!ATTLIST a
		ewd:lineID CDATA #IMPLIED
		ewd:groupID CDATA #IMPLIED
		ewd:figtype CDATA #IMPLIED
		ewd:code CDATA #IMPLIED
		ewd:figID CDATA #IMPLIED
		ewd:pinNo CDATA #IMPLIED
		ewd:comment CDATA #IMPLIED >
	<!ATTLIST g
		ewd:lineID CDATA #IMPLIED
		ewd:groupID CDATA #IMPLIED
		ewd:figtype CDATA #IMPLIED
		ewd:code CDATA #IMPLIED
		ewd:figID CDATA #IMPLIED
		ewd:pinNo CDATA #IMPLIED
		ewd:comment CDATA #IMPLIED >
	<!ATTLIST text
		ewd:textID CDATA #IMPLIED >
	<!ATTLIST title
		ewd:textID CDATA #IMPLIED >
]>
<!-- Generator: Shintec Hozumi YS   -->
<svg onload="call_execInitLoadProc_svg('system')" style="overflow:visible;  enable-background:new 0 0 4649.602 710.000" viewBox="0 0 4649.602 710.000" height="710.000" width="4649.602" xml:space="preserve" ewd:ver="2.1.2.9" xmlns="&ns_svg;" xmlns:a="http://ns.adobe.com/AdobeSVGViewerExtensions/3.0/" xmlns:ewd="http://shcl.co.jp/ewd" xmlns:xlink="&ns_xlink;">
<text style="&st18;" transform="matrix(&st17;  1240.19  387.12 )">G139(A),G140(B)</text><text style="&st18;" transform="matrix(&st17;  1364.58  352.03 )">V</text><text style="&st18;" transform="matrix(&st17;  1398.57  356.18 )">W-B</text><text style="&st18;" transform="matrix(&st17;  1458.06  351.8 )">L</text><text style="&st18;" transform="matrix(&st17;  1458.06  419.79 )">L</text><text style="&st18;" transform="matrix(&st17;  1458.06  636.63 )">W-B</text><text style="&st18;" transform="matrix(&st17;  1398.57  241.71 )">G</text><text style="&st18;" transform="matrix(&st17;  1194.6  415.66 )">B</text><text style="&st18;" transform="matrix(&st17;  1296.59  351.92 )">B</text><text style="&st18;" transform="matrix(&st16;  1003.91  57.58 )">G(*3)</text><text style="&st18;" transform="matrix(&st16;  1009.03  643.98 )">V</text><text style="&st18;" transform="matrix(&st16;  1004.88  660.98 )">W-B</text><text style="&st18;" transform="matrix(&st16;  1060.02  643.98 )">V</text><text style="&st18;" transform="matrix(&st16;  1055.87  660.98 )">W-B</text><text style="&st18;" transform="matrix(&st17;  1247.01  387.13 )" ewd:textID="6">A/C Control Assembly</text><text style="&st18;" transform="matrix(&st16;  1003.91  40.58 )">G(*3)</text><text style="&st18;" transform="matrix(&st16;  1003.4  23.58 )">W(*3)</text><text style="&st18;" transform="matrix(&st16;  1003.91  125.57 )">G(*3)</text><text style="&st18;" transform="matrix(&st17;  1296.59  241.36 )">R</text><text style="&st18;" transform="matrix(&st17;  1307.92  244.46 )">(*3)</text><text style="&st18;" transform="matrix(&st17;  1296.59  139.72 )">G</text><text style="&st18;" transform="matrix(&st17;  1307.92  142.48 )">(*3)</text><text style="&st18;" transform="matrix(&st17;  1330.58  352.19 )">G</text><text style="&st18;" transform="matrix(&st17;  1341.91  354.94 )">(*3)</text><text style="&st18;" transform="matrix(&st16;  1054.9  626.98 )">G(*3)</text><text style="&st18;" transform="matrix(&st16;  1003.91  626.98 )">G(*3)</text><text style="&st18;" transform="matrix(&st17;  1409.9  244.46 )">(*3)</text><text style="&st18;" transform="matrix(&st16;  1054.9  125.57 )">G(*3)</text><text style="&st18;" transform="matrix(&st16;  1054.4  23.58 )">W(*3)</text><text style="&st18;" transform="matrix(&st16;  1054.9  40.58 )">G(*3)</text><text style="&st18;" transform="matrix(&st16;  1054.9  57.58 )">G(*3)</text><path style="stroke-width: 1.42 ;&st7;  " d=" M  1453.26,   375.72  L  1461.76,   375.72  " /><g ewd:figtype="conn" ewd:figID="9" ewd:code="A51"><path style="stroke-width: 1.42 ;&st7;  " d=" M  1453.26,   656.18  L  1453.26,   673.17  L  1470.25,   673.17  L  1470.25,   656.18  L  1453.26,   656.18  " /><path style="stroke-width: 0.85 ;&st7;  " d=" M  1461.76,   656.18  L  1461.76,   681.67  " /><text style="&st18;" transform="matrix(&st16;  1452.47  652.49 )">12</text><g ewd:figtype="title"><text style="&st18;" transform="matrix(&st16;  1472.51  659.54 )">A51</text><text style="&st18;" transform="matrix(&st16;  1472.51  666.64 )" ewd:textID="23">No. 3 Ground <tspan x="0 " dy="6.0">Junction </tspan><tspan x="0 " dy="6.0">Connector</tspan></text></g></g><g ewd:figtype="conn" ewd:figID="14" ewd:code="A28"><path style="stroke-width: 1.42 ;&st7;  " d=" M  1444.76,   452.21  L  1444.76,   486.20  L  1478.75,   486.20  L  1478.75,   452.21  L  1444.76,   452.21  " /><g ewd:lineID="40"><text style="&st18;" transform="matrix(&st16;  1455.57  494.4 )">1</text><text style="&st18;" transform="matrix(&st16;  1458.4  482.51 )">+S</text></g><g ewd:lineID="41"><text style="&st18;" transform="matrix(&st16;  1455.57  448.52 )">2</text><text style="&st18;" transform="matrix(&st16;  1458.4  459.84 )">-S</text></g><g ewd:figtype="title"><text style="&st18;" transform="matrix(&st17;  1486.65  489.1 )">A28</text><text style="&st18;" transform="matrix(&st17;  1493.47  489.11 )" ewd:textID="7">A/C Pressure Switch <tspan x="0 " dy="6.0">(A/C Tube &amp; Accessory Assembly)</tspan></text></g></g><g ewd:figtype="conn" ewd:figID="15" ewd:code="G160"><path style="stroke-width: 1.42 ;&st7;  " d=" M  1283.29,   171.76  L  1283.29,   205.75  L  1317.28,   205.75  L  1317.28,   171.76  L  1283.29,   171.76  " /><g ewd:lineID="35"><text style="&st18;" transform="matrix(&st16;  1294.1  168.07 )">6</text><text style="&st18;" transform="matrix(&st16;  1295.77  179.39 )">SW</text></g><g ewd:lineID="37"><text style="&st18;" transform="matrix(&st16;  1294.1  213.94 )">3</text><text style="&st18;" transform="matrix(&st16;  1298.17  202.05 )">E</text></g><g ewd:figtype="title"><text style="&st18;" transform="matrix(&st17;  1332.0  208.66 )" ewd:textID="18">Idle Up Switch</text><text style="&st18;" transform="matrix(&st17;  1325.17  208.65 )">G160</text></g></g><g ewd:figtype="conn" ewd:figID="16" ewd:code="G107"><path style="stroke-width: 1.42 ;&st7;  " d=" M  1283.29,   290.74  L  1283.29,   324.73  L  2031.16,   324.73  L  2031.16,   290.74  L  1283.29,   290.74  " /><g ewd:lineID="16"><text style="&st18;" transform="matrix(&st16;  1358.99  332.92 )">16</text><text style="&st18;" transform="matrix(&st16;  1361.16  321.03 )">MGC</text></g><g ewd:lineID="17"><text style="&st18;" transform="matrix(&st16;  1328.09  332.92 )">3</text><text style="&st18;" transform="matrix(&st16;  1325.92  321.03 )">HEAT</text></g><g ewd:lineID="36"><text style="&st18;" transform="matrix(&st16;  1294.1  332.92 )">7</text><text style="&st18;" transform="matrix(&st16;  1294.26  321.03 )">A/C</text></g><g ewd:lineID="37"><text style="&st18;" transform="matrix(&st16;  1294.1  287.05 )">2</text><text style="&st18;" transform="matrix(&st16;  1291.54  298.37 )">SWVC</text></g><g ewd:lineID="38"><text style="&st18;" transform="matrix(&st16;  1392.98  332.92 )">23</text><text style="&st18;" transform="matrix(&st16;  1395.62  321.03 )">GND</text></g><g ewd:lineID="39"><text style="&st18;" transform="matrix(&st16;  1396.08  287.05 )">1</text><text style="&st18;" transform="matrix(&st16;  1397.36  298.37 )">IG+</text></g><g ewd:lineID="42"><text style="&st18;" transform="matrix(&st16;  1452.47  332.92 )">17</text><text style="&st18;" transform="matrix(&st16;  1455.5  321.03 )">PSW</text></g><g ewd:figtype="title"><text style="&st18;" transform="matrix(&st16;  1449.85  287.04 )" ewd:textID="4">A/C Amplifier Assembly</text><text style="&st18;" transform="matrix(&st16;  1449.84  280.22 )">G107</text></g></g><g ewd:figtype="w2w" ewd:figID="54" ewd:code="AG1"><text style="&st18;" transform="matrix(&st16;  1449.12  381.94 )">4</text><path style="stroke-width: 1.42 ;&st7;  " d=" M  1457.51,   366.66  L  1461.76,   370.91  L  1466.00,   366.66  " /><path style="stroke-width: 1.42 ;&st7;  " d=" M  1466.00,   370.06  L  1461.76,   374.31  L  1457.51,   370.06  " /></g><g ewd:figtype="gp" ewd:figID="70" ewd:code="AE"><path style="stroke-width: 0.85 ;&st7;  " d=" M  1457.51,   704.33  L  1466.00,   704.33  " /><path style="stroke-width: 0.85 ;&st7;  " d=" M  1461.76,   697.25  L  1461.76,   701.50  " /><path style="stroke-width: 0.85 ;&st7;  " d=" M  1453.26,   701.50  L  1470.25,   701.50  " /><path style="stroke-width: 0.85 ;&st7;  " d=" M  1460.34,   710.00  L  1463.17,   710.00  " /><path style="stroke-width: 0.85 ;&st7;  " d=" M  1458.92,   707.17  L  1464.59,   707.17  " /></g></svg>