﻿<?xml version="1.0" encoding="utf-8"?>
<!DOCTYPE svg PUBLIC "-//W3C//DTD SVG 1.0//EN" "http://www.w3.org/TR/2001/REC-SVG-20010904/DTD/svg10.dtd"[
	<!ENTITY ns_flows "http://ns.adobe.com/Flows/1.0/">
	<!ENTITY ns_svg "http://www.w3.org/2000/svg">
	<!ENTITY ns_xlink "http://www.w3.org/1999/xlink">
	<!ENTITY st0 "font-size:7px;font-family:'MS-PGothic';adobe-font-script:japanese;">
	<!ENTITY st1 "font-size:6px;font-family:'ArialMT';">
	<!-- White fill  -->
	<!ENTITY st2 "fill:#FFFFFF;stroke:#000000; stroke-width:1.41;stroke-linecap:round;stroke-linejoin:round;">
	<!-- Yellow fill  -->
	<!ENTITY st3 "fill:#FFFFCC;stroke:#FFFFCC; stroke-width:0.1;stroke-linecap:round;stroke-linejoin:round;">
	<!-- Gray fill  -->
	<!ENTITY st4 "fill:#CCCCCC;stroke:#CCCCCC; stroke-width:0.1;stroke-linecap:round;stroke-linejoin:round;">
	<!-- Light-blue fill -->
	<!ENTITY st5 "fill:#CCECF4;stroke:#000000; stroke-width:1.133;stroke-linecap:round;stroke-linejoin:round;">
	<!ENTITY st6 "fill:none;stroke-linecap:butt; stroke-linejoin:round;">
	<!ENTITY st7 "fill:none;stroke:#000000;stroke-linecap:round;stroke-linejoin:round;">
	<!ENTITY st8 "enable-background:new    ;">
	<!-- Black fill -->
	<!ENTITY st9 "fill:#000000;stroke:#000000; stroke-linecap:round;stroke-linejoin:round;">
	<!-- SRS note   -->
	<!ENTITY st10 "font-size:9px;font-family:'ArialMT';">
	<!ENTITY st11 "font-size:9px;font-family:'Svg Symbol';">
	<!ENTITY st12 "font-size:6px;font-family:'Svg Symbol';">
	<!ENTITY st13 "fill:none;stroke:#ff0000;stroke-linecap:round;stroke-linejoin:round;">
	<!-- Yellow fill  -->
	<!ENTITY st14 "fill:#FFFF00;stroke:#FFFF00; stroke-width:0.1;stroke-linecap:round;stroke-linejoin:round;">
	<!ENTITY st15 "font-size:6px;font-family:'MS-PGothic';adobe-font-script:japanese;">
	<!ENTITY st16 "1.00 0.00 0.00 1.00">
	<!ENTITY st17 "0.00 -1.00 1.00 0.00">
	<!ENTITY st18 "font-size:6px;font-family:'Arial';">
	<!ENTITY st19 "font-size:9px;font-family:'Arial';">
	<!ENTITY st20 "font-size:6px;font-family:'MS-PGothic','MS PGothic';adobe-font-script:japanese;">
	<!ENTITY st21 "font-size:7px;font-family:'MS-PGothic','MS PGothic';adobe-font-script:japanese;">
	<!ATTLIST svg
		xmlns:ewd CDATA #FIXED "http://shcl.co.jp/ewd"
		xmlns:a CDATA #FIXED "http://ns.adobe.com/AdobeSVGViewerExtensions/3.0/"
		ewd:ver CDATA #IMPLIED
	>
	<!ATTLIST a
		ewd:lineID CDATA #IMPLIED
		ewd:groupID CDATA #IMPLIED
		ewd:figtype CDATA #IMPLIED
		ewd:code CDATA #IMPLIED
		ewd:figID CDATA #IMPLIED
		ewd:pinNo CDATA #IMPLIED
		ewd:comment CDATA #IMPLIED >
	<!ATTLIST g
		ewd:lineID CDATA #IMPLIED
		ewd:groupID CDATA #IMPLIED
		ewd:figtype CDATA #IMPLIED
		ewd:code CDATA #IMPLIED
		ewd:figID CDATA #IMPLIED
		ewd:pinNo CDATA #IMPLIED
		ewd:comment CDATA #IMPLIED >
	<!ATTLIST text
		ewd:textID CDATA #IMPLIED >
	<!ATTLIST title
		ewd:textID CDATA #IMPLIED >
]>
<!-- Generator: Shintec Hozumi YS   -->
<svg onload="call_execInitLoadProc_svg('system')" style="overflow:visible;  enable-background:new 0 0 9198.836 710.000" viewBox="0 0 9198.836 710.000" height="710.000" width="9198.836" xml:space="preserve" ewd:ver="2.1.2.9" xmlns="&ns_svg;" xmlns:a="http://ns.adobe.com/AdobeSVGViewerExtensions/3.0/" xmlns:ewd="http://shcl.co.jp/ewd" xmlns:xlink="&ns_xlink;">
<path style="stroke-width: 1.42 ;&st7;  " d=" M   968.84,   214.25  L   960.34,   214.25  " /><path style="stroke-width: 1.42 ;&st7;  " d=" M   900.85,   426.71  L   892.35,   426.71  " /><path style="stroke-width: 1.42 ;&st7;  " d=" M   883.85,   256.74  L   892.35,   256.74  " /><path style="stroke-width: 1.42 ;&st7;  " d=" M   815.86,   341.73  L   824.36,   341.73  " /><path style="stroke-width: 1.42 ;&st7;  " d=" M   722.38,   333.23  L   713.88,   333.23  " /><text style="&st18;" transform="matrix(&st17;  633.7  428.4 )">B</text><text style="&st18;" transform="matrix(&st17;  608.2  175.58 )">GR</text><text style="&st18;" transform="matrix(&st17;  956.64  266.85 )">R</text><text style="&st18;" transform="matrix(&st17;  667.69  173.37 )">R</text><text style="&st18;" transform="matrix(&st17;  956.64  173.37 )">R</text><text style="&st18;" transform="matrix(&st17;  888.66  402.92 )">W-B</text><text style="&st18;" transform="matrix(&st17;  888.66  513.4 )">W-B</text><text style="&st18;" transform="matrix(&st17;  888.65  283.85 )">R</text><text style="&st18;" transform="matrix(&st17;  735.68  430.5 )">LG</text><text style="&st18;" transform="matrix(&st17;  820.67  309.35 )">R</text><text style="&st18;" transform="matrix(&st17;  778.17  311.52 )">LG</text><text style="&st18;" transform="matrix(&st17;  710.18  181.87 )">R</text><text style="&st18;" transform="matrix(&st17;  710.18  309.31 )">L</text><text style="&st18;" transform="matrix(&st17;  735.68  309.42 )">B</text><text style="&st18;" transform="matrix(&st17;  820.67  368.84 )">R</text><text style="&st18;" transform="matrix(&st17;  710.18  428.29 )">L</text><text style="&st18;" transform="matrix(&st16;  541.8  618.48 )">R</text><text style="&st18;" transform="matrix(&st16;  541.45  32.08 )">G</text><text style="&st18;" transform="matrix(&st16;  541.72  635.48 )">B</text><text style="&st18;" transform="matrix(&st16;  541.72  592.99 )">B</text><text style="&st18;" transform="matrix(&st16;  541.8  575.99 )">R</text><text style="&st18;" transform="matrix(&st16;  541.84  558.99 )">L</text><g ewd:figtype="conn" ewd:figID="14" ewd:code="A45,A46"><path style="stroke-width: 0.85 ;&st7;  " d=" M   824.36,   392.72  L   824.36,   409.72  " /><path style="stroke-width: 1.42 ;&st7;  " d=" M   773.37,   392.72  L   773.37,   409.72  L   832.86,   409.72  L   832.86,   392.72  L   773.37,   392.72  " /><path style="stroke-width: 0.85 ;&st7;  " d=" M   781.87,   392.72  L   781.87,   401.22  L   824.36,   401.22  " /><path style="stroke-width: 0.85 ;&st7;  " d=" M   823.17,   400.22  L   822.90,   400.69  L   822.80,   401.22  L   822.90,   401.75  L   823.17,   402.22  L   823.58,   402.57  L   824.09,   402.75  L   824.63,   402.75  L   825.14,   402.57  L   825.55,   402.22  L   825.83,   401.75  L   825.92,   401.22  L   825.83,   400.69  L   825.55,   400.22  L   825.14,   399.87  L   824.63,   399.68  L   824.09,   399.68  L   823.58,   399.87  L   823.17,   400.22  L   823.56,   400.93  L   823.56,   401.51  L   823.94,   401.95  L   824.51,   402.05  L   825.01,   401.77  L   825.21,   401.22  L   825.01,   400.67  L   824.51,   400.38  L   823.94,   400.48  L   824.36,   401.22  " /><text style="&st18;" transform="matrix(&st16;  815.67  416.22 )">4</text><text style="&st18;" transform="matrix(&st16;  822.06  416.22 )">A</text><path style="stroke-width: 1.42 ;&st7;   " d=" M   828.89,   414.25  C   828.89    411.75    826.87    409.72    824.36    409.72  " /><path style="stroke-width: 1.42 ;&st7;   " d=" M   824.36,   409.72  C   821.86    409.72    819.83    411.75    819.83    414.25  " /><path style="stroke-width: 1.42 ;&st7;   " d=" M   819.83,   414.25  C   819.83    416.75    821.86    418.78    824.36    418.78  " /><path style="stroke-width: 1.42 ;&st7;   " d=" M   824.36,   418.78  C   826.87    418.78    828.89    416.75    828.89    414.25  " /><text style="&st18;" transform="matrix(&st16;  773.18  390.16 )">3</text><path style="stroke-width: 1.42 ;&st7;   " d=" M   786.40,   388.19  C   786.40    385.68    784.37    383.65    781.87    383.65  " /><path style="stroke-width: 1.42 ;&st7;   " d=" M   781.87,   383.65  C   779.37    383.65    777.34    385.68    777.34    388.19  " /><path style="stroke-width: 1.42 ;&st7;   " d=" M   777.34,   388.19  C   777.34    390.69    779.37    392.72    781.87    392.72  " /><path style="stroke-width: 1.42 ;&st7;   " d=" M   781.87,   392.72  C   784.37    392.72    786.40    390.69    786.40    388.19  " /><text style="&st18;" transform="matrix(&st16;  779.56  390.16 )">A</text><text style="&st18;" transform="matrix(&st16;  815.67  390.16 )">4</text><text style="&st18;" transform="matrix(&st16;  822.17  390.16 )">B</text><path style="stroke-width: 1.42 ;&st7;   " d=" M   828.89,   388.19  C   828.89    385.68    826.87    383.65    824.36    383.65  " /><path style="stroke-width: 1.42 ;&st7;   " d=" M   824.36,   383.65  C   821.86    383.65    819.83    385.68    819.83    388.19  " /><path style="stroke-width: 1.42 ;&st7;   " d=" M   819.83,   388.19  C   819.83    390.69    821.86    392.72    824.36    392.72  " /><path style="stroke-width: 1.42 ;&st7;   " d=" M   824.36,   392.72  C   826.87    392.72    828.89    390.69    828.89    388.19  " /><g ewd:figtype="title"><text style="&st18;" transform="matrix(&st17;  847.58  412.62 )" ewd:textID="55">No. 1 Junction <tspan x="0 " dy="6.0">Connector</tspan></text><text style="&st18;" transform="matrix(&st17;  840.75  412.62 )">A45(A),A46(B)</text></g></g><g ewd:figtype="conn" ewd:figID="15" ewd:code="A76"><path style="stroke-width: 0.85 ;&st7;  " d=" M   739.38,   392.72  L   739.38,   384.22  L   736.54,   382.80  L   742.21,   379.97  L   736.54,   377.14  L   742.21,   374.31  L   736.54,   371.47  L   742.21,   368.64  L   739.38,   367.22  L   739.38,   358.73  " /><path style="stroke-width: 1.42 ;&st7;  " d=" M   730.88,   392.72  L   747.87,   392.72  L   747.87,   358.73  L   730.88,   358.73  L   730.88,   392.72  " /><text style="&st18;" transform="matrix(&st16;  733.19  400.91 )">2</text><text style="&st18;" transform="matrix(&st16;  733.19  355.04 )">1</text><g ewd:figtype="title"><text style="&st18;" transform="matrix(&st17;  755.49  395.62 )">A76</text><text style="&st18;" transform="matrix(&st17;  762.59  395.63 )" ewd:textID="37">Fuel Pump Resistor</text></g></g><g ewd:figtype="conn" ewd:figID="17" ewd:code="O6"><path style="stroke-width: 1.42 ;&st7;  " d=" M   896.60,   321.90  L   896.60,   325.86  " /><path style="stroke-width: 1.42 ;&st7;  " d=" M   888.10,   325.86  L   888.10,   321.90  " /><path style="stroke-width: 1.42 ;&st7;  " d=" M   888.10,   321.90  L   896.60,   321.90  " /><path style="stroke-width: 1.42 ;&st7;  " d=" M   896.60,   344.56  L   896.60,   340.60  " /><path style="stroke-width: 1.42 ;&st7;  " d=" M   888.10,   340.60  L   888.10,   344.56  " /><path style="stroke-width: 1.42 ;&st7;  " d=" M   888.10,   344.56  L   896.60,   344.56  " /><path style="stroke-width: 1.42 ;&st7;   " d=" M   900.85,   333.23  C   900.85    328.54    897.04    324.73    892.35    324.73  " /><path style="stroke-width: 1.42 ;&st7;   " d=" M   892.35,   324.73  C   887.66    324.73    883.85    328.54    883.85    333.23  " /><path style="stroke-width: 1.42 ;&st7;   " d=" M   883.85,   333.23  C   883.85    337.92    887.66    341.73    892.35    341.73  " /><path style="stroke-width: 1.42 ;&st7;   " d=" M   892.35,   341.73  C   897.04    341.73    900.85    337.92    900.85    333.23  " /><path style="stroke-width: 0.85 ;&st7;  " d=" M   892.35,   367.22  L   892.35,   344.56  " /><path style="stroke-width: 0.85 ;&st7;  " d=" M   892.35,   299.24  L   892.35,   321.90  " /><path style="stroke-width: 1.42 ;&st7;  " d=" M   866.85,   299.24  L   866.85,   367.22  L   909.35,   367.22  L   909.35,   299.24  L   866.85,   299.24  " /><text style="&st18;" transform="matrix(&st17;  880.44  340.0 )" ewd:textID="75">Pump</text><text style="&st18;" transform="matrix(&st16;  889.62  335.2 )">M</text><text style="&st18;" transform="matrix(&st16;  894.93  363.53 )">E</text><text style="&st18;" transform="matrix(&st16;  894.93  307.43 )">B</text><text style="&st18;" transform="matrix(&st16;  886.17  375.42 )">5</text><text style="&st18;" transform="matrix(&st16;  886.17  295.55 )">4</text><g ewd:figtype="title"><text style="&st18;" transform="matrix(&st17;  924.07  370.13 )" ewd:textID="38">Fuel Sender Gage Assembly</text><text style="&st18;" transform="matrix(&st17;  916.96  370.12 )">O6</text></g></g><g ewd:figtype="rb" ewd:figID="73" ewd:code="1"><path style="stroke-width: 1.42 ;&st7;  " d=" M   783.99,   290.74  L   779.74,   290.74  " /><path style="stroke-width: 1.42 ;&st7;  " d=" M   783.99,   282.24  L   779.74,   282.24  " /><path style="stroke-width: 1.42 ;&st7;  " d=" M   741.50,   290.74  L   737.25,   290.74  " /><path style="stroke-width: 1.42 ;&st7;  " d=" M   741.50,   282.24  L   737.25,   282.24  " /><path style="stroke-width: 1.42 ;&st7;  " d=" M   716.01,   290.74  L   711.76,   290.74  " /><path style="stroke-width: 1.42 ;&st7;  " d=" M   716.01,   282.24  L   711.76,   282.24  " /><path style="stroke-width: 1.42 ;&st7;  " d=" M   741.50,   197.25  L   737.25,   197.25  " /><path style="stroke-width: 1.42 ;&st7;  " d=" M   741.50,   188.75  L   737.25,   188.75  " /><path style="stroke-width: 1.42 ;&st7;  " d=" M   716.01,   197.25  L   711.76,   197.25  " /><path style="stroke-width: 1.42 ;&st7;  " d=" M   716.01,   188.75  L   711.76,   188.75  " /><path style="stroke-width: 1.42 ;&st7;   " d=" M   788.24,   286.49  C   788.24    284.14    786.34    282.24    783.99    282.24  " /><path style="stroke-width: 1.42 ;&st7;   " d=" M   783.99,   290.74  C   786.34    290.74    788.24    288.83    788.24    286.49  " /><path style="stroke-width: 1.42 ;&st7;   " d=" M   775.50,   286.49  C   775.50    288.83    777.40    290.74    779.74    290.74  " /><path style="stroke-width: 1.42 ;&st7;   " d=" M   779.74,   282.24  C   777.40    282.24    775.50    284.14    775.50    286.49  " /><path style="stroke-width: 1.42 ;&st7;   " d=" M   745.75,   286.49  C   745.75    284.14    743.85    282.24    741.50    282.24  " /><path style="stroke-width: 1.42 ;&st7;   " d=" M   741.50,   290.74  C   743.85    290.74    745.75    288.83    745.75    286.49  " /><path style="stroke-width: 1.42 ;&st7;   " d=" M   733.00,   286.49  C   733.00    288.83    734.91    290.74    737.25    290.74  " /><path style="stroke-width: 1.42 ;&st7;   " d=" M   737.25,   282.24  C   734.91    282.24    733.00    284.14    733.00    286.49  " /><path style="stroke-width: 1.42 ;&st7;   " d=" M   720.25,   286.49  C   720.25    284.14    718.35    282.24    716.01    282.24  " /><path style="stroke-width: 1.42 ;&st7;   " d=" M   716.01,   290.74  C   718.35    290.74    720.25    288.83    720.25    286.49  " /><path style="stroke-width: 1.42 ;&st7;   " d=" M   707.51,   286.49  C   707.51    288.83    709.41    290.74    711.76    290.74  " /><path style="stroke-width: 1.42 ;&st7;   " d=" M   711.76,   282.24  C   709.41    282.24    707.51    284.14    707.51    286.49  " /><path style="stroke-width: 1.42 ;&st7;   " d=" M   745.75,   193.00  C   745.75    190.66    743.85    188.75    741.50    188.75  " /><path style="stroke-width: 1.42 ;&st7;   " d=" M   741.50,   197.25  C   743.85    197.25    745.75    195.35    745.75    193.00  " /><path style="stroke-width: 1.42 ;&st7;   " d=" M   733.00,   193.00  C   733.00    195.35    734.91    197.25    737.25    197.25  " /><path style="stroke-width: 1.42 ;&st7;   " d=" M   737.25,   188.75  C   734.91    188.75    733.00    190.66    733.00    193.00  " /><path style="stroke-width: 1.42 ;&st7;   " d=" M   720.25,   193.00  C   720.25    190.66    718.35    188.75    716.01    188.75  " /><path style="stroke-width: 1.42 ;&st7;   " d=" M   716.01,   197.25  C   718.35    197.25    720.25    195.35    720.25    193.00  " /><path style="stroke-width: 1.42 ;&st7;   " d=" M   707.51,   193.00  C   707.51    195.35    709.41    197.25    711.76    197.25  " /><path style="stroke-width: 1.42 ;&st7;   " d=" M   711.76,   188.75  C   709.41    188.75    707.51    190.66    707.51    193.00  " /><path style="stroke-width: 0.28 ;&st9;  " d=" M   781.87,   277.34  L   779.04,   274.51  L   779.04,   278.76  L   781.87,   281.59  L   784.70,   278.76  L   784.70,   274.51  L   781.87,   277.34  " /><path style="stroke-width: 0.85 ;&st7;  " d=" M   747.87,   239.75  L   781.87,   239.75  L   781.87,   282.24  " /><path style="stroke-width: 0.85 ;&st7;  " d=" M   713.88,   282.24  L   713.88,   256.74  " /><path style="stroke-width: 0.28 ;&st9;  " d=" M   739.38,   277.34  L   736.54,   274.51  L   736.54,   278.76  L   739.38,   281.59  L   742.21,   278.76  L   742.21,   274.51  L   739.38,   277.34  " /><path style="stroke-width: 0.85 ;&st7;  " d=" M   739.38,   256.74  L   739.38,   282.24  " /><path style="stroke-width: 0.28 ;&st9;  " d=" M   713.88,   277.34  L   711.05,   274.51  L   711.05,   278.76  L   713.88,   281.59  L   716.71,   278.76  L   716.71,   274.51  L   713.88,   277.34  " /><path style="stroke-width: 0.85 ;&st7;  " d=" M   713.88,   197.25  L   713.88,   222.75  " /><path style="stroke-width: 0.28 ;&st9;  " d=" M   739.38,   202.15  L   742.21,   204.98  L   742.21,   200.73  L   739.38,   197.90  L   736.54,   200.73  L   736.54,   204.98  L   739.38,   202.15  " /><path style="stroke-width: 0.85 ;&st7;  " d=" M   739.38,   222.75  L   739.38,   197.25  " /><path style="stroke-width: 0.28 ;&st9;  " d=" M   713.88,   202.15  L   716.71,   204.98  L   716.71,   200.73  L   713.88,   197.90  L   711.05,   200.73  L   711.05,   204.98  L   713.88,   202.15  " /><text style="&st18;" transform="matrix(&st16;  780.07  288.46 )">1</text><text style="&st18;" transform="matrix(&st16;  707.7  264.94 )">1</text><text style="&st18;" transform="matrix(&st16;  707.7  219.06 )">2</text><text style="&st18;" transform="matrix(&st17;  689.54  260.44 )" ewd:textID="30">FUEL PMP/AIR <tspan x="0 " dy="6.0">PMP HTR </tspan><tspan x="0 " dy="6.0">Relay</tspan></text><text style="&st18;" transform="matrix(&st16;  750.46  236.05 )">4</text><text style="&st18;" transform="matrix(&st16;  737.58  288.46 )">1</text><text style="&st18;" transform="matrix(&st16;  712.08  288.46 )">1</text><text style="&st18;" transform="matrix(&st16;  737.58  194.97 )">1</text><text style="&st18;" transform="matrix(&st16;  712.08  194.97 )">1</text><text style="&st18;" transform="matrix(&st16;  733.19  219.06 )">3</text><text style="&st18;" transform="matrix(&st16;  733.19  264.94 )">5</text><path style="stroke-width: 0.85 ;&st7;  " d=" M   747.88,   239.75  L   745.04,   239.75  " /><path style="stroke-width: 1.42 ;&st7;  " d=" M   739.38,   229.83  L   745.04,   252.49  " /><path style="stroke-width: 0.85 ;&st7;  " d=" M   713.88,   248.24  L   713.88,   256.74  " /><path style="stroke-width: 0.85 ;&st7;  " d=" M   713.88,   222.75  L   713.88,   231.25  " /><path style="stroke-width: 0.85 ;&st7;  " d=" M   739.38,   222.75  L   739.38,   227.00  " /><path style="stroke-width: 0.85 ;&st7;  " d=" M   739.38,   256.74  L   739.38,   252.49  " /><path style="stroke-width: 0.85 ;&st7;   " d=" M   745.04,   239.75  C   745.04    238.96    744.41    238.33    743.63    238.33  " /><path style="stroke-width: 0.85 ;&st7;   " d=" M   743.63,   238.33  C   742.84    238.33    742.21    238.96    742.21    239.75  " /><path style="stroke-width: 0.85 ;&st7;   " d=" M   742.21,   239.75  C   742.21    240.53    742.84    241.16    743.63    241.16  " /><path style="stroke-width: 0.85 ;&st7;   " d=" M   743.63,   241.16  C   744.41    241.16    745.04    240.53    745.04    239.75  " /><path style="stroke-width: 0.85 ;&st7;   " d=" M   713.88,   248.24  C   715.84    248.24    717.42    246.66    717.42    244.70  " /><path style="stroke-width: 0.85 ;&st7;   " d=" M   717.42,   244.70  C   717.42    242.75    715.84    241.16    713.88    241.16  " /><path style="stroke-width: 0.85 ;&st7;   " d=" M   713.88,   241.16  C   712.89    241.16    712.04    241.52    711.35    242.22  " /><path style="stroke-width: 0.85 ;&st7;   " d=" M   711.35,   242.22  C   712.72    243.62    714.96    243.64    716.36    242.27  " /><path style="stroke-width: 0.85 ;&st7;   " d=" M   716.36,   242.27  C   717.76    240.91    717.78    238.66    716.41    237.27  " /><path style="stroke-width: 0.85 ;&st7;   " d=" M   716.41,   237.27  C   715.04    235.87    712.80    235.85    711.40    237.22  " /><path style="stroke-width: 0.85 ;&st7;   " d=" M   711.40,   237.22  C   711.38    237.23    711.37    237.25    711.35    237.27  " /><path style="stroke-width: 0.85 ;&st7;   " d=" M   711.35,   237.27  C   712.72    238.66    714.96    238.69    716.36    237.32  " /><path style="stroke-width: 0.85 ;&st7;   " d=" M   716.36,   237.32  C   717.76    235.95    717.78    233.71    716.41    232.31  " /><path style="stroke-width: 0.85 ;&st7;   " d=" M   716.41,   232.31  C   715.72    231.60    714.87    231.25    713.88    231.25  " /><path style="stroke-width: 0.85 ;&st7;   " d=" M   740.79,   228.41  C   740.79    227.63    740.16    227.00    739.38    227.00  " /><path style="stroke-width: 0.85 ;&st7;   " d=" M   739.38,   227.00  C   738.59    227.00    737.96    227.63    737.96    228.41  " /><path style="stroke-width: 0.85 ;&st7;   " d=" M   737.96,   228.41  C   737.96    229.20    738.59    229.83    739.38    229.83  " /><path style="stroke-width: 0.85 ;&st7;   " d=" M   739.38,   229.83  C   740.16    229.83    740.79    229.20    740.79    228.41  " /><path style="stroke-width: 0.85 ;&st7;   " d=" M   740.79,   251.08  C   740.79    250.29    740.16    249.66    739.38    249.66  " /><path style="stroke-width: 0.85 ;&st7;   " d=" M   739.38,   249.66  C   738.59    249.66    737.96    250.29    737.96    251.08  " /><path style="stroke-width: 0.85 ;&st7;   " d=" M   737.96,   251.08  C   737.96    251.86    738.59    252.49    739.38    252.49  " /><path style="stroke-width: 0.85 ;&st7;   " d=" M   739.38,   252.49  C   740.16    252.49    740.79    251.86    740.79    251.08  " /><path style="stroke-width: 1.42 ;&st7;  " d=" M   747.87,   222.75  L   705.38,   222.75  L   705.38,   256.74  L   747.87,   256.74  L   747.87,   222.75  " /></g><g ewd:figtype="w2w" ewd:figID="117" ewd:code="AG7"><path style="stroke-width: 1.42 ;&st7;  " d=" M   718.13,   342.29  L   713.88,   338.05  L   709.63,   342.29  " /><path style="stroke-width: 1.42 ;&st7;  " d=" M   718.13,   338.90  L   713.88,   334.65  L   709.63,   338.90  " /><text style="&st18;" transform="matrix(&st16;  701.25  330.95 )">6</text></g><g ewd:figtype="w2w" ewd:figID="118" ewd:code="AN1"><path style="stroke-width: 1.42 ;&st7;  " d=" M   820.11,   332.66  L   824.36,   336.91  L   828.61,   332.66  " /><path style="stroke-width: 1.42 ;&st7;  " d=" M   828.61,   336.06  L   824.36,   340.31  L   820.11,   336.06  " /><text style="&st18;" transform="matrix(&st16;  811.73  347.95 )">1</text></g><g ewd:figtype="w2w" ewd:figID="119" ewd:code="ON3"><path style="stroke-width: 1.42 ;&st7;  " d=" M   896.60,   432.38  L   892.35,   428.13  L   888.10,   432.38  " /><path style="stroke-width: 1.42 ;&st7;  " d=" M   896.60,   435.78  L   892.35,   431.53  L   888.10,   435.78  " /><text style="&st18;" transform="matrix(&st16;  879.72  424.43 )">6</text></g><g ewd:figtype="w2w" ewd:figID="120" ewd:code="ON3"><path style="stroke-width: 1.42 ;&st7;  " d=" M   896.60,   251.08  L   892.35,   255.33  L   888.10,   251.08  " /><path style="stroke-width: 1.42 ;&st7;  " d=" M   888.10,   247.68  L   892.35,   251.93  L   896.60,   247.68  " /><text style="&st18;" transform="matrix(&st16;  879.72  262.96 )">5</text></g><g ewd:figtype="w2w" ewd:figID="121" ewd:code="CA2"><path style="stroke-width: 1.42 ;&st7;  " d=" M   964.59,   219.92  L   960.34,   215.67  L   956.09,   219.92  " /><path style="stroke-width: 1.42 ;&st7;  " d=" M   964.59,   223.31  L   960.34,   219.07  L   956.09,   223.31  " /><text style="&st18;" transform="matrix(&st16;  944.61  211.97 )">11</text></g><g ewd:figtype="gp" ewd:figID="167" ewd:code="NB"><path style="stroke-width: 0.85 ;&st7;  " d=" M   889.52,   707.17  L   895.18,   707.17  " /><path style="stroke-width: 0.85 ;&st7;  " d=" M   890.93,   710.00  L   893.77,   710.00  " /><path style="stroke-width: 0.85 ;&st7;  " d=" M   883.85,   701.50  L   900.85,   701.50  " /><path style="stroke-width: 0.85 ;&st7;  " d=" M   892.35,   697.25  L   892.35,   701.50  " /><path style="stroke-width: 0.85 ;&st7;  " d=" M   888.10,   704.33  L   896.60,   704.33  " /></g></svg>