﻿<?xml version="1.0" encoding="utf-8"?>
<!DOCTYPE svg PUBLIC "-//W3C//DTD SVG 1.0//EN" "http://www.w3.org/TR/2001/REC-SVG-20010904/DTD/svg10.dtd"[
	<!ENTITY ns_flows "http://ns.adobe.com/Flows/1.0/">
	<!ENTITY ns_svg "http://www.w3.org/2000/svg">
	<!ENTITY ns_xlink "http://www.w3.org/1999/xlink">
	<!ENTITY st0 "font-size:7px;font-family:'MS-PGothic';adobe-font-script:japanese;">
	<!ENTITY st1 "font-size:6px;font-family:'ArialMT';">
	<!-- White fill  -->
	<!ENTITY st2 "fill:#FFFFFF;stroke:#000000; stroke-width:1.41;stroke-linecap:round;stroke-linejoin:round;">
	<!-- Yellow fill  -->
	<!ENTITY st3 "fill:#FFFFCC;stroke:#FFFFCC; stroke-width:0.1;stroke-linecap:round;stroke-linejoin:round;">
	<!-- Gray fill  -->
	<!ENTITY st4 "fill:#CCCCCC;stroke:#CCCCCC; stroke-width:0.1;stroke-linecap:round;stroke-linejoin:round;">
	<!-- Light-blue fill -->
	<!ENTITY st5 "fill:#CCECF4;stroke:#000000; stroke-width:1.133;stroke-linecap:round;stroke-linejoin:round;">
	<!ENTITY st6 "fill:none;stroke-linecap:butt; stroke-linejoin:round;">
	<!ENTITY st7 "fill:none;stroke:#000000;stroke-linecap:round;stroke-linejoin:round;">
	<!ENTITY st8 "enable-background:new    ;">
	<!-- Black fill -->
	<!ENTITY st9 "fill:#000000;stroke:#000000; stroke-linecap:round;stroke-linejoin:round;">
	<!-- SRS note   -->
	<!ENTITY st10 "font-size:9px;font-family:'ArialMT';">
	<!ENTITY st11 "font-size:9px;font-family:'Svg Symbol';">
	<!ENTITY st12 "font-size:6px;font-family:'Svg Symbol';">
	<!ENTITY st13 "fill:none;stroke:#ff0000;stroke-linecap:round;stroke-linejoin:round;">
	<!-- Yellow fill  -->
	<!ENTITY st14 "fill:#FFFF00;stroke:#FFFF00; stroke-width:0.1;stroke-linecap:round;stroke-linejoin:round;">
	<!ENTITY st15 "font-size:6px;font-family:'MS-PGothic';adobe-font-script:japanese;">
	<!ENTITY st16 "1.00 0.00 0.00 1.00">
	<!ENTITY st17 "0.00 -1.00 1.00 0.00">
	<!ENTITY st18 "font-size:6px;font-family:'Arial';">
	<!ENTITY st19 "font-size:9px;font-family:'Arial';">
	<!ENTITY st20 "font-size:6px;font-family:'MS-PGothic','MS PGothic';adobe-font-script:japanese;">
	<!ENTITY st21 "font-size:7px;font-family:'MS-PGothic','MS PGothic';adobe-font-script:japanese;">
	<!ATTLIST svg
		xmlns:ewd CDATA #FIXED "http://shcl.co.jp/ewd"
		xmlns:a CDATA #FIXED "http://ns.adobe.com/AdobeSVGViewerExtensions/3.0/"
		ewd:ver CDATA #IMPLIED
	>
	<!ATTLIST a
		ewd:lineID CDATA #IMPLIED
		ewd:groupID CDATA #IMPLIED
		ewd:figtype CDATA #IMPLIED
		ewd:code CDATA #IMPLIED
		ewd:figID CDATA #IMPLIED
		ewd:pinNo CDATA #IMPLIED
		ewd:comment CDATA #IMPLIED >
	<!ATTLIST g
		ewd:lineID CDATA #IMPLIED
		ewd:groupID CDATA #IMPLIED
		ewd:figtype CDATA #IMPLIED
		ewd:code CDATA #IMPLIED
		ewd:figID CDATA #IMPLIED
		ewd:pinNo CDATA #IMPLIED
		ewd:comment CDATA #IMPLIED >
	<!ATTLIST text
		ewd:textID CDATA #IMPLIED >
	<!ATTLIST title
		ewd:textID CDATA #IMPLIED >
]>
<!-- Generator: Shintec Hozumi YS   -->
<svg onload="call_execInitLoadProc_svg('system')" style="overflow:visible;  enable-background:new 0 0 1550.114 710.000" viewBox="0 0 1550.114 710.000" height="710.000" width="1550.114" xml:space="preserve" ewd:ver="2.1.2.9" xmlns="&ns_svg;" xmlns:a="http://ns.adobe.com/AdobeSVGViewerExtensions/3.0/" xmlns:ewd="http://shcl.co.jp/ewd" xmlns:xlink="&ns_xlink;">
<text style="&st18;" transform="matrix(&st17;  217.27  394.33 )">R</text><path style="stroke-width: 1.42 ;&st7;  " d=" M   203.97,   239.75  L   212.46,   239.75  " /><text style="&st18;" transform="matrix(&st17;  228.6  482.42 )">(*2)</text><text style="&st18;" transform="matrix(&st17;  242.76  479.32 )">R</text><text style="&st18;" transform="matrix(&st17;  254.09  482.42 )">(*1)</text><text style="&st18;" transform="matrix(&st17;  72.79  122.73 )">G</text><text style="&st18;" transform="matrix(&st17;  72.79  207.71 )">G</text><text style="&st18;" transform="matrix(&st17;  72.79  398.67 )">W-B</text><text style="&st18;" transform="matrix(&st17;  387.24  481.49 )">LG</text><text style="&st18;" transform="matrix(&st17;  387.24  394.68 )">G</text><text style="&st18;" transform="matrix(&st17;  344.75  483.66 )">W-B</text><text style="&st18;" transform="matrix(&st17;  344.75  394.41 )">Y</text><text style="&st18;" transform="matrix(&st17;  302.25  480.95 )">SB</text><text style="&st18;" transform="matrix(&st17;  302.25  394.21 )">P</text><text style="&st18;" transform="matrix(&st17;  217.27  479.39 )">B</text><text style="&st18;" transform="matrix(&st17;  174.77  483.66 )">W-B</text><text style="&st18;" transform="matrix(&st17;  174.77  394.29 )">L</text><text style="&st18;" transform="matrix(&st17;  132.28  479.28 )">L</text><text style="&st18;" transform="matrix(&st17;  132.28  394.29 )">L</text><text style="&st18;" transform="matrix(&st17;  72.79  288.45 )">G</text><text style="&st18;" transform="matrix(&st17;  463.73  275.31 )">L</text><text style="&st18;" transform="matrix(&st17;  463.73  215.82 )">L</text><text style="&st18;" transform="matrix(&st17;  378.74  275.35 )">R</text><text style="&st18;" transform="matrix(&st17;  378.74  215.86 )">R</text><text style="&st18;" transform="matrix(&st17;  293.75  277.52 )">LG</text><text style="&st18;" transform="matrix(&st17;  293.75  218.03 )">LG</text><text style="&st18;" transform="matrix(&st17;  293.75  158.54 )">LG</text><text style="&st18;" transform="matrix(&st17;  251.26  275.43 )">B</text><text style="&st18;" transform="matrix(&st17;  251.26  215.94 )">B</text><text style="&st18;" transform="matrix(&st17;  251.26  156.45 )">B</text><text style="&st18;" transform="matrix(&st17;  208.77  275.43 )">Y</text><text style="&st18;" transform="matrix(&st17;  208.77  215.94 )">Y</text><text style="&st18;" transform="matrix(&st17;  208.77  156.45 )">Y</text><path style="stroke-width: 1.42 ;&st7;  " d=" M   220.96,   188.75  L   212.46,   188.75  " /><path style="stroke-width: 1.42 ;&st7;  " d=" M   382.44,   435.21  L   390.93,   435.21  " /><path style="stroke-width: 1.42 ;&st7;  " d=" M   339.94,   435.21  L   348.44,   435.21  " /><path style="stroke-width: 1.42 ;&st7;  " d=" M   297.45,   435.21  L   305.95,   435.21  " /><path style="stroke-width: 1.42 ;&st7;  " d=" M   212.46,   435.21  L   220.96,   435.21  " /><path style="stroke-width: 1.42 ;&st7;  " d=" M   169.97,   435.21  L   178.47,   435.21  " /><path style="stroke-width: 1.42 ;&st7;  " d=" M   127.48,   435.21  L   135.98,   435.21  " /><path style="stroke-width: 1.42 ;&st7;  " d=" M   475.92,   248.24  L   467.42,   248.24  " /><path style="stroke-width: 1.42 ;&st7;  " d=" M   390.93,   248.24  L   382.44,   248.24  " /><path style="stroke-width: 1.42 ;&st7;  " d=" M   288.95,   239.75  L   297.45,   239.75  " /><path style="stroke-width: 1.42 ;&st7;  " d=" M   305.95,   188.75  L   297.45,   188.75  " /><path style="stroke-width: 1.42 ;&st7;  " d=" M   246.46,   239.75  L   254.96,   239.75  " /><path style="stroke-width: 1.42 ;&st7;  " d=" M   263.46,   188.75  L   254.96,   188.75  " /><text style="&st18;" transform="matrix(&st17;  429.73  395.18 )">W</text><text style="&st18;" transform="matrix(&st17;  463.73  394.52 )">V</text><text style="&st18;" transform="matrix(&st16;  490.61  618.48 )">V</text><text style="&st18;" transform="matrix(&st16;  489.95  643.98 )">W</text><g ewd:figtype="conn" ewd:figID="11" ewd:code="O7"><path style="stroke-width: 1.42 ;&st7;  " d=" M   195.47,    78.27  L   195.47,   120.77  L   314.45,   120.77  L   314.45,    78.27  L   195.47,    78.27  " /><g ewd:lineID="11"><text style="&st18;" transform="matrix(&st16;  206.28  128.96 )">2</text><text style="&st18;" transform="matrix(&st16;  204.69  117.07 )">SHRR</text></g><g ewd:lineID="17"><text style="&st18;" transform="matrix(&st16;  248.77  128.96 )">3</text><text style="&st18;" transform="matrix(&st16;  248.97  117.07 )">SHB</text></g><g ewd:lineID="20"><text style="&st18;" transform="matrix(&st16;  291.27  128.96 )">1</text><text style="&st18;" transform="matrix(&st16;  291.19  117.07 )">SHG</text></g><g ewd:figtype="title"><text style="&st18;" transform="matrix(&st16;  192.06  68.63 )" ewd:textID="30">Rear Height Control <tspan x="0 " dy="6.0">Sensor Sub-Assembly LH</tspan></text><text style="&st18;" transform="matrix(&st16;  192.05  61.8 )">O7</text></g></g><g ewd:figtype="conn" ewd:figID="13" ewd:code="A57"><path style="stroke-width: 1.42 ;&st7;  " d=" M   450.42,   180.26  L   484.42,   180.26  L   484.42,   146.26  L   450.42,   146.26  L   450.42,   180.26  " /><text style="&st18;" transform="matrix(&st16;  461.24  188.45 )">4</text><text style="&st18;" transform="matrix(&st16;  465.62  176.56 )">S</text><g ewd:figtype="title"><text style="&st18;" transform="matrix(&st16;  447.02  136.62 )" ewd:textID="13">Headlight <tspan x="0 " dy="6.0">Assembly LH</tspan></text><text style="&st18;" transform="matrix(&st16;  447.01  129.79 )">A57</text></g></g><g ewd:figtype="conn" ewd:figID="14" ewd:code="A56"><path style="stroke-width: 1.42 ;&st7;  " d=" M   365.44,   180.26  L   399.43,   180.26  L   399.43,   146.26  L   365.44,   146.26  L   365.44,   180.26  " /><text style="&st18;" transform="matrix(&st16;  376.25  188.45 )">4</text><text style="&st18;" transform="matrix(&st16;  380.64  176.56 )">S</text><g ewd:figtype="title"><text style="&st18;" transform="matrix(&st16;  362.03  136.62 )" ewd:textID="14">Headlight <tspan x="0 " dy="6.0">Assembly RH</tspan></text><text style="&st18;" transform="matrix(&st16;  362.03  129.79 )">A56</text></g></g><g ewd:figtype="conn" ewd:figID="15" ewd:code="G40"><path style="stroke-width: 1.42 ;&st7;  " d=" M    59.49,   307.73  L    59.49,   358.73  L   484.42,   358.73  L   484.42,   307.73  L    59.49,   307.73  " /><g ewd:lineID="1"><text style="&st18;" transform="matrix(&st16;  70.3  366.92 )">9</text><text style="&st18;" transform="matrix(&st16;  72.83  355.03 )">E1</text></g><g ewd:lineID="14"><text style="&st18;" transform="matrix(&st16;  211.68  366.92 )">17</text><text style="&st18;" transform="matrix(&st16;  214.66  355.03 )">RHT</text></g><g ewd:lineID="15"><text style="&st18;" transform="matrix(&st16;  245.67  304.04 )">12</text><text style="&st18;" transform="matrix(&st16;  249.36  315.37 )">SBR</text></g><g ewd:lineID="18"><text style="&st18;" transform="matrix(&st16;  288.16  304.04 )">21</text><text style="&st18;" transform="matrix(&st16;  291.58  315.37 )">SGR</text></g><g ewd:lineID="2"><text style="&st18;" transform="matrix(&st16;  70.3  304.04 )">1</text><text style="&st18;" transform="matrix(&st16;  73.14  315.37 )">IG</text></g><g ewd:lineID="22"><text style="&st18;" transform="matrix(&st16;  296.66  366.92 )">11</text><text style="&st18;" transform="matrix(&st16;  300.08  355.03 )">LH+</text></g><g ewd:lineID="24"><text style="&st18;" transform="matrix(&st16;  339.16  366.92 )">24</text><text style="&st18;" transform="matrix(&st16;  342.57  355.03 )">LH-</text></g><g ewd:lineID="25"><text style="&st18;" transform="matrix(&st16;  376.25  304.04 )">2</text><text style="&st18;" transform="matrix(&st16;  373.93  315.37 )">RLEW</text></g><g ewd:lineID="28"><text style="&st18;" transform="matrix(&st16;  381.65  366.92 )">18</text><text style="&st18;" transform="matrix(&st16;  384.68  355.03 )">LHT</text></g><g ewd:lineID="29"><text style="&st18;" transform="matrix(&st16;  427.24  366.92 )">7</text><text style="&st18;" transform="matrix(&st16;  425.07  355.03 )">CANL</text></g><g ewd:lineID="30"><text style="&st18;" transform="matrix(&st16;  461.24  366.92 )">6</text><text style="&st18;" transform="matrix(&st16;  458.64  355.03 )">CANH</text></g><g ewd:lineID="31"><text style="&st18;" transform="matrix(&st16;  461.24  304.04 )">3</text><text style="&st18;" transform="matrix(&st16;  458.95  315.37 )">LLEW</text></g><g ewd:lineID="6"><text style="&st18;" transform="matrix(&st16;  126.69  366.92 )">10</text><text style="&st18;" transform="matrix(&st16;  130.07  355.03 )">RH+</text></g><g ewd:lineID="8"><text style="&st18;" transform="matrix(&st16;  169.18  366.92 )">23</text><text style="&st18;" transform="matrix(&st16;  172.56  355.03 )">RH-</text></g><g ewd:lineID="9"><text style="&st18;" transform="matrix(&st16;  203.18  304.04 )">19</text><text style="&st18;" transform="matrix(&st16;  204.73  315.37 )">SHRL</text></g><g ewd:figtype="title"><text style="&st18;" transform="matrix(&st16;  115.57  291.26 )">G40</text><text style="&st18;" transform="matrix(&st16;  115.57  298.09 )" ewd:textID="15">Headlight Leveling <tspan x="0 " dy="6.0">ECU Assembly</tspan></text></g></g><g ewd:figtype="conn" ewd:figID="16" ewd:code="G110,G147"><path style="stroke-width: 0.85 ;&st7;  " d=" M    76.49,   239.75  L    76.49,   256.74  " /><path style="stroke-width: 1.42 ;&st7;  " d=" M    67.99,   239.75  L    84.99,   239.75  L    84.99,   256.74  L    67.99,   256.74  L    67.99,   239.75  " /><text style="&st18;" transform="matrix(&st16;  67.79  272.31 )">7</text><text style="&st18;" transform="matrix(&st16;  67.79  263.24 )">4</text><path style="stroke-width: 1.42 ;&st7;   " d=" M    81.02,   270.34  C    81.02    267.84     78.99    265.81     76.49    265.81  " /><path style="stroke-width: 1.42 ;&st7;   " d=" M    76.49,   265.81  C    73.98    265.81     71.95    267.84     71.95    270.34  " /><path style="stroke-width: 1.42 ;&st7;   " d=" M    71.95,   270.34  C    71.95    272.84     73.98    274.87     76.49    274.87  " /><path style="stroke-width: 1.42 ;&st7;   " d=" M    76.49,   274.87  C    78.99    274.87     81.02    272.84     81.02    270.34  " /><path style="stroke-width: 1.42 ;&st7;   " d=" M    81.02,   261.27  C    81.02    258.77     78.99    256.74     76.49    256.74  " /><path style="stroke-width: 1.42 ;&st7;   " d=" M    76.49,   256.74  C    73.98    256.74     71.95    258.77     71.95    261.27  " /><path style="stroke-width: 1.42 ;&st7;   " d=" M    71.95,   261.27  C    71.95    263.78     73.98    265.81     76.49    265.81  " /><path style="stroke-width: 1.42 ;&st7;   " d=" M    76.49,   265.81  C    78.99    265.81     81.02    263.78     81.02    261.27  " /><text style="&st18;" transform="matrix(&st16;  74.3  272.31 )">B</text><text style="&st18;" transform="matrix(&st16;  74.18  263.24 )">A</text><text style="&st18;" transform="matrix(&st16;  67.79  237.18 )">9</text><text style="&st18;" transform="matrix(&st16;  67.79  228.12 )">5</text><path style="stroke-width: 1.42 ;&st7;   " d=" M    81.02,   226.15  C    81.02    223.64     78.99    221.61     76.49    221.61  " /><path style="stroke-width: 1.42 ;&st7;   " d=" M    76.49,   221.61  C    73.98    221.61     71.95    223.64     71.95    226.15  " /><path style="stroke-width: 1.42 ;&st7;   " d=" M    71.95,   226.15  C    71.95    228.65     73.98    230.68     76.49    230.68  " /><path style="stroke-width: 1.42 ;&st7;   " d=" M    76.49,   230.68  C    78.99    230.68     81.02    228.65     81.02    226.15  " /><path style="stroke-width: 1.42 ;&st7;   " d=" M    81.02,   235.21  C    81.02    232.71     78.99    230.68     76.49    230.68  " /><path style="stroke-width: 1.42 ;&st7;   " d=" M    76.49,   230.68  C    73.98    230.68     71.95    232.71     71.95    235.21  " /><path style="stroke-width: 1.42 ;&st7;   " d=" M    71.95,   235.21  C    71.95    237.72     73.98    239.75     76.49    239.75  " /><path style="stroke-width: 1.42 ;&st7;   " d=" M    76.49,   239.75  C    78.99    239.75     81.02    237.72     81.02    235.21  " /><text style="&st18;" transform="matrix(&st16;  74.3  237.18 )">B</text><text style="&st18;" transform="matrix(&st16;  74.18  228.12 )">A</text><g ewd:figtype="title"><text style="&st18;" transform="matrix(&st17;  31.41  259.64 )">G147(A)</text><text style="&st18;" transform="matrix(&st17;  58.34  259.65 )" ewd:textID="19">No. 9 Junction <tspan x="0 " dy="6.0">Connector</tspan></text><text style="&st18;" transform="matrix(&st17;  38.23  259.65 )" ewd:textID="28">No. 31 Junction <tspan x="0 " dy="6.0">Connector</tspan></text><text style="&st18;" transform="matrix(&st17;  51.52  259.64 )">G110(B)</text></g><g ewd:code="" ewd:figID="60" ewd:comment="" ewd:figtype="commref"><text style="&st18;" transform="matrix(&st16;  81.58  237.18 )">(RHD)</text></g><g ewd:code="" ewd:figID="61" ewd:comment="" ewd:figtype="commref"><text style="&st18;" transform="matrix(&st16;  81.58  228.12 )">(LHD)</text></g><g ewd:code="" ewd:figID="64" ewd:comment="" ewd:figtype="commref"><text style="&st18;" transform="matrix(&st16;  81.58  272.31 )">(RHD)</text></g><g ewd:code="" ewd:figID="65" ewd:comment="" ewd:figtype="commref"><text style="&st18;" transform="matrix(&st16;  81.58  263.24 )">(LHD)</text></g></g><g ewd:figtype="conn" ewd:figID="17" ewd:code="G114,G144"><path style="stroke-width: 0.85 ;&st7;  " d=" M    76.49,   154.76  L    76.49,   171.76  " /><path style="stroke-width: 1.42 ;&st7;  " d=" M    67.99,   154.76  L    84.99,   154.76  L    84.99,   171.76  L    67.99,   171.76  L    67.99,   154.76  " /><text style="&st18;" transform="matrix(&st16;  67.79  187.32 )">7</text><text style="&st18;" transform="matrix(&st16;  64.69  178.26 )">18</text><path style="stroke-width: 1.42 ;&st7;   " d=" M    81.02,   185.35  C    81.02    182.85     78.99    180.82     76.49    180.82  " /><path style="stroke-width: 1.42 ;&st7;   " d=" M    76.49,   180.82  C    73.98    180.82     71.95    182.85     71.95    185.35  " /><path style="stroke-width: 1.42 ;&st7;   " d=" M    71.95,   185.35  C    71.95    187.86     73.98    189.89     76.49    189.89  " /><path style="stroke-width: 1.42 ;&st7;   " d=" M    76.49,   189.89  C    78.99    189.89     81.02    187.86     81.02    185.35  " /><path style="stroke-width: 1.42 ;&st7;   " d=" M    81.02,   176.29  C    81.02    173.79     78.99    171.76     76.49    171.76  " /><path style="stroke-width: 1.42 ;&st7;   " d=" M    76.49,   171.76  C    73.98    171.76     71.95    173.79     71.95    176.29  " /><path style="stroke-width: 1.42 ;&st7;   " d=" M    71.95,   176.29  C    71.95    178.79     73.98    180.82     76.49    180.82  " /><path style="stroke-width: 1.42 ;&st7;   " d=" M    76.49,   180.82  C    78.99    180.82     81.02    178.79     81.02    176.29  " /><text style="&st18;" transform="matrix(&st16;  74.3  187.32 )">B</text><text style="&st18;" transform="matrix(&st16;  74.18  178.26 )">A</text><text style="&st18;" transform="matrix(&st16;  67.79  152.2 )">6</text><text style="&st18;" transform="matrix(&st16;  64.69  143.13 )">17</text><path style="stroke-width: 1.42 ;&st7;   " d=" M    81.02,   141.16  C    81.02    138.66     78.99    136.63     76.49    136.63  " /><path style="stroke-width: 1.42 ;&st7;   " d=" M    76.49,   136.63  C    73.98    136.63     71.95    138.66     71.95    141.16  " /><path style="stroke-width: 1.42 ;&st7;   " d=" M    71.95,   141.16  C    71.95    143.66     73.98    145.69     76.49    145.69  " /><path style="stroke-width: 1.42 ;&st7;   " d=" M    76.49,   145.69  C    78.99    145.69     81.02    143.66     81.02    141.16  " /><path style="stroke-width: 1.42 ;&st7;   " d=" M    81.02,   150.23  C    81.02    147.72     78.99    145.69     76.49    145.69  " /><path style="stroke-width: 1.42 ;&st7;   " d=" M    76.49,   145.69  C    73.98    145.69     71.95    147.72     71.95    150.23  " /><path style="stroke-width: 1.42 ;&st7;   " d=" M    71.95,   150.23  C    71.95    152.73     73.98    154.76     76.49    154.76  " /><path style="stroke-width: 1.42 ;&st7;   " d=" M    76.49,   154.76  C    78.99    154.76     81.02    152.73     81.02    150.23  " /><text style="&st18;" transform="matrix(&st16;  74.3  152.2 )">B</text><text style="&st18;" transform="matrix(&st16;  74.18  143.13 )">A</text><g ewd:figtype="title"><text style="&st18;" transform="matrix(&st17;  48.69  174.66 )">G144(A)</text><text style="&st18;" transform="matrix(&st17;  55.51  174.66 )" ewd:textID="27">No. 28 Junction <tspan x="0 " dy="6.0">Connector</tspan></text><text style="&st18;" transform="matrix(&st17;  35.4  174.66 )" ewd:textID="21">No. 13 Junction <tspan x="0 " dy="6.0">Connector</tspan></text><text style="&st18;" transform="matrix(&st17;  28.57  174.66 )">G114(B)</text></g><g ewd:code="" ewd:figID="58" ewd:comment="" ewd:figtype="commref"><text style="&st18;" transform="matrix(&st16;  81.58  152.2 )">(RHD)</text></g><g ewd:code="" ewd:figID="59" ewd:comment="" ewd:figtype="commref"><text style="&st18;" transform="matrix(&st16;  81.58  143.13 )">(LHD)</text></g><g ewd:code="" ewd:figID="62" ewd:comment="" ewd:figtype="commref"><text style="&st18;" transform="matrix(&st16;  81.58  187.32 )">(RHD)</text></g><g ewd:code="" ewd:figID="63" ewd:comment="" ewd:figtype="commref"><text style="&st18;" transform="matrix(&st16;  81.58  178.26 )">(LHD)</text></g></g><g ewd:figtype="conn" ewd:figID="19" ewd:code="A19"><text style="&st18;" transform="matrix(&st16;  213.73  527.83 )">RH T</text><text style="&st18;" transform="matrix(&st16;  171.32  527.83 )">RH E</text><text style="&st18;" transform="matrix(&st16;  128.52  527.83 )">RHIG</text><path style="stroke-width: 1.42 ;&st7;  " d=" M   118.98,   520.20  L   118.98,   562.69  L   237.96,   562.69  L   237.96,   520.20  L   118.98,   520.20  " /><text style="&st18;" transform="matrix(&st16;  158.76  540.5 )" ewd:textID="16">Headlight <tspan x="0 " dy="6.0">Leveling Motor</tspan></text><text style="&st18;" transform="matrix(&st16;  214.78  516.51 )">2</text><text style="&st18;" transform="matrix(&st16;  129.79  516.51 )">3</text><text style="&st18;" transform="matrix(&st16;  172.29  516.51 )">1</text><g ewd:figtype="title"><text style="&st18;" transform="matrix(&st16;  115.57  570.58 )">A19</text><text style="&st18;" transform="matrix(&st16;  115.57  577.41 )" ewd:textID="14">Headlight Assembly RH</text></g></g><g ewd:figtype="conn" ewd:figID="21" ewd:code="A20"><text style="&st18;" transform="matrix(&st16;  383.74  527.83 )">LH T</text><text style="&st18;" transform="matrix(&st16;  341.33  527.83 )">LH E</text><text style="&st18;" transform="matrix(&st16;  298.53  527.83 )">LHIG</text><path style="stroke-width: 1.42 ;&st7;  " d=" M   288.95,   562.69  L   407.93,   562.69  L   407.93,   520.20  L   288.95,   520.20  L   288.95,   562.69  " /><text style="&st18;" transform="matrix(&st16;  328.73  540.5 )" ewd:textID="16">Headlight <tspan x="0 " dy="6.0">Leveling Motor</tspan></text><text style="&st18;" transform="matrix(&st16;  299.76  516.51 )">3</text><text style="&st18;" transform="matrix(&st16;  342.26  516.51 )">1</text><text style="&st18;" transform="matrix(&st16;  384.75  516.51 )">2</text><g ewd:figtype="title"><text style="&st18;" transform="matrix(&st16;  285.54  570.58 )">A20</text><text style="&st18;" transform="matrix(&st16;  285.55  577.41 )" ewd:textID="13">Headlight Assembly LH</text></g></g><g ewd:figtype="jb" ewd:figID="27" ewd:code="2"><text style="&st18;" transform="matrix(&st16;  71.27  32.08 )">(IG)</text><text style="&st18;" transform="matrix(&st16;  70.3  86.47 )">2</text><text style="&st18;" transform="matrix(&st16;  65.98  101.49 )">7</text><text style="&st18;" transform="matrix(&st16;  72.94  101.49 )">2P</text><text style="&st18;" transform="matrix(&st16;  92.91  53.34 )">10A <tspan x="0 " dy="6.0">IG1 </tspan><tspan x="0 " dy="6.0">NO.4</tspan></text><path style="stroke-width: 1.42 ;&st7;   " d=" M    76.49,    47.11  C    73.75     48.72     72.84     52.25     74.45     54.99  " /><path style="stroke-width: 1.42 ;&st7;   " d=" M    74.45,    54.99  C    74.97     55.87     75.61     56.51     76.49     57.03  " /><path style="stroke-width: 1.42 ;&st7;  " d=" M    63.74,    35.78  L    63.74,    78.27  L    89.24,    78.27  L    89.24,    35.78  L    63.74,    35.78  " /><path style="stroke-width: 0.28 ;&st9;  " d=" M    76.49,    90.37  L    73.65,    87.54  L    73.65,    91.79  L    76.49,    94.62  L    79.32,    91.79  L    79.32,    87.54  L    76.49,    90.37  " /><path style="stroke-width: 1.42 ;&st7;   " d=" M    82.86,    99.52  C    82.86     97.17     80.96     95.27     78.61     95.27  " /><path style="stroke-width: 1.42 ;&st7;   " d=" M    78.61,   103.77  C    80.96    103.77     82.86    101.87     82.86     99.52  " /><path style="stroke-width: 1.42 ;&st7;   " d=" M    70.11,    99.52  C    70.11    101.87     72.02    103.77     74.36    103.77  " /><path style="stroke-width: 1.42 ;&st7;   " d=" M    74.36,    95.27  C    72.02     95.27     70.11     97.17     70.11     99.52  " /><path style="stroke-width: 0.85 ;&st7;   " d=" M    77.90,    68.36  C    77.90     67.57     77.27     66.94     76.49     66.94  " /><path style="stroke-width: 0.85 ;&st7;   " d=" M    76.49,    66.94  C    75.70     66.94     75.07     67.57     75.07     68.36  " /><path style="stroke-width: 0.85 ;&st7;   " d=" M    75.07,    68.36  C    75.07     69.14     75.70     69.77     76.49     69.77  " /><path style="stroke-width: 0.85 ;&st7;   " d=" M    76.49,    69.77  C    77.27     69.77     77.90     69.14     77.90     68.36  " /><path style="stroke-width: 0.85 ;&st7;   " d=" M    77.90,    45.69  C    77.90     44.91     77.27     44.28     76.49     44.28  " /><path style="stroke-width: 0.85 ;&st7;   " d=" M    76.49,    44.28  C    75.70     44.28     75.07     44.91     75.07     45.69  " /><path style="stroke-width: 0.85 ;&st7;   " d=" M    75.07,    45.69  C    75.07     46.48     75.70     47.11     76.49     47.11  " /><path style="stroke-width: 0.85 ;&st7;   " d=" M    76.49,    47.11  C    77.27     47.11     77.90     46.48     77.90     45.69  " /><path style="stroke-width: 1.42 ;&st7;   " d=" M    76.49,    66.94  C    79.23     65.33     80.14     61.80     78.52     59.06  " /><path style="stroke-width: 1.42 ;&st7;   " d=" M    78.52,    59.06  C    78.00     58.18     77.37     57.55     76.49     57.03  " /><path style="stroke-width: 0.85 ;&st7;  " d=" M    76.49,    78.27  L    76.49,    95.27  " /><path style="stroke-width: 1.42 ;&st7;  " d=" M    78.61,   103.77  L    74.36,   103.77  " /><path style="stroke-width: 1.42 ;&st7;  " d=" M    78.61,    95.27  L    74.36,    95.27  " /><path style="stroke-width: 0.85 ;&st7;  " d=" M    76.49,    69.77  L    76.49,    78.27  " /></g><g ewd:figtype="w2w" ewd:figID="29" ewd:code="AG7"><text style="&st18;" transform="matrix(&st16;  123.35  441.43 )">1</text><path style="stroke-width: 1.42 ;&st7;  " d=" M   140.23,   429.55  L   135.98,   433.80  L   131.73,   429.55  " /><path style="stroke-width: 1.42 ;&st7;  " d=" M   131.73,   426.15  L   135.98,   430.40  L   140.23,   426.15  " /></g><g ewd:figtype="w2w" ewd:figID="30" ewd:code="AG7"><text style="&st18;" transform="matrix(&st16;  162.74  441.43 )">14</text><path style="stroke-width: 1.42 ;&st7;  " d=" M   182.72,   429.55  L   178.47,   433.80  L   174.22,   429.55  " /><path style="stroke-width: 1.42 ;&st7;  " d=" M   174.22,   426.15  L   178.47,   430.40  L   182.72,   426.15  " /></g><g ewd:figtype="w2w" ewd:figID="31" ewd:code="GN3"><text style="&st18;" transform="matrix(&st16;  196.73  245.96 )">12</text><path style="stroke-width: 1.42 ;&st7;  " d=" M   216.71,   234.08  L   212.46,   238.33  L   208.22,   234.08  " /><path style="stroke-width: 1.42 ;&st7;  " d=" M   208.22,   230.68  L   212.46,   234.93  L   216.71,   230.68  " /></g><g ewd:figtype="w2w" ewd:figID="32" ewd:code="ON4"><path style="stroke-width: 1.42 ;&st7;  " d=" M   216.71,   194.42  L   212.46,   190.17  L   208.22,   194.42  " /><path style="stroke-width: 1.42 ;&st7;  " d=" M   216.71,   197.82  L   212.46,   193.57  L   208.22,   197.82  " /><text style="&st18;" transform="matrix(&st16;  199.83  186.47 )">7</text></g><g ewd:figtype="w2w" ewd:figID="33" ewd:code="AG7"><text style="&st18;" transform="matrix(&st16;  208.33  441.43 )">9</text><path style="stroke-width: 1.42 ;&st7;  " d=" M   225.21,   429.55  L   220.96,   433.80  L   216.71,   429.55  " /><path style="stroke-width: 1.42 ;&st7;  " d=" M   216.71,   426.15  L   220.96,   430.40  L   225.21,   426.15  " /></g><g ewd:figtype="w2w" ewd:figID="34" ewd:code="GN3"><text style="&st18;" transform="matrix(&st16;  239.22  245.96 )">25</text><path style="stroke-width: 1.42 ;&st7;  " d=" M   259.21,   234.08  L   254.96,   238.33  L   250.71,   234.08  " /><path style="stroke-width: 1.42 ;&st7;  " d=" M   250.71,   230.68  L   254.96,   234.93  L   259.21,   230.68  " /></g><g ewd:figtype="w2w" ewd:figID="35" ewd:code="ON4"><text style="&st18;" transform="matrix(&st16;  242.33  186.47 )">5</text><path style="stroke-width: 1.42 ;&st7;  " d=" M   259.21,   194.42  L   254.96,   190.17  L   250.71,   194.42  " /><path style="stroke-width: 1.42 ;&st7;  " d=" M   259.21,   197.82  L   254.96,   193.57  L   250.71,   197.82  " /></g><g ewd:figtype="w2w" ewd:figID="36" ewd:code="GN3"><text style="&st18;" transform="matrix(&st16;  281.72  245.96 )">11</text><path style="stroke-width: 1.42 ;&st7;  " d=" M   301.70,   234.08  L   297.45,   238.33  L   293.20,   234.08  " /><path style="stroke-width: 1.42 ;&st7;  " d=" M   293.20,   230.68  L   297.45,   234.93  L   301.70,   230.68  " /></g><g ewd:figtype="w2w" ewd:figID="37" ewd:code="ON4"><text style="&st18;" transform="matrix(&st16;  284.82  186.47 )">8</text><path style="stroke-width: 1.42 ;&st7;  " d=" M   301.70,   194.42  L   297.45,   190.17  L   293.20,   194.42  " /><path style="stroke-width: 1.42 ;&st7;  " d=" M   301.70,   197.82  L   297.45,   193.57  L   293.20,   197.82  " /></g><g ewd:figtype="w2w" ewd:figID="38" ewd:code="AG7"><text style="&st18;" transform="matrix(&st16;  290.22  441.43 )">15</text><path style="stroke-width: 1.42 ;&st7;  " d=" M   310.20,   429.55  L   305.95,   433.80  L   301.70,   429.55  " /><path style="stroke-width: 1.42 ;&st7;  " d=" M   301.70,   426.15  L   305.95,   430.40  L   310.20,   426.15  " /></g><g ewd:figtype="w2w" ewd:figID="39" ewd:code="AG7"><text style="&st18;" transform="matrix(&st16;  332.71  441.43 )">26</text><path style="stroke-width: 1.42 ;&st7;  " d=" M   352.69,   429.55  L   348.44,   433.80  L   344.19,   429.55  " /><path style="stroke-width: 1.42 ;&st7;  " d=" M   344.19,   426.15  L   348.44,   430.40  L   352.69,   426.15  " /></g><g ewd:figtype="w2w" ewd:figID="40" ewd:code="AG6"><text style="&st18;" transform="matrix(&st16;  366.7  245.96 )">14</text><path style="stroke-width: 1.42 ;&st7;  " d=" M   386.69,   253.91  L   382.44,   249.66  L   378.19,   253.91  " /><path style="stroke-width: 1.42 ;&st7;  " d=" M   386.69,   257.31  L   382.44,   253.06  L   378.19,   257.31  " /></g><g ewd:figtype="w2w" ewd:figID="41" ewd:code="AG7"><text style="&st18;" transform="matrix(&st16;  378.3  441.43 )">8</text><path style="stroke-width: 1.42 ;&st7;  " d=" M   395.18,   429.55  L   390.93,   433.80  L   386.69,   429.55  " /><path style="stroke-width: 1.42 ;&st7;  " d=" M   386.69,   426.15  L   390.93,   430.40  L   395.18,   426.15  " /></g><g ewd:figtype="w2w" ewd:figID="42" ewd:code="AG6"><text style="&st18;" transform="matrix(&st16;  451.69  245.96 )">15</text><path style="stroke-width: 1.42 ;&st7;  " d=" M   471.67,   253.91  L   467.42,   249.66  L   463.17,   253.91  " /><path style="stroke-width: 1.42 ;&st7;  " d=" M   471.67,   257.31  L   467.42,   253.06  L   463.17,   257.31  " /></g><g ewd:figtype="gp" ewd:figID="47" ewd:code="GD"><path style="stroke-width: 0.85 ;&st7;  " d=" M    75.07,   710.00  L    77.90,   710.00  " /><path style="stroke-width: 0.85 ;&st7;  " d=" M    73.65,   707.17  L    79.32,   707.17  " /><path style="stroke-width: 0.85 ;&st7;  " d=" M    72.24,   704.33  L    80.74,   704.33  " /><path style="stroke-width: 0.85 ;&st7;  " d=" M    67.99,   701.50  L    84.99,   701.50  " /><path style="stroke-width: 0.85 ;&st7;  " d=" M    76.49,   697.25  L    76.49,   701.50  " /></g><g ewd:code="1" ewd:figID="57" ewd:comment="" ewd:figtype="comment"><text style="&st18;" transform="matrix(&st16;  379.03  37.75 )" ewd:textID="3">* 1 :Except 1GD-FTV</text></g><g ewd:code="2" ewd:figID="56" ewd:comment="" ewd:figtype="comment"><text style="&st18;" transform="matrix(&st16;  379.03  46.25 )">* 2 :1GD-FTV</text></g></svg>