﻿<?xml version="1.0" encoding="utf-8"?>
<!DOCTYPE svg PUBLIC "-//W3C//DTD SVG 1.0//EN" "http://www.w3.org/TR/2001/REC-SVG-20010904/DTD/svg10.dtd"[
	<!ENTITY ns_flows "http://ns.adobe.com/Flows/1.0/">
	<!ENTITY ns_svg "http://www.w3.org/2000/svg">
	<!ENTITY ns_xlink "http://www.w3.org/1999/xlink">
	<!ENTITY st0 "font-size:7px;font-family:'MS-PGothic';adobe-font-script:japanese;">
	<!ENTITY st1 "font-size:6px;font-family:'ArialMT';">
	<!-- White fill  -->
	<!ENTITY st2 "fill:#FFFFFF;stroke:#000000; stroke-width:1.41;stroke-linecap:round;stroke-linejoin:round;">
	<!-- Yellow fill  -->
	<!ENTITY st3 "fill:#FFFFCC;stroke:#FFFFCC; stroke-width:0.1;stroke-linecap:round;stroke-linejoin:round;">
	<!-- Gray fill  -->
	<!ENTITY st4 "fill:#CCCCCC;stroke:#CCCCCC; stroke-width:0.1;stroke-linecap:round;stroke-linejoin:round;">
	<!-- Light-blue fill -->
	<!ENTITY st5 "fill:#CCECF4;stroke:#000000; stroke-width:1.133;stroke-linecap:round;stroke-linejoin:round;">
	<!ENTITY st6 "fill:none;stroke-linecap:butt; stroke-linejoin:round;">
	<!ENTITY st7 "fill:none;stroke:#000000;stroke-linecap:round;stroke-linejoin:round;">
	<!ENTITY st8 "enable-background:new    ;">
	<!-- Black fill -->
	<!ENTITY st9 "fill:#000000;stroke:#000000; stroke-linecap:round;stroke-linejoin:round;">
	<!-- SRS note   -->
	<!ENTITY st10 "font-size:9px;font-family:'ArialMT';">
	<!ENTITY st11 "font-size:9px;font-family:'Svg Symbol';">
	<!ENTITY st12 "font-size:6px;font-family:'Svg Symbol';">
	<!ENTITY st13 "fill:none;stroke:#ff0000;stroke-linecap:round;stroke-linejoin:round;">
	<!-- Yellow fill  -->
	<!ENTITY st14 "fill:#FFFF00;stroke:#FFFF00; stroke-width:0.1;stroke-linecap:round;stroke-linejoin:round;">
	<!ENTITY st15 "font-size:6px;font-family:'MS-PGothic';adobe-font-script:japanese;">
	<!ENTITY st16 "1.00 0.00 0.00 1.00">
	<!ENTITY st17 "0.00 -1.00 1.00 0.00">
	<!ENTITY st18 "font-size:6px;font-family:'Arial';">
	<!ENTITY st19 "font-size:9px;font-family:'Arial';">
	<!ENTITY st20 "font-size:6px;font-family:'MS-PGothic','MS PGothic';adobe-font-script:japanese;">
	<!ENTITY st21 "font-size:7px;font-family:'MS-PGothic','MS PGothic';adobe-font-script:japanese;">
	<!ATTLIST svg
		xmlns:ewd CDATA #FIXED "http://shcl.co.jp/ewd"
		xmlns:a CDATA #FIXED "http://ns.adobe.com/AdobeSVGViewerExtensions/3.0/"
		ewd:ver CDATA #IMPLIED
	>
	<!ATTLIST a
		ewd:lineID CDATA #IMPLIED
		ewd:groupID CDATA #IMPLIED
		ewd:figtype CDATA #IMPLIED
		ewd:code CDATA #IMPLIED
		ewd:figID CDATA #IMPLIED
		ewd:pinNo CDATA #IMPLIED
		ewd:comment CDATA #IMPLIED >
	<!ATTLIST g
		ewd:lineID CDATA #IMPLIED
		ewd:groupID CDATA #IMPLIED
		ewd:figtype CDATA #IMPLIED
		ewd:code CDATA #IMPLIED
		ewd:figID CDATA #IMPLIED
		ewd:pinNo CDATA #IMPLIED
		ewd:comment CDATA #IMPLIED >
	<!ATTLIST text
		ewd:textID CDATA #IMPLIED >
	<!ATTLIST title
		ewd:textID CDATA #IMPLIED >
]>
<!-- Generator: Shintec Hozumi YS   -->
<svg onload="call_execInitLoadProc_svg('system')" style="overflow:visible;  enable-background:new 0 0 7244.162 710.000" viewBox="0 0 7244.162 710.000" height="710.000" width="7244.162" xml:space="preserve" ewd:ver="2.1.2.9" xmlns="&ns_svg;" xmlns:a="http://ns.adobe.com/AdobeSVGViewerExtensions/3.0/" xmlns:ewd="http://shcl.co.jp/ewd" xmlns:xlink="&ns_xlink;">
<text style="&st18;" transform="matrix(&st16;  6244.15  185.06 )">V</text><text style="&st18;" transform="matrix(&st16;  6193.16  185.06 )">V</text><text style="&st18;" transform="matrix(&st16;  6193.47  23.58 )">P</text><text style="&st18;" transform="matrix(&st17;  6089.79  517.65 )">W-B</text><text style="&st18;" transform="matrix(&st17;  6353.24  249.82 )">L</text><text style="&st18;" transform="matrix(&st16;  6239.69  170.89 )">(*37)</text><text style="&st18;" transform="matrix(&st16;  6244.38  159.56 )">L</text><text style="&st18;" transform="matrix(&st16;  6188.7  170.89 )">(*37)</text><text style="&st18;" transform="matrix(&st16;  6193.39  159.56 )">L</text><text style="&st18;" transform="matrix(&st16;  6185.99  40.58 )">W(*36)</text><text style="&st18;" transform="matrix(&st16;  6236.98  40.58 )">W(*36)</text><text style="&st18;" transform="matrix(&st16;  6237.48  57.58 )">G(*32)</text><text style="&st18;" transform="matrix(&st16;  6186.49  57.58 )">G(*32)</text><text style="&st18;" transform="matrix(&st16;  6244.38  74.58 )">L</text><text style="&st18;" transform="matrix(&st16;  6193.39  74.58 )">L</text><text style="&st18;" transform="matrix(&st16;  6243.49  575.99 )">W</text><text style="&st18;" transform="matrix(&st16;  6192.5  575.99 )">W</text><text style="&st18;" transform="matrix(&st16;  6233.49  558.99 )">W-B(*25)</text><text style="&st18;" transform="matrix(&st16;  6182.5  558.99 )">W-B(*25)</text><text style="&st18;" transform="matrix(&st17;  6055.79  105.34 )">L</text><text style="&st18;" transform="matrix(&st17;  6055.79  517.65 )">W-B</text><text style="&st18;" transform="matrix(&st17;  6067.12  517.96 )">(*26)</text><text style="&st18;" transform="matrix(&st17;  6101.12  517.96 )">(*25)</text><text style="&st18;" transform="matrix(&st16;  6244.46  23.58 )">P</text><text style="&st18;" transform="matrix(&st17;  6067.12  390.49 )">(*13)</text><text style="&st18;" transform="matrix(&st17;  6067.12  212.02 )">(*13)</text><text style="&st18;" transform="matrix(&st17;  6055.79  207.32 )">L</text><text style="&st18;" transform="matrix(&st17;  6055.79  390.18 )">W-B</text><text style="&st18;" transform="matrix(&st17;  6115.28  292.44 )">W-B</text><text style="&st18;" transform="matrix(&st17;  6259.76  250.05 )">V</text><text style="&st18;" transform="matrix(&st17;  6166.27  207.56 )">V</text><text style="&st18;" transform="matrix(&st17;  6115.28  207.56 )">V</text><g ewd:code="z2" ewd:figID="54" ewd:comment="45,39" ewd:figtype="conn"><path style="stroke-width: 0.85 ;&st7;  " d=" M  6364.31,   433.27  L  6371.67,   429.02  " /><path style="stroke-width: 0.85 ;&st7;  " d=" M  6369.67,   425.55  L  6362.31,   429.80  " /><path style="stroke-width: 0.85 ;&st7;  " d=" M  6361.19,   435.21  L  6352.69,   435.21  " /><path style="stroke-width: 0.85 ;&st7;  " d=" M  6386.68,   435.21  L  6378.18,   435.21  " /><path style="stroke-width: 0.85 ;&st7;  " d=" M  6395.16,   425.55  L  6387.80,   429.80  " /><path style="stroke-width: 0.85 ;&st7;  " d=" M  6389.81,   433.27  L  6397.17,   429.02  " /><path style="stroke-width: 0.85 ;&st7;  " d=" M  6593.78,   433.27  L  6601.14,   429.02  " /><path style="stroke-width: 0.85 ;&st7;  " d=" M  6599.13,   425.55  L  6591.77,   429.80  " /><path style="stroke-width: 0.85 ;&st7;  " d=" M  6590.65,   435.21  L  6582.15,   435.21  " /><path style="stroke-width: 0.85 ;&st7;  " d=" M  6440.80,   433.27  L  6448.16,   429.02  " /><path style="stroke-width: 0.85 ;&st7;  " d=" M  6446.16,   425.55  L  6438.80,   429.80  " /><path style="stroke-width: 0.85 ;&st7;  " d=" M  6437.67,   435.21  L  6429.18,   435.21  " /><path style="stroke-width: 0.85 ;&st7;  " d=" M  6415.31,   433.27  L  6422.67,   429.02  " /><path style="stroke-width: 0.85 ;&st7;  " d=" M  6420.66,   425.55  L  6413.30,   429.80  " /><path style="stroke-width: 0.85 ;&st7;  " d=" M  6412.18,   435.21  L  6403.68,   435.21  " /><path style="stroke-width: 0.85 ;&st7;  " d=" M  6488.67,   435.21  L  6480.17,   435.21  " /><path style="stroke-width: 0.85 ;&st7;  " d=" M  6497.15,   425.55  L  6489.79,   429.80  " /><path style="stroke-width: 0.85 ;&st7;  " d=" M  6491.79,   433.27  L  6499.15,   429.02  " /><path style="stroke-width: 0.85 ;&st7;  " d=" M  6517.29,   433.27  L  6524.65,   429.02  " /><path style="stroke-width: 0.85 ;&st7;  " d=" M  6514.16,   435.21  L  6505.66,   435.21  " /><path style="stroke-width: 0.85 ;&st7;  " d=" M  6522.64,   425.55  L  6515.28,   429.80  " /><path style="stroke-width: 0.85 ;&st7;  " d=" M  6344.17,   425.55  L  6336.81,   429.80  " /><path style="stroke-width: 0.85 ;&st7;  " d=" M  6338.82,   433.27  L  6346.18,   429.02  " /><path style="stroke-width: 0.85 ;&st7;  " d=" M  6335.69,   435.21  L  6327.19,   435.21  " /><path style="stroke-width: 0.85 ;&st7;  " d=" M  6542.78,   433.27  L  6550.14,   429.02  " /><path style="stroke-width: 0.85 ;&st7;  " d=" M  6548.14,   425.55  L  6540.78,   429.80  " /><path style="stroke-width: 0.85 ;&st7;  " d=" M  6539.66,   435.21  L  6531.16,   435.21  " /><path style="stroke-width: 0.85 ;&st7;  " d=" M  6568.28,   433.27  L  6575.64,   429.02  " /><path style="stroke-width: 0.85 ;&st7;  " d=" M  6573.63,   425.55  L  6566.27,   429.80  " /><path style="stroke-width: 0.85 ;&st7;  " d=" M  6565.15,   435.21  L  6556.65,   435.21  " /><path style="stroke-width: 0.85 ;&st7;  " d=" M  6310.20,   435.21  L  6301.70,   435.21  " /><path style="stroke-width: 0.85 ;&st7;  " d=" M  6293.18,   425.55  L  6285.82,   429.80  " /><path style="stroke-width: 0.85 ;&st7;  " d=" M  6287.83,   433.27  L  6295.19,   429.02  " /><path style="stroke-width: 0.85 ;&st7;  " d=" M  6313.32,   433.27  L  6320.68,   429.02  " /><path style="stroke-width: 0.85 ;&st7;  " d=" M  6318.68,   425.55  L  6311.32,   429.80  " /><path style="stroke-width: 0.85 ;&st7;  " d=" M  6284.70,   435.21  L  6276.20,   435.21  " /><path style="stroke-width: 0.85 ;&st7;  " d=" M  6356.94,   324.73  L  6356.94,   358.73  " /><path style="stroke-width: 0.85 ;&st7;  " d=" M  6330.25,   357.72  L  6329.97,   358.19  L  6329.88,   358.73  L  6329.97,   359.26  L  6330.25,   359.73  L  6330.66,   360.07  L  6331.17,   360.26  L  6331.71,   360.26  L  6332.22,   360.07  L  6332.63,   359.73  L  6332.90,   359.26  L  6333.00,   358.73  L  6332.90,   358.19  L  6332.63,   357.72  L  6332.22,   357.38  L  6331.71,   357.19  L  6331.17,   357.19  L  6330.66,   357.38  L  6330.25,   357.72  L  6330.64,   358.43  L  6330.64,   359.02  L  6331.01,   359.46  L  6331.59,   359.56  L  6332.09,   359.27  L  6332.29,   358.73  L  6332.09,   358.18  L  6331.59,   357.89  L  6331.01,   357.99  L  6331.44,   358.73  " /><path style="stroke-width: 0.85 ;&st7;  " d=" M  6280.45,   418.22  L  6277.62,   416.80  L  6283.28,   413.97  L  6277.62,   411.13  L  6283.28,   408.30  L  6277.62,   405.47  L  6283.28,   402.63  L  6280.45,   401.22  L  6280.45,   358.73  " /><path style="stroke-width: 0.85 ;&st7;  " d=" M  6304.75,   476.70  L  6304.48,   477.17  L  6304.39,   477.71  L  6304.48,   478.24  L  6304.75,   478.71  L  6305.16,   479.05  L  6305.67,   479.24  L  6306.21,   479.24  L  6306.72,   479.05  L  6307.14,   478.71  L  6307.41,   478.24  L  6307.50,   477.71  L  6307.41,   477.17  L  6307.14,   476.70  L  6306.72,   476.36  L  6306.21,   476.17  L  6305.67,   476.17  L  6305.16,   476.36  L  6304.75,   476.70  L  6305.14,   477.41  L  6305.14,   478.00  L  6305.52,   478.44  L  6306.09,   478.54  L  6306.60,   478.25  L  6306.79,   477.71  L  6306.60,   477.16  L  6306.09,   476.87  L  6305.52,   476.97  L  6305.94,   477.71  " /><path style="stroke-width: 0.85 ;&st7;  " d=" M  6318.68,   425.55  L  6316.34,   428.59  L  6314.88,   426.05  L  6318.68,   425.55  L  6317.39,   426.29  L  6316.41,   427.57  L  6315.79,   426.50  L  6317.39,   426.29  L  6316.75,   426.66  L  6316.44,   427.06  L  6316.25,   426.73  L  6316.75,   426.66  " /><path style="stroke-width: 0.85 ;&st7;  " d=" M  6381.24,   476.70  L  6380.97,   477.17  L  6380.87,   477.71  L  6380.97,   478.24  L  6381.24,   478.71  L  6381.65,   479.05  L  6382.16,   479.24  L  6382.70,   479.24  L  6383.21,   479.05  L  6383.62,   478.71  L  6383.90,   478.24  L  6383.99,   477.71  L  6383.90,   477.17  L  6383.62,   476.70  L  6383.21,   476.36  L  6382.70,   476.17  L  6382.16,   476.17  L  6381.65,   476.36  L  6381.24,   476.70  L  6381.63,   477.41  L  6381.63,   478.00  L  6382.01,   478.44  L  6382.58,   478.54  L  6383.08,   478.25  L  6383.28,   477.71  L  6383.08,   477.16  L  6382.58,   476.87  L  6382.01,   476.97  L  6382.43,   477.71  " /><path style="stroke-width: 1.42 ;&st7;  " d=" M  6237.96,   324.73  L  6620.39,   324.73  L  6620.39,   511.70  L  6237.96,   511.70  L  6237.96,   324.73  " /><path style="stroke-width: 0.85 ;&st7;  " d=" M  6355.74,   476.70  L  6355.47,   477.17  L  6355.38,   477.71  L  6355.47,   478.24  L  6355.74,   478.71  L  6356.16,   479.05  L  6356.67,   479.24  L  6357.20,   479.24  L  6357.71,   479.05  L  6358.13,   478.71  L  6358.40,   478.24  L  6358.49,   477.71  L  6358.40,   477.17  L  6358.13,   476.70  L  6357.71,   476.36  L  6357.20,   476.17  L  6356.67,   476.17  L  6356.16,   476.36  L  6355.74,   476.70  L  6356.14,   477.41  L  6356.14,   478.00  L  6356.51,   478.44  L  6357.08,   478.54  L  6357.59,   478.25  L  6357.79,   477.71  L  6357.59,   477.16  L  6357.08,   476.87  L  6356.51,   476.97  L  6356.94,   477.71  " /><path style="stroke-width: 0.85 ;&st7;  " d=" M  6382.43,   418.22  L  6382.43,   477.71  " /><path style="stroke-width: 0.85 ;&st7;  " d=" M  6371.67,   429.02  L  6369.34,   432.06  L  6367.87,   429.52  L  6371.67,   429.02  L  6370.39,   429.76  L  6369.41,   431.04  L  6368.79,   429.97  L  6370.39,   429.76  L  6369.75,   430.13  L  6369.44,   430.53  L  6369.24,   430.20  L  6369.75,   430.13  " /><path style="stroke-width: 0.85 ;&st7;  " d=" M  6369.67,   425.55  L  6367.33,   428.59  L  6365.87,   426.05  L  6369.67,   425.55  L  6368.39,   426.29  L  6367.40,   427.57  L  6366.78,   426.50  L  6368.39,   426.29  L  6367.75,   426.66  L  6367.43,   427.06  L  6367.24,   426.73  L  6367.75,   426.66  " /><path style="stroke-width: 0.28 ;&st9;  " d=" M  6356.94,   435.21  L  6351.27,   426.71  L  6362.60,   426.71  L  6356.94,   435.21  " /><path style="stroke-width: 0.85 ;&st7;  " d=" M  6524.65,   429.02  L  6522.31,   432.06  L  6520.84,   429.52  L  6524.65,   429.02  L  6523.36,   429.76  L  6522.38,   431.04  L  6521.76,   429.97  L  6523.36,   429.76  L  6522.72,   430.13  L  6522.41,   430.53  L  6522.22,   430.20  L  6522.72,   430.13  " /><path style="stroke-width: 0.28 ;&st9;  " d=" M  6382.43,   435.21  L  6376.77,   426.71  L  6388.10,   426.71  L  6382.43,   435.21  " /><path style="stroke-width: 0.85 ;&st7;  " d=" M  6586.40,   418.22  L  6586.40,   477.71  " /><path style="stroke-width: 1.42 ;&st7;  " d=" M  6467.42,   341.73  L  6467.42,   494.70  L  6603.39,   494.70  L  6603.39,   341.73  L  6467.42,   341.73  " /><path style="stroke-width: 1.42 ;&st7;  " d=" M  6254.95,   341.73  L  6254.95,   494.70  L  6450.42,   494.70  L  6450.42,   341.73  L  6254.95,   341.73  " /><path style="stroke-width: 0.85 ;&st7;  " d=" M  6395.16,   425.55  L  6392.83,   428.59  L  6391.36,   426.05  L  6395.16,   425.55  L  6393.88,   426.29  L  6392.90,   427.57  L  6392.28,   426.50  L  6393.88,   426.29  L  6393.24,   426.66  L  6392.93,   427.06  L  6392.73,   426.73  L  6393.24,   426.66  " /><path style="stroke-width: 0.85 ;&st7;  " d=" M  6397.17,   429.02  L  6394.83,   432.06  L  6393.37,   429.52  L  6397.17,   429.02  L  6395.88,   429.76  L  6394.90,   431.04  L  6394.28,   429.97  L  6395.88,   429.76  L  6395.24,   430.13  L  6394.93,   430.53  L  6394.74,   430.20  L  6395.24,   430.13  " /><path style="stroke-width: 0.85 ;&st7;  " d=" M  6356.94,   418.22  L  6354.10,   416.80  L  6359.77,   413.97  L  6354.10,   411.13  L  6359.77,   408.30  L  6354.10,   405.47  L  6359.77,   402.63  L  6356.94,   401.22  L  6356.94,   358.73  " /><path style="stroke-width: 0.85 ;&st7;  " d=" M  6601.13,   429.02  L  6598.80,   432.06  L  6597.33,   429.52  L  6601.13,   429.02  L  6599.85,   429.76  L  6598.87,   431.04  L  6598.25,   429.97  L  6599.85,   429.76  L  6599.21,   430.13  L  6598.90,   430.53  L  6598.70,   430.20  L  6599.21,   430.13  " /><path style="stroke-width: 0.85 ;&st7;  " d=" M  6599.13,   425.55  L  6596.80,   428.59  L  6595.33,   426.05  L  6599.13,   425.55  L  6597.85,   426.29  L  6596.86,   427.57  L  6596.24,   426.50  L  6597.85,   426.29  L  6597.21,   426.66  L  6596.90,   427.06  L  6596.70,   426.73  L  6597.21,   426.66  " /><path style="stroke-width: 0.28 ;&st9;  " d=" M  6586.40,   435.21  L  6580.73,   426.71  L  6592.06,   426.71  L  6586.40,   435.21  " /><path style="stroke-width: 0.85 ;&st7;  " d=" M  6407.93,   418.22  L  6405.09,   416.80  L  6410.76,   413.97  L  6405.09,   411.13  L  6410.76,   408.30  L  6405.09,   405.47  L  6410.76,   402.63  L  6407.93,   401.22  L  6407.93,   358.73  " /><path style="stroke-width: 0.85 ;&st7;  " d=" M  6433.42,   418.22  L  6430.59,   416.80  L  6436.26,   413.97  L  6430.59,   411.13  L  6436.26,   408.30  L  6430.59,   405.47  L  6436.26,   402.63  L  6433.42,   401.22  L  6433.42,   358.73  " /><path style="stroke-width: 0.85 ;&st7;  " d=" M  6448.16,   429.02  L  6445.82,   432.06  L  6444.36,   429.52  L  6448.16,   429.02  L  6446.88,   429.76  L  6445.89,   431.04  L  6445.27,   429.97  L  6446.88,   429.76  L  6446.24,   430.13  L  6445.92,   430.53  L  6445.73,   430.20  L  6446.24,   430.13  " /><path style="stroke-width: 0.85 ;&st7;  " d=" M  6446.16,   425.55  L  6443.82,   428.59  L  6442.35,   426.05  L  6446.16,   425.55  L  6444.87,   426.29  L  6443.89,   427.57  L  6443.27,   426.50  L  6444.87,   426.29  L  6444.23,   426.66  L  6443.92,   427.06  L  6443.73,   426.73  L  6444.23,   426.66  " /><path style="stroke-width: 0.28 ;&st9;  " d=" M  6433.42,   435.21  L  6427.76,   426.71  L  6439.09,   426.71  L  6433.42,   435.21  " /><path style="stroke-width: 0.85 ;&st7;  " d=" M  6382.43,   418.22  L  6379.60,   416.80  L  6385.26,   413.97  L  6379.60,   411.13  L  6385.26,   408.30  L  6379.60,   405.47  L  6385.26,   402.63  L  6382.43,   401.22  L  6382.43,   358.73  " /><path style="stroke-width: 0.85 ;&st7;  " d=" M  6433.42,   418.22  L  6433.42,   477.71  " /><path style="stroke-width: 0.85 ;&st7;  " d=" M  6432.23,   476.70  L  6431.96,   477.17  L  6431.86,   477.71  L  6431.96,   478.24  L  6432.23,   478.71  L  6432.64,   479.05  L  6433.15,   479.24  L  6433.69,   479.24  L  6434.20,   479.05  L  6434.61,   478.71  L  6434.89,   478.24  L  6434.98,   477.71  L  6434.89,   477.17  L  6434.61,   476.70  L  6434.20,   476.36  L  6433.69,   476.17  L  6433.15,   476.17  L  6432.64,   476.36  L  6432.23,   476.70  L  6432.62,   477.41  L  6432.62,   478.00  L  6433.00,   478.44  L  6433.57,   478.54  L  6434.07,   478.25  L  6434.27,   477.71  L  6434.07,   477.16  L  6433.57,   476.87  L  6433.00,   476.97  L  6433.42,   477.71  " /><path style="stroke-width: 0.85 ;&st7;  " d=" M  6422.66,   429.02  L  6420.33,   432.06  L  6418.86,   429.52  L  6422.66,   429.02  L  6421.38,   429.76  L  6420.40,   431.04  L  6419.78,   429.97  L  6421.38,   429.76  L  6420.74,   430.13  L  6420.43,   430.53  L  6420.23,   430.20  L  6420.74,   430.13  " /><path style="stroke-width: 0.85 ;&st7;  " d=" M  6420.66,   425.55  L  6418.33,   428.59  L  6416.86,   426.05  L  6420.66,   425.55  L  6419.38,   426.29  L  6418.39,   427.57  L  6417.77,   426.50  L  6419.38,   426.29  L  6418.74,   426.66  L  6418.43,   427.06  L  6418.23,   426.73  L  6418.74,   426.66  " /><path style="stroke-width: 0.28 ;&st9;  " d=" M  6407.93,   435.21  L  6402.26,   426.71  L  6413.59,   426.71  L  6407.93,   435.21  " /><path style="stroke-width: 0.85 ;&st7;  " d=" M  6407.93,   418.22  L  6407.93,   477.71  " /><path style="stroke-width: 0.85 ;&st7;  " d=" M  6280.45,   358.73  L  6484.41,   358.73  " /><path style="stroke-width: 0.85 ;&st7;  " d=" M  6356.94,   418.22  L  6356.94,   477.71  " /><path style="stroke-width: 0.85 ;&st7;  " d=" M  6432.23,   357.72  L  6431.96,   358.19  L  6431.86,   358.73  L  6431.96,   359.26  L  6432.23,   359.73  L  6432.64,   360.07  L  6433.15,   360.26  L  6433.69,   360.26  L  6434.20,   360.07  L  6434.61,   359.73  L  6434.89,   359.26  L  6434.98,   358.73  L  6434.89,   358.19  L  6434.61,   357.72  L  6434.20,   357.38  L  6433.69,   357.19  L  6433.15,   357.19  L  6432.64,   357.38  L  6432.23,   357.72  L  6432.62,   358.43  L  6432.62,   359.02  L  6433.00,   359.46  L  6433.57,   359.56  L  6434.07,   359.27  L  6434.27,   358.73  L  6434.07,   358.18  L  6433.57,   357.89  L  6433.00,   357.99  L  6433.42,   358.73  " /><path style="stroke-width: 0.85 ;&st7;  " d=" M  6406.73,   476.70  L  6406.46,   477.17  L  6406.37,   477.71  L  6406.46,   478.24  L  6406.73,   478.71  L  6407.15,   479.05  L  6407.66,   479.24  L  6408.20,   479.24  L  6408.71,   479.05  L  6409.12,   478.71  L  6409.39,   478.24  L  6409.48,   477.71  L  6409.39,   477.17  L  6409.12,   476.70  L  6408.71,   476.36  L  6408.20,   476.17  L  6407.66,   476.17  L  6407.15,   476.36  L  6406.73,   476.70  L  6407.13,   477.41  L  6407.13,   478.00  L  6407.50,   478.44  L  6408.07,   478.54  L  6408.58,   478.25  L  6408.78,   477.71  L  6408.58,   477.16  L  6408.07,   476.87  L  6407.50,   476.97  L  6407.93,   477.71  " /><path style="stroke-width: 0.85 ;&st7;  " d=" M  6355.74,   357.72  L  6355.47,   358.19  L  6355.38,   358.73  L  6355.47,   359.26  L  6355.74,   359.73  L  6356.16,   360.07  L  6356.67,   360.26  L  6357.20,   360.26  L  6357.71,   360.07  L  6358.13,   359.73  L  6358.40,   359.26  L  6358.49,   358.73  L  6358.40,   358.19  L  6358.13,   357.72  L  6357.71,   357.38  L  6357.20,   357.19  L  6356.67,   357.19  L  6356.16,   357.38  L  6355.74,   357.72  L  6356.14,   358.43  L  6356.14,   359.02  L  6356.51,   359.46  L  6357.08,   359.56  L  6357.59,   359.27  L  6357.79,   358.73  L  6357.59,   358.18  L  6357.08,   357.89  L  6356.51,   357.99  L  6356.94,   358.73  " /><path style="stroke-width: 0.85 ;&st7;  " d=" M  6381.24,   357.72  L  6380.97,   358.19  L  6380.87,   358.73  L  6380.97,   359.26  L  6381.24,   359.73  L  6381.65,   360.07  L  6382.16,   360.26  L  6382.70,   360.26  L  6383.21,   360.07  L  6383.62,   359.73  L  6383.90,   359.26  L  6383.99,   358.73  L  6383.90,   358.19  L  6383.62,   357.72  L  6383.21,   357.38  L  6382.70,   357.19  L  6382.16,   357.19  L  6381.65,   357.38  L  6381.24,   357.72  L  6381.63,   358.43  L  6381.63,   359.02  L  6382.01,   359.46  L  6382.58,   359.56  L  6383.08,   359.27  L  6383.28,   358.73  L  6383.08,   358.18  L  6382.58,   357.89  L  6382.01,   357.99  L  6382.43,   358.73  " /><path style="stroke-width: 0.28 ;&st9;  " d=" M  6484.41,   435.21  L  6478.75,   426.71  L  6490.08,   426.71  L  6484.41,   435.21  " /><path style="stroke-width: 0.85 ;&st7;  " d=" M  6497.15,   425.55  L  6494.81,   428.59  L  6493.35,   426.05  L  6497.15,   425.55  L  6495.86,   426.29  L  6494.88,   427.57  L  6494.26,   426.50  L  6495.86,   426.29  L  6495.22,   426.66  L  6494.91,   427.06  L  6494.72,   426.73  L  6495.22,   426.66  " /><path style="stroke-width: 0.85 ;&st7;  " d=" M  6499.15,   429.02  L  6496.82,   432.06  L  6495.35,   429.52  L  6499.15,   429.02  L  6497.87,   429.76  L  6496.88,   431.04  L  6496.26,   429.97  L  6497.87,   429.76  L  6497.23,   430.13  L  6496.92,   430.53  L  6496.72,   430.20  L  6497.23,   430.13  " /><path style="stroke-width: 0.85 ;&st7;  " d=" M  6484.41,   418.22  L  6481.58,   416.80  L  6487.25,   413.97  L  6481.58,   411.13  L  6487.25,   408.30  L  6481.58,   405.47  L  6487.25,   402.63  L  6484.41,   401.22  L  6484.41,   358.73  L  6509.91,   358.73  " /><path style="stroke-width: 0.85 ;&st7;  " d=" M  6509.91,   418.22  L  6507.08,   416.80  L  6512.74,   413.97  L  6507.08,   411.13  L  6512.74,   408.30  L  6507.08,   405.47  L  6512.74,   402.63  L  6509.91,   401.22  L  6509.91,   358.73  " /><path style="stroke-width: 0.85 ;&st7;  " d=" M  6508.72,   357.72  L  6508.44,   358.19  L  6508.35,   358.73  L  6508.44,   359.26  L  6508.72,   359.73  L  6509.13,   360.07  L  6509.64,   360.26  L  6510.18,   360.26  L  6510.69,   360.07  L  6511.10,   359.73  L  6511.37,   359.26  L  6511.47,   358.73  L  6511.37,   358.19  L  6511.10,   357.72  L  6510.69,   357.38  L  6510.18,   357.19  L  6509.64,   357.19  L  6509.13,   357.38  L  6508.72,   357.72  L  6509.11,   358.43  L  6509.11,   359.02  L  6509.48,   359.46  L  6510.06,   359.56  L  6510.56,   359.27  L  6510.76,   358.73  L  6510.56,   358.18  L  6510.06,   357.89  L  6509.48,   357.99  L  6509.91,   358.73  " /><path style="stroke-width: 0.85 ;&st7;  " d=" M  6522.64,   425.55  L  6520.31,   428.59  L  6518.84,   426.05  L  6522.64,   425.55  L  6521.36,   426.29  L  6520.37,   427.57  L  6519.76,   426.50  L  6521.36,   426.29  L  6520.72,   426.66  L  6520.41,   427.06  L  6520.21,   426.73  L  6520.72,   426.66  " /><path style="stroke-width: 0.85 ;&st7;  " d=" M  6484.41,   418.22  L  6484.41,   477.71  L  6509.91,   477.71  " /><path style="stroke-width: 0.28 ;&st9;  " d=" M  6509.91,   435.21  L  6504.24,   426.71  L  6515.58,   426.71  L  6509.91,   435.21  " /><path style="stroke-width: 0.85 ;&st7;  " d=" M  6295.18,   429.02  L  6292.85,   432.06  L  6291.38,   429.52  L  6295.18,   429.02  L  6293.90,   429.76  L  6292.92,   431.04  L  6292.30,   429.97  L  6293.90,   429.76  L  6293.26,   430.13  L  6292.95,   430.53  L  6292.75,   430.20  L  6293.26,   430.13  " /><path style="stroke-width: 0.85 ;&st7;  " d=" M  6356.94,   477.71  L  6467.42,   477.71  " /><path style="stroke-width: 0.85 ;&st7;  " d=" M  6406.73,   357.72  L  6406.46,   358.19  L  6406.37,   358.73  L  6406.46,   359.26  L  6406.73,   359.73  L  6407.15,   360.07  L  6407.66,   360.26  L  6408.20,   360.26  L  6408.71,   360.07  L  6409.12,   359.73  L  6409.39,   359.26  L  6409.48,   358.73  L  6409.39,   358.19  L  6409.12,   357.72  L  6408.71,   357.38  L  6408.20,   357.19  L  6407.66,   357.19  L  6407.15,   357.38  L  6406.73,   357.72  L  6407.13,   358.43  L  6407.13,   359.02  L  6407.50,   359.46  L  6408.07,   359.56  L  6408.58,   359.27  L  6408.78,   358.73  L  6408.58,   358.18  L  6408.07,   357.89  L  6407.50,   357.99  L  6407.93,   358.73  " /><path style="stroke-width: 0.85 ;&st7;  " d=" M  6508.72,   476.70  L  6508.44,   477.17  L  6508.35,   477.71  L  6508.44,   478.24  L  6508.72,   478.71  L  6509.13,   479.05  L  6509.64,   479.24  L  6510.18,   479.24  L  6510.69,   479.05  L  6511.10,   478.71  L  6511.37,   478.24  L  6511.47,   477.71  L  6511.37,   477.17  L  6511.10,   476.70  L  6510.69,   476.36  L  6510.18,   476.17  L  6509.64,   476.17  L  6509.13,   476.36  L  6508.72,   476.70  L  6509.11,   477.41  L  6509.11,   478.00  L  6509.48,   478.44  L  6510.06,   478.54  L  6510.56,   478.25  L  6510.76,   477.71  L  6510.56,   477.16  L  6510.06,   476.87  L  6509.48,   476.97  L  6509.91,   477.71  " /><path style="stroke-width: 0.85 ;&st7;  " d=" M  6509.91,   418.22  L  6509.91,   477.71  " /><path style="stroke-width: 0.85 ;&st7;  " d=" M  6331.44,   477.71  L  6263.45,   477.71  L  6263.45,   324.73  " /><path style="stroke-width: 0.85 ;&st7;  " d=" M  6467.42,   477.71  L  6484.41,   477.71  " /><path style="stroke-width: 0.85 ;&st7;  " d=" M  6331.44,   418.22  L  6328.61,   416.80  L  6334.27,   413.97  L  6328.61,   411.13  L  6334.27,   408.30  L  6328.61,   405.47  L  6334.27,   402.63  L  6331.44,   401.22  L  6331.44,   358.73  " /><path style="stroke-width: 0.85 ;&st7;  " d=" M  6331.44,   418.22  L  6331.44,   477.71  L  6356.94,   477.71  " /><path style="stroke-width: 0.28 ;&st9;  " d=" M  6331.44,   435.21  L  6325.77,   426.71  L  6337.11,   426.71  L  6331.44,   435.21  " /><path style="stroke-width: 0.85 ;&st7;  " d=" M  6344.17,   425.55  L  6341.84,   428.59  L  6340.37,   426.05  L  6344.17,   425.55  L  6342.89,   426.29  L  6341.90,   427.57  L  6341.29,   426.50  L  6342.89,   426.29  L  6342.25,   426.66  L  6341.94,   427.06  L  6341.74,   426.73  L  6342.25,   426.66  " /><path style="stroke-width: 0.85 ;&st7;  " d=" M  6346.18,   429.02  L  6343.84,   432.06  L  6342.37,   429.52  L  6346.18,   429.02  L  6344.89,   429.76  L  6343.91,   431.04  L  6343.29,   429.97  L  6344.89,   429.76  L  6344.25,   430.13  L  6343.94,   430.53  L  6343.75,   430.20  L  6344.25,   430.13  " /><path style="stroke-width: 0.85 ;&st7;  " d=" M  6483.22,   476.70  L  6482.95,   477.17  L  6482.86,   477.71  L  6482.95,   478.24  L  6483.22,   478.71  L  6483.63,   479.05  L  6484.14,   479.24  L  6484.68,   479.24  L  6485.19,   479.05  L  6485.61,   478.71  L  6485.88,   478.24  L  6485.97,   477.71  L  6485.88,   477.17  L  6485.61,   476.70  L  6485.19,   476.36  L  6484.68,   476.17  L  6484.14,   476.17  L  6483.63,   476.36  L  6483.22,   476.70  L  6483.61,   477.41  L  6483.61,   478.00  L  6483.99,   478.44  L  6484.56,   478.54  L  6485.07,   478.25  L  6485.26,   477.71  L  6485.07,   477.16  L  6484.56,   476.87  L  6483.99,   476.97  L  6484.41,   477.71  " /><path style="stroke-width: 0.85 ;&st7;  " d=" M  6330.25,   476.70  L  6329.97,   477.17  L  6329.88,   477.71  L  6329.97,   478.24  L  6330.25,   478.71  L  6330.66,   479.05  L  6331.17,   479.24  L  6331.71,   479.24  L  6332.22,   479.05  L  6332.63,   478.71  L  6332.90,   478.24  L  6333.00,   477.71  L  6332.90,   477.17  L  6332.63,   476.70  L  6332.22,   476.36  L  6331.71,   476.17  L  6331.17,   476.17  L  6330.66,   476.36  L  6330.25,   476.70  L  6330.64,   477.41  L  6330.64,   478.00  L  6331.01,   478.44  L  6331.59,   478.54  L  6332.09,   478.25  L  6332.29,   477.71  L  6332.09,   477.16  L  6331.59,   476.87  L  6331.01,   476.97  L  6331.44,   477.71  " /><path style="stroke-width: 0.85 ;&st7;  " d=" M  6586.40,   418.22  L  6583.56,   416.80  L  6589.23,   413.97  L  6583.56,   411.13  L  6589.23,   408.30  L  6583.56,   405.47  L  6589.23,   402.63  L  6586.40,   401.22  L  6586.40,   358.73  " /><path style="stroke-width: 0.85 ;&st7;  " d=" M  6586.40,   358.73  L  6509.91,   358.73  " /><path style="stroke-width: 0.85 ;&st7;  " d=" M  6586.40,   477.71  L  6509.91,   477.71  " /><path style="stroke-width: 0.85 ;&st7;  " d=" M  6535.41,   418.22  L  6535.41,   477.71  " /><path style="stroke-width: 0.85 ;&st7;  " d=" M  6550.14,   429.02  L  6547.81,   432.06  L  6546.34,   429.52  L  6550.14,   429.02  L  6548.86,   429.76  L  6547.88,   431.04  L  6547.26,   429.97  L  6548.86,   429.76  L  6548.22,   430.13  L  6547.91,   430.53  L  6547.71,   430.20  L  6548.22,   430.13  " /><path style="stroke-width: 0.85 ;&st7;  " d=" M  6548.14,   425.55  L  6545.80,   428.59  L  6544.34,   426.05  L  6548.14,   425.55  L  6546.86,   426.29  L  6545.87,   427.57  L  6545.25,   426.50  L  6546.86,   426.29  L  6546.22,   426.66  L  6545.90,   427.06  L  6545.71,   426.73  L  6546.22,   426.66  " /><path style="stroke-width: 0.28 ;&st9;  " d=" M  6535.41,   435.21  L  6529.74,   426.71  L  6541.07,   426.71  L  6535.41,   435.21  " /><path style="stroke-width: 0.85 ;&st7;  " d=" M  6535.41,   418.22  L  6532.57,   416.80  L  6538.24,   413.97  L  6532.57,   411.13  L  6538.24,   408.30  L  6532.57,   405.47  L  6538.24,   402.63  L  6535.41,   401.22  L  6535.41,   358.73  " /><path style="stroke-width: 0.85 ;&st7;  " d=" M  6534.21,   357.72  L  6533.94,   358.19  L  6533.85,   358.73  L  6533.94,   359.26  L  6534.21,   359.73  L  6534.63,   360.07  L  6535.14,   360.26  L  6535.67,   360.26  L  6536.18,   360.07  L  6536.60,   359.73  L  6536.87,   359.26  L  6536.96,   358.73  L  6536.87,   358.19  L  6536.60,   357.72  L  6536.18,   357.38  L  6535.67,   357.19  L  6535.14,   357.19  L  6534.63,   357.38  L  6534.21,   357.72  L  6534.61,   358.43  L  6534.61,   359.02  L  6534.98,   359.46  L  6535.55,   359.56  L  6536.06,   359.27  L  6536.26,   358.73  L  6536.06,   358.18  L  6535.55,   357.89  L  6534.98,   357.99  L  6535.41,   358.73  " /><path style="stroke-width: 0.85 ;&st7;  " d=" M  6534.21,   476.70  L  6533.94,   477.17  L  6533.85,   477.71  L  6533.94,   478.24  L  6534.21,   478.71  L  6534.63,   479.05  L  6535.14,   479.24  L  6535.67,   479.24  L  6536.18,   479.05  L  6536.60,   478.71  L  6536.87,   478.24  L  6536.96,   477.71  L  6536.87,   477.17  L  6536.60,   476.70  L  6536.18,   476.36  L  6535.67,   476.17  L  6535.14,   476.17  L  6534.63,   476.36  L  6534.21,   476.70  L  6534.61,   477.41  L  6534.61,   478.00  L  6534.98,   478.44  L  6535.55,   478.54  L  6536.06,   478.25  L  6536.26,   477.71  L  6536.06,   477.16  L  6535.55,   476.87  L  6534.98,   476.97  L  6535.41,   477.71  " /><path style="stroke-width: 0.85 ;&st7;  " d=" M  6280.45,   418.22  L  6280.45,   477.71  " /><path style="stroke-width: 0.85 ;&st7;  " d=" M  6279.26,   476.70  L  6278.98,   477.17  L  6278.89,   477.71  L  6278.98,   478.24  L  6279.26,   478.71  L  6279.67,   479.05  L  6280.18,   479.24  L  6280.72,   479.24  L  6281.23,   479.05  L  6281.64,   478.71  L  6281.91,   478.24  L  6282.01,   477.71  L  6281.91,   477.17  L  6281.64,   476.70  L  6281.23,   476.36  L  6280.72,   476.17  L  6280.18,   476.17  L  6279.67,   476.36  L  6279.26,   476.70  L  6279.65,   477.41  L  6279.65,   478.00  L  6280.02,   478.44  L  6280.60,   478.54  L  6281.10,   478.25  L  6281.30,   477.71  L  6281.10,   477.16  L  6280.60,   476.87  L  6280.02,   476.97  L  6280.45,   477.71  " /><path style="stroke-width: 0.85 ;&st7;  " d=" M  6293.18,   425.55  L  6290.85,   428.59  L  6289.38,   426.05  L  6293.18,   425.55  L  6291.90,   426.29  L  6290.91,   427.57  L  6290.29,   426.50  L  6291.90,   426.29  L  6291.26,   426.66  L  6290.95,   427.06  L  6290.75,   426.73  L  6291.26,   426.66  " /><path style="stroke-width: 0.85 ;&st7;  " d=" M  6304.75,   357.72  L  6304.48,   358.19  L  6304.39,   358.73  L  6304.48,   359.26  L  6304.75,   359.73  L  6305.16,   360.07  L  6305.67,   360.26  L  6306.21,   360.26  L  6306.72,   360.07  L  6307.14,   359.73  L  6307.41,   359.26  L  6307.50,   358.73  L  6307.41,   358.19  L  6307.14,   357.72  L  6306.72,   357.38  L  6306.21,   357.19  L  6305.67,   357.19  L  6305.16,   357.38  L  6304.75,   357.72  L  6305.14,   358.43  L  6305.14,   359.02  L  6305.52,   359.46  L  6306.09,   359.56  L  6306.60,   359.27  L  6306.79,   358.73  L  6306.60,   358.18  L  6306.09,   357.89  L  6305.52,   357.99  L  6305.94,   358.73  " /><path style="stroke-width: 0.85 ;&st7;  " d=" M  6305.94,   418.22  L  6305.94,   477.71  " /><path style="stroke-width: 0.85 ;&st7;  " d=" M  6560.90,   418.22  L  6560.90,   477.71  " /><path style="stroke-width: 0.85 ;&st7;  " d=" M  6575.64,   429.02  L  6573.30,   432.06  L  6571.84,   429.52  L  6575.64,   429.02  L  6574.35,   429.76  L  6573.37,   431.04  L  6572.75,   429.97  L  6574.35,   429.76  L  6573.71,   430.13  L  6573.40,   430.53  L  6573.21,   430.20  L  6573.71,   430.13  " /><path style="stroke-width: 0.85 ;&st7;  " d=" M  6573.63,   425.55  L  6571.30,   428.59  L  6569.83,   426.05  L  6573.63,   425.55  L  6572.35,   426.29  L  6571.37,   427.57  L  6570.75,   426.50  L  6572.35,   426.29  L  6571.71,   426.66  L  6571.40,   427.06  L  6571.20,   426.73  L  6571.71,   426.66  " /><path style="stroke-width: 0.28 ;&st9;  " d=" M  6560.90,   435.21  L  6555.24,   426.71  L  6566.57,   426.71  L  6560.90,   435.21  " /><path style="stroke-width: 0.85 ;&st7;  " d=" M  6560.90,   418.22  L  6558.07,   416.80  L  6563.73,   413.97  L  6558.07,   411.13  L  6563.73,   408.30  L  6558.07,   405.47  L  6563.73,   402.63  L  6560.90,   401.22  L  6560.90,   358.73  " /><path style="stroke-width: 0.85 ;&st7;  " d=" M  6559.71,   357.72  L  6559.44,   358.19  L  6559.34,   358.73  L  6559.44,   359.26  L  6559.71,   359.73  L  6560.12,   360.07  L  6560.63,   360.26  L  6561.17,   360.26  L  6561.68,   360.07  L  6562.09,   359.73  L  6562.37,   359.26  L  6562.46,   358.73  L  6562.37,   358.19  L  6562.09,   357.72  L  6561.68,   357.38  L  6561.17,   357.19  L  6560.63,   357.19  L  6560.12,   357.38  L  6559.71,   357.72  L  6560.10,   358.43  L  6560.10,   359.02  L  6560.48,   359.46  L  6561.05,   359.56  L  6561.55,   359.27  L  6561.75,   358.73  L  6561.55,   358.18  L  6561.05,   357.89  L  6560.48,   357.99  L  6560.90,   358.73  " /><path style="stroke-width: 0.85 ;&st7;  " d=" M  6559.71,   476.70  L  6559.44,   477.17  L  6559.34,   477.71  L  6559.44,   478.24  L  6559.71,   478.71  L  6560.12,   479.05  L  6560.63,   479.24  L  6561.17,   479.24  L  6561.68,   479.05  L  6562.09,   478.71  L  6562.37,   478.24  L  6562.46,   477.71  L  6562.37,   477.17  L  6562.09,   476.70  L  6561.68,   476.36  L  6561.17,   476.17  L  6560.63,   476.17  L  6560.12,   476.36  L  6559.71,   476.70  L  6560.10,   477.41  L  6560.10,   478.00  L  6560.48,   478.44  L  6561.05,   478.54  L  6561.55,   478.25  L  6561.75,   477.71  L  6561.55,   477.16  L  6561.05,   476.87  L  6560.48,   476.97  L  6560.90,   477.71  " /><path style="stroke-width: 0.85 ;&st7;  " d=" M  6305.94,   418.22  L  6303.11,   416.80  L  6308.78,   413.97  L  6303.11,   411.13  L  6308.78,   408.30  L  6303.11,   405.47  L  6308.78,   402.63  L  6305.94,   401.22  L  6305.94,   358.73  " /><path style="stroke-width: 0.85 ;&st7;  " d=" M  6320.68,   429.02  L  6318.35,   432.06  L  6316.88,   429.52  L  6320.68,   429.02  L  6319.40,   429.76  L  6318.41,   431.04  L  6317.79,   429.97  L  6319.40,   429.76  L  6318.76,   430.13  L  6318.45,   430.53  L  6318.25,   430.20  L  6318.76,   430.13  " /><path style="stroke-width: 0.28 ;&st9;  " d=" M  6305.94,   435.21  L  6300.28,   426.71  L  6311.61,   426.71  L  6305.94,   435.21  " /><path style="stroke-width: 0.28 ;&st9;  " d=" M  6280.45,   435.21  L  6274.78,   426.71  L  6286.11,   426.71  L  6280.45,   435.21  " /><path style="stroke-width: 0.85 ;&st7;  " d=" M  6483.22,   357.72  L  6482.95,   358.19  L  6482.86,   358.73  L  6482.95,   359.26  L  6483.22,   359.73  L  6483.63,   360.07  L  6484.14,   360.26  L  6484.68,   360.26  L  6485.19,   360.07  L  6485.61,   359.73  L  6485.88,   359.26  L  6485.97,   358.73  L  6485.88,   358.19  L  6485.61,   357.72  L  6485.19,   357.38  L  6484.68,   357.19  L  6484.14,   357.19  L  6483.63,   357.38  L  6483.22,   357.72  L  6483.61,   358.43  L  6483.61,   359.02  L  6483.99,   359.46  L  6484.56,   359.56  L  6485.07,   359.27  L  6485.26,   358.73  L  6485.07,   358.18  L  6484.56,   357.89  L  6483.99,   357.99  L  6484.41,   358.73  " /><g ewd:code="" ewd:figID="211" ewd:comment="39,45" ewd:figtype="commref"><text style="&st18;" transform="matrix(&st17;  6568.54  468.31 )">(*39 *45)</text></g><g ewd:code="" ewd:figID="212" ewd:comment="39" ewd:figtype="commref"><text style="&st18;" transform="matrix(&st17;  6594.04  462.72 )">(*39)</text></g><g ewd:code="" ewd:figID="208" ewd:comment="39,45" ewd:figtype="commref"><text style="&st18;" transform="matrix(&st17;  6543.05  468.31 )">(*39 *45)</text></g><g ewd:code="" ewd:figID="215" ewd:comment="39" ewd:figtype="commref"><text style="&st18;" transform="matrix(&st17;  6594.04  386.24 )">(*39)</text></g><text style="&st18;" transform="matrix(&st17;  6611.04  448.25 )" ewd:textID="98">Steering Pad Switch RH</text><text style="&st18;" transform="matrix(&st17;  6251.26  448.21 )" ewd:textID="97">Steering Pad Switch LH</text><g ewd:code="" ewd:figID="214" ewd:comment="39,45" ewd:figtype="commref"><text style="&st18;" transform="matrix(&st17;  6517.55  468.31 )">(*39 *45)</text></g><g ewd:code="" ewd:figID="209" ewd:comment="39,45" ewd:figtype="commref"><text style="&st18;" transform="matrix(&st17;  6568.54  391.82 )">(*39 *45)</text></g><g ewd:code="" ewd:figID="213" ewd:comment="39,45" ewd:figtype="commref"><text style="&st18;" transform="matrix(&st17;  6517.55  391.82 )">(*39 *45)</text></g><g ewd:code="" ewd:figID="216" ewd:comment="39,45" ewd:figtype="commref"><text style="&st18;" transform="matrix(&st17;  6543.05  391.82 )">(*39 *45)</text></g><g ewd:code="" ewd:figID="210" ewd:comment="39,45" ewd:figtype="commref"><text style="&st18;" transform="matrix(&st17;  6492.05  468.31 )">(*39 *45)</text></g><g ewd:code="" ewd:figID="207" ewd:comment="39,45" ewd:figtype="commref"><text style="&st18;" transform="matrix(&st17;  6492.05  391.82 )">(*39 *45)</text></g><path style="stroke-width: 1.42 ;&st7;   " d=" M  6267.99,   320.20  C  6267.99    317.70   6265.96    315.67   6263.45    315.67  " /><path style="stroke-width: 1.42 ;&st7;   " d=" M  6263.45,   315.67  C  6260.95    315.67   6258.92    317.70   6258.92    320.20  " /><path style="stroke-width: 1.42 ;&st7;   " d=" M  6258.92,   320.20  C  6258.92    322.70   6260.95    324.73   6263.45    324.73  " /><path style="stroke-width: 1.42 ;&st7;   " d=" M  6263.45,   324.73  C  6265.96    324.73   6267.99    322.70   6267.99    320.20  " /><text style="&st18;" transform="matrix(&st16;  6254.76  322.17 )">8</text><text style="&st18;" transform="matrix(&st16;  6261.07  322.17 )">D</text><text style="&st18;" transform="matrix(&st16;  6348.24  322.17 )">5</text><path style="stroke-width: 1.42 ;&st7;   " d=" M  6361.47,   320.20  C  6361.47    317.70   6359.44    315.67   6356.94    315.67  " /><path style="stroke-width: 1.42 ;&st7;   " d=" M  6356.94,   315.67  C  6354.43    315.67   6352.41    317.70   6352.41    320.20  " /><path style="stroke-width: 1.42 ;&st7;   " d=" M  6352.41,   320.20  C  6352.41    322.70   6354.43    324.73   6356.94    324.73  " /><path style="stroke-width: 1.42 ;&st7;   " d=" M  6356.94,   324.73  C  6359.44    324.73   6361.47    322.70   6361.47    320.20  " /><text style="&st18;" transform="matrix(&st16;  6354.56  322.17 )">D</text><g ewd:figtype="title"><text style="&st18;" transform="matrix(&st16;  6234.55  526.42 )" ewd:textID="96">Steering Pad Switch Assembly</text><text style="&st18;" transform="matrix(&st16;  6234.55  519.31 )">z2(D)</text></g></g><g ewd:figtype="conn" ewd:figID="56" ewd:code="G151"><path style="stroke-width: 1.42 ;&st7;  " d=" M  6110.48,   248.24  L  6178.47,   248.24  L  6178.47,   231.25  L  6110.48,   231.25  L  6110.48,   248.24  " /><path style="stroke-width: 0.85 ;&st7;  " d=" M  6169.97,   231.25  L  6169.97,   239.75  L  6118.98,   239.75  " /><path style="stroke-width: 0.85 ;&st7;  " d=" M  6118.98,   231.25  L  6118.98,   248.24  " /><path style="stroke-width: 0.85 ;&st7;  " d=" M  6117.78,   238.74  L  6117.51,   239.21  L  6117.42,   239.75  L  6117.51,   240.28  L  6117.78,   240.75  L  6118.20,   241.09  L  6118.71,   241.28  L  6119.24,   241.28  L  6119.75,   241.09  L  6120.17,   240.75  L  6120.44,   240.28  L  6120.53,   239.75  L  6120.44,   239.21  L  6120.17,   238.74  L  6119.75,   238.40  L  6119.24,   238.21  L  6118.71,   238.21  L  6118.20,   238.40  L  6117.78,   238.74  L  6118.18,   239.45  L  6118.18,   240.04  L  6118.55,   240.48  L  6119.12,   240.58  L  6119.63,   240.29  L  6119.82,   239.75  L  6119.63,   239.20  L  6119.12,   238.91  L  6118.55,   239.01  L  6118.98,   239.75  " /><text style="&st18;" transform="matrix(&st16;  6109.69  227.56 )">16</text><text style="&st18;" transform="matrix(&st16;  6109.69  256.44 )">17</text><text style="&st18;" transform="matrix(&st16;  6160.68  227.56 )">15</text><g ewd:figtype="title"><text style="&st18;" transform="matrix(&st16;  6141.06  256.14 )">G151</text><text style="&st18;" transform="matrix(&st16;  6141.07  262.96 )" ewd:textID="77">No. 35 <tspan x="0 " dy="6.0">Junction </tspan><tspan x="0 " dy="6.0">Connector</tspan></text></g></g><g ewd:figtype="conn" ewd:figID="58" ewd:code="G160"><path style="stroke-width: 1.42 ;&st7;  " d=" M  6042.49,   307.73  L  6042.49,   341.73  L  6076.48,   341.73  L  6076.48,   307.73  L  6042.49,   307.73  " /><g ewd:lineID="143"><text style="&st18;" transform="matrix(&st16;  6053.3  349.92 )">4</text><text style="&st18;" transform="matrix(&st16;  6053.15  338.03 )">ILL-</text></g><g ewd:lineID="144"><text style="&st18;" transform="matrix(&st16;  6053.3  304.04 )">5</text><text style="&st18;" transform="matrix(&st16;  6053.15  315.37 )">ILL+</text></g><g ewd:figtype="title"><text style="&st18;" transform="matrix(&st17;  6091.2  344.63 )" ewd:textID="54">Idle Up Switch</text><text style="&st18;" transform="matrix(&st17;  6084.38  344.63 )">G160</text></g></g><g ewd:figtype="conn" ewd:figID="65" ewd:code="G4,z2"><path style="stroke-width: 1.42 ;&st7;  " d=" M  6237.96,   299.24  L  6237.96,   315.67  L  6620.39,   315.67  L  6620.39,   299.24  L  6237.96,   299.24  " /><path style="stroke-width: 0.85 ;&st7;  " d=" M  6356.94,   299.24  L  6356.94,   315.67  " /><path style="stroke-width: 0.85 ;&st7;  " d=" M  6263.45,   299.24  L  6263.45,   315.67  " /><text style="&st18;" transform="matrix(&st16;  6266.04  307.43 )">EAU</text><text style="&st18;" transform="matrix(&st16;  6359.52  307.43 )">IL+2</text><text style="&st18;" transform="matrix(&st16;  6345.14  296.67 )">13</text><text style="&st18;" transform="matrix(&st16;  6354.63  296.67 )">A</text><path style="stroke-width: 1.42 ;&st7;   " d=" M  6361.47,   294.70  C  6361.47    292.20   6359.44    290.17   6356.94    290.17  " /><path style="stroke-width: 1.42 ;&st7;   " d=" M  6356.94,   290.17  C  6354.43    290.17   6352.41    292.20   6352.41    294.70  " /><path style="stroke-width: 1.42 ;&st7;   " d=" M  6352.41,   294.70  C  6352.41    297.21   6354.43    299.24   6356.94    299.24  " /><path style="stroke-width: 1.42 ;&st7;   " d=" M  6356.94,   299.24  C  6359.44    299.24   6361.47    297.21   6361.47    294.70  " /><text style="&st18;" transform="matrix(&st16;  6254.76  296.67 )">3</text><text style="&st18;" transform="matrix(&st16;  6261.15  296.67 )">A</text><path style="stroke-width: 1.42 ;&st7;   " d=" M  6267.99,   294.70  C  6267.99    292.20   6265.96    290.17   6263.45    290.17  " /><path style="stroke-width: 1.42 ;&st7;   " d=" M  6263.45,   290.17  C  6260.95    290.17   6258.92    292.20   6258.92    294.70  " /><path style="stroke-width: 1.42 ;&st7;   " d=" M  6258.92,   294.70  C  6258.92    297.21   6260.95    299.24   6263.45    299.24  " /><path style="stroke-width: 1.42 ;&st7;   " d=" M  6263.45,   299.24  C  6265.96    299.24   6267.99    297.21   6267.99    294.70  " /><g ewd:figtype="title"><text style="&st18;" transform="matrix(&st16;  6396.03  295.54 )" ewd:textID="94">Spiral Cable Sub-Assembly</text><text style="&st18;" transform="matrix(&st16;  6396.02  288.43 )">G4(A),z2(D)</text></g></g><g ewd:figtype="gp" ewd:figID="125" ewd:code="GC"><path style="stroke-width: 0.85 ;&st7;  " d=" M  6059.48,   697.25  L  6059.48,   701.50  " /><path style="stroke-width: 0.85 ;&st7;  " d=" M  6050.99,   701.50  L  6067.98,   701.50  " /><path style="stroke-width: 0.85 ;&st7;  " d=" M  6055.24,   704.33  L  6063.73,   704.33  " /><path style="stroke-width: 0.85 ;&st7;  " d=" M  6056.65,   707.17  L  6062.32,   707.17  " /><path style="stroke-width: 0.85 ;&st7;  " d=" M  6058.07,   710.00  L  6060.90,   710.00  " /></g><g ewd:figtype="gp" ewd:figID="126" ewd:code="GB"><path style="stroke-width: 0.85 ;&st7;  " d=" M  6118.98,   697.25  L  6118.98,   701.50  " /><path style="stroke-width: 0.85 ;&st7;  " d=" M  6110.48,   701.50  L  6127.47,   701.50  " /><path style="stroke-width: 0.85 ;&st7;  " d=" M  6114.73,   704.33  L  6123.22,   704.33  " /><path style="stroke-width: 0.85 ;&st7;  " d=" M  6116.14,   707.17  L  6121.81,   707.17  " /><path style="stroke-width: 0.85 ;&st7;  " d=" M  6117.56,   710.00  L  6120.39,   710.00  " /></g><g ewd:code="39" ewd:figID="193" ewd:comment="" ewd:figtype="comment"><text style="&st18;" transform="matrix(&st16;  6396.03  658.14 )" ewd:textID="17">*39 :w/ Steering Pad Switch RH</text></g><g ewd:code="45" ewd:figID="195" ewd:comment="" ewd:figtype="comment"><text style="&st18;" transform="matrix(&st16;  6396.03  666.64 )" ewd:textID="21">*45 :w/o DISP Switch</text></g><g ewd:code="32" ewd:figID="190" ewd:comment="" ewd:figtype="comment"><text style="&st18;" transform="matrix(&st16;  6396.03  632.65 )" ewd:textID="14">*32 :w/ Daytime Running Light</text></g><g ewd:code="25" ewd:figID="191" ewd:comment="" ewd:figtype="comment"><text style="&st18;" transform="matrix(&st16;  6396.03  624.15 )" ewd:textID="12">*25 :w/ TFT Display</text></g><g ewd:code="37" ewd:figID="194" ewd:comment="" ewd:figtype="comment"><text style="&st18;" transform="matrix(&st16;  6396.03  649.65 )" ewd:textID="16">*37 :w/o Automatic Light Control</text></g><g ewd:code="36" ewd:figID="192" ewd:comment="" ewd:figtype="comment"><text style="&st18;" transform="matrix(&st16;  6396.03  641.15 )" ewd:textID="15">*36 :w/ Automatic Light Control</text></g><g ewd:code="1" ewd:figID="139" ewd:comment="" ewd:figtype="comment"><text style="&st18;" transform="matrix(&st16;  6396.03  615.65 )" ewd:textID="2">* 1 :w/ Smart Entry &amp; Start System</text></g></svg>