﻿<?xml version="1.0" encoding="utf-8"?>
<!DOCTYPE svg PUBLIC "-//W3C//DTD SVG 1.0//EN" "http://www.w3.org/TR/2001/REC-SVG-20010904/DTD/svg10.dtd"[
	<!ENTITY ns_flows "http://ns.adobe.com/Flows/1.0/">
	<!ENTITY ns_svg "http://www.w3.org/2000/svg">
	<!ENTITY ns_xlink "http://www.w3.org/1999/xlink">
	<!ENTITY st0 "font-size:7px;font-family:'MS-PGothic';adobe-font-script:japanese;">
	<!ENTITY st1 "font-size:6px;font-family:'ArialMT';">
	<!-- White fill  -->
	<!ENTITY st2 "fill:#FFFFFF;stroke:#000000; stroke-width:1.41;stroke-linecap:round;stroke-linejoin:round;">
	<!-- Yellow fill  -->
	<!ENTITY st3 "fill:#FFFFCC;stroke:#FFFFCC; stroke-width:0.1;stroke-linecap:round;stroke-linejoin:round;">
	<!-- Gray fill  -->
	<!ENTITY st4 "fill:#CCCCCC;stroke:#CCCCCC; stroke-width:0.1;stroke-linecap:round;stroke-linejoin:round;">
	<!-- Light-blue fill -->
	<!ENTITY st5 "fill:#CCECF4;stroke:#000000; stroke-width:1.133;stroke-linecap:round;stroke-linejoin:round;">
	<!ENTITY st6 "fill:none;stroke-linecap:butt; stroke-linejoin:round;">
	<!ENTITY st7 "fill:none;stroke:#000000;stroke-linecap:round;stroke-linejoin:round;">
	<!ENTITY st8 "enable-background:new    ;">
	<!-- Black fill -->
	<!ENTITY st9 "fill:#000000;stroke:#000000; stroke-linecap:round;stroke-linejoin:round;">
	<!-- SRS note   -->
	<!ENTITY st10 "font-size:9px;font-family:'ArialMT';">
	<!ENTITY st11 "font-size:9px;font-family:'Svg Symbol';">
	<!ENTITY st12 "font-size:6px;font-family:'Svg Symbol';">
	<!ENTITY st13 "fill:none;stroke:#ff0000;stroke-linecap:round;stroke-linejoin:round;">
	<!-- Yellow fill  -->
	<!ENTITY st14 "fill:#FFFF00;stroke:#FFFF00; stroke-width:0.1;stroke-linecap:round;stroke-linejoin:round;">
	<!ENTITY st15 "font-size:6px;font-family:'MS-PGothic';adobe-font-script:japanese;">
	<!ENTITY st16 "1.00 0.00 0.00 1.00">
	<!ENTITY st17 "0.00 -1.00 1.00 0.00">
	<!ENTITY st18 "font-size:6px;font-family:'Arial';">
	<!ENTITY st19 "font-size:9px;font-family:'Arial';">
	<!ENTITY st20 "font-size:6px;font-family:'MS-PGothic','MS PGothic';adobe-font-script:japanese;">
	<!ENTITY st21 "font-size:7px;font-family:'MS-PGothic','MS PGothic';adobe-font-script:japanese;">
	<!ATTLIST svg
		xmlns:ewd CDATA #FIXED "http://shcl.co.jp/ewd"
		xmlns:a CDATA #FIXED "http://ns.adobe.com/AdobeSVGViewerExtensions/3.0/"
		ewd:ver CDATA #IMPLIED
	>
	<!ATTLIST a
		ewd:lineID CDATA #IMPLIED
		ewd:groupID CDATA #IMPLIED
		ewd:figtype CDATA #IMPLIED
		ewd:code CDATA #IMPLIED
		ewd:figID CDATA #IMPLIED
		ewd:pinNo CDATA #IMPLIED
		ewd:comment CDATA #IMPLIED >
	<!ATTLIST g
		ewd:lineID CDATA #IMPLIED
		ewd:groupID CDATA #IMPLIED
		ewd:figtype CDATA #IMPLIED
		ewd:code CDATA #IMPLIED
		ewd:figID CDATA #IMPLIED
		ewd:pinNo CDATA #IMPLIED
		ewd:comment CDATA #IMPLIED >
	<!ATTLIST text
		ewd:textID CDATA #IMPLIED >
	<!ATTLIST title
		ewd:textID CDATA #IMPLIED >
]>
<!-- Generator: Shintec Hozumi YS   -->
<svg onload="call_execInitLoadProc_svg('system')" style="overflow:visible;  enable-background:new 0 0 2938.165 710.000" viewBox="0 0 2938.165 710.000" height="710.000" width="2938.165" xml:space="preserve" ewd:ver="2.1.2.9" xmlns="&ns_svg;" xmlns:a="http://ns.adobe.com/AdobeSVGViewerExtensions/3.0/" xmlns:ewd="http://shcl.co.jp/ewd" xmlns:xlink="&ns_xlink;">
<path style="stroke-width: 1.42 ;&st7;  " d=" M  2549.57,   307.73  L  2541.08,   307.73  " /><text style="&st18;" transform="matrix(&st17;  2537.38  258.35 )">R</text><text style="&st18;" transform="matrix(&st17;  2537.38  158.54 )">LG</text><text style="&st18;" transform="matrix(&st17;  2537.38  377.33 )">R</text><path style="stroke-width: 1.42 ;&st7;  " d=" M  2736.54,   205.75  L  2728.04,   205.75  " /><text style="&st18;" transform="matrix(&st16;  2639.65  25.26 )">G33(A)</text><text style="&st18;" transform="matrix(&st16;  2615.26  618.48 )">V</text><text style="&st18;" transform="matrix(&st17;  2724.35  158.0 )">SB</text><text style="&st18;" transform="matrix(&st17;  2724.35  258.55 )">V</text><text style="&st18;" transform="matrix(&st17;  2664.86  369.03 )">V</text><text style="&st18;" transform="matrix(&st17;  2724.35  369.03 )">V</text><text style="&st18;" transform="matrix(&st17;  2826.33  471.01 )">V</text><text style="&st18;" transform="matrix(&st16;  2564.27  643.98 )">V</text><text style="&st18;" transform="matrix(&st17;  2724.35  471.01 )">V</text><text style="&st18;" transform="matrix(&st17;  2775.34  471.01 )">V</text><text style="&st18;" transform="matrix(&st16;  2564.27  618.48 )">V</text><text style="&st18;" transform="matrix(&st16;  2615.26  643.98 )">V</text><text style="&st18;" transform="matrix(&st16;  2564.27  567.49 )">V</text><text style="&st18;" transform="matrix(&st16;  2615.26  567.49 )">V</text><text style="&st18;" transform="matrix(&st16;  2564.27  592.99 )">V</text><text style="&st18;" transform="matrix(&st16;  2615.26  592.99 )">V</text><text style="&st18;" transform="matrix(&st16;  2639.65  32.08 )" ewd:textID="4">Body ECU</text><g ewd:figtype="conn" ewd:figID="4" ewd:code="G146"><path style="stroke-width: 1.42 ;&st7;  " d=" M  2532.58,   197.25  L  2549.57,   197.25  L  2549.57,   214.25  L  2532.58,   214.25  L  2532.58,   197.25  " /><path style="stroke-width: 0.85 ;&st7;  " d=" M  2541.07,   197.25  L  2541.07,   214.25  " /><text style="&st18;" transform="matrix(&st16;  2531.79  222.44 )">20</text><text style="&st18;" transform="matrix(&st16;  2531.79  193.56 )">19</text><g ewd:figtype="title"><text style="&st18;" transform="matrix(&st17;  2557.47  217.15 )">G146</text><text style="&st18;" transform="matrix(&st17;  2564.29  217.16 )" ewd:textID="21">No. 30 Junction <tspan x="0 " dy="6.0">Connector</tspan></text></g></g><g ewd:figtype="conn" ewd:figID="5" ewd:code="N1"><path style="stroke-width: 0.85 ;&st7;  " d=" M  2541.08,   447.96  L  2541.08,   443.71  " /><path style="stroke-width: 0.85 ;&st7;  " d=" M  2541.08,   477.71  L  2541.08,   473.46  " /><path style="stroke-width: 1.42 ;&st7;  " d=" M  2541.08,   470.62  L  2546.74,   447.96  " /><path style="stroke-width: 0.85 ;&st7;   " d=" M  2542.49,   472.04  C  2542.49    471.26   2541.86    470.62   2541.08    470.62  " /><path style="stroke-width: 0.85 ;&st7;   " d=" M  2541.08,   470.62  C  2540.29    470.62   2539.66    471.26   2539.66    472.04  " /><path style="stroke-width: 0.85 ;&st7;   " d=" M  2539.66,   472.04  C  2539.66    472.82   2540.29    473.46   2541.08    473.46  " /><path style="stroke-width: 0.85 ;&st7;   " d=" M  2541.08,   473.46  C  2541.86    473.46   2542.49    472.82   2542.49    472.04  " /><path style="stroke-width: 0.85 ;&st7;   " d=" M  2542.49,   449.38  C  2542.49    448.59   2541.86    447.96   2541.08    447.96  " /><path style="stroke-width: 0.85 ;&st7;   " d=" M  2541.08,   447.96  C  2540.29    447.96   2539.66    448.59   2539.66    449.38  " /><path style="stroke-width: 0.85 ;&st7;   " d=" M  2539.66,   449.38  C  2539.66    450.16   2540.29    450.79   2541.08    450.79  " /><path style="stroke-width: 0.85 ;&st7;   " d=" M  2541.08,   450.79  C  2541.86    450.79   2542.49    450.16   2542.49    449.38  " /><path style="stroke-width: 1.42 ;&st7;  " d=" M  2549.57,   477.71  L  2549.57,   443.71  L  2532.58,   443.71  L  2532.58,   477.71  L  2549.57,   477.71  " /><text style="&st18;" transform="matrix(&st16;  2534.89  440.02 )">1</text><g ewd:figtype="title"><text style="&st18;" transform="matrix(&st17;  2564.29  480.61 )" ewd:textID="12">Front Door Courtesy Light <tspan x="0 " dy="6.0">Switch Assembly RH</tspan></text><text style="&st18;" transform="matrix(&st17;  2557.47  480.6 )">N1</text></g></g><g ewd:figtype="conn" ewd:figID="6" ewd:code="N28"><path style="stroke-width: 0.85 ;&st7;  " d=" M  2728.04,   307.73  L  2728.04,   324.73  " /><path style="stroke-width: 1.42 ;&st7;  " d=" M  2660.05,   307.73  L  2736.54,   307.73  L  2736.54,   324.73  L  2660.05,   324.73  L  2660.05,   307.73  " /><path style="stroke-width: 0.85 ;&st7;  " d=" M  2668.55,   324.73  L  2668.55,   316.23  L  2728.04,   316.23  " /><path style="stroke-width: 0.85 ;&st7;  " d=" M  2726.85,   315.23  L  2726.58,   315.70  L  2726.48,   316.23  L  2726.58,   316.77  L  2726.85,   317.24  L  2727.26,   317.58  L  2727.77,   317.77  L  2728.31,   317.77  L  2728.82,   317.58  L  2729.24,   317.24  L  2729.51,   316.77  L  2729.60,   316.23  L  2729.51,   315.70  L  2729.24,   315.23  L  2728.82,   314.88  L  2728.31,   314.70  L  2727.77,   314.70  L  2727.26,   314.88  L  2726.85,   315.23  L  2727.24,   315.94  L  2727.24,   316.52  L  2727.62,   316.97  L  2728.19,   317.07  L  2728.69,   316.78  L  2728.89,   316.23  L  2728.69,   315.69  L  2728.19,   315.40  L  2727.62,   315.50  L  2728.04,   316.23  " /><text style="&st18;" transform="matrix(&st16;  2659.27  332.92 )">16</text><text style="&st18;" transform="matrix(&st16;  2718.76  332.92 )">18</text><text style="&st18;" transform="matrix(&st16;  2718.76  304.04 )">15</text><g ewd:figtype="title"><text style="&st18;" transform="matrix(&st17;  2744.44  327.63 )">N28</text><text style="&st18;" transform="matrix(&st17;  2751.26  327.64 )" ewd:textID="19">No. 22 Junction <tspan x="0 " dy="6.0">Connector</tspan></text></g></g><g ewd:figtype="conn" ewd:figID="7" ewd:code="N27"><path style="stroke-width: 1.42 ;&st7;  " d=" M  2719.54,   409.72  L  2838.52,   409.72  L  2838.52,   426.71  L  2719.54,   426.71  L  2719.54,   409.72  " /><path style="stroke-width: 0.85 ;&st7;  " d=" M  2728.04,   409.72  L  2728.04,   426.71  " /><path style="stroke-width: 0.85 ;&st7;  " d=" M  2779.03,   426.71  L  2779.03,   418.22  L  2728.04,   418.22  " /><path style="stroke-width: 0.85 ;&st7;  " d=" M  2726.85,   417.21  L  2726.58,   417.68  L  2726.48,   418.22  L  2726.58,   418.75  L  2726.85,   419.22  L  2727.26,   419.56  L  2727.77,   419.75  L  2728.31,   419.75  L  2728.82,   419.56  L  2729.24,   419.22  L  2729.51,   418.75  L  2729.60,   418.22  L  2729.51,   417.68  L  2729.24,   417.21  L  2728.82,   416.87  L  2728.31,   416.68  L  2727.77,   416.68  L  2727.26,   416.87  L  2726.85,   417.21  L  2727.24,   417.92  L  2727.24,   418.51  L  2727.62,   418.95  L  2728.19,   419.05  L  2728.69,   418.76  L  2728.89,   418.22  L  2728.69,   417.67  L  2728.19,   417.38  L  2727.62,   417.48  L  2728.04,   418.22  " /><path style="stroke-width: 0.85 ;&st7;  " d=" M  2777.84,   417.21  L  2777.57,   417.68  L  2777.48,   418.22  L  2777.57,   418.75  L  2777.84,   419.22  L  2778.26,   419.56  L  2778.76,   419.75  L  2779.31,   419.75  L  2779.81,   419.56  L  2780.23,   419.22  L  2780.50,   418.75  L  2780.59,   418.22  L  2780.50,   417.68  L  2780.23,   417.21  L  2779.81,   416.87  L  2779.31,   416.68  L  2778.76,   416.68  L  2778.26,   416.87  L  2777.84,   417.21  L  2778.24,   417.92  L  2778.24,   418.51  L  2778.61,   418.95  L  2779.18,   419.05  L  2779.69,   418.76  L  2779.88,   418.22  L  2779.69,   417.67  L  2779.18,   417.38  L  2778.61,   417.48  L  2779.03,   418.22  " /><path style="stroke-width: 0.85 ;&st7;  " d=" M  2830.03,   426.71  L  2830.03,   418.22  L  2779.03,   418.22  " /><text style="&st18;" transform="matrix(&st16;  2820.74  434.91 )">12</text><text style="&st18;" transform="matrix(&st16;  2769.75  434.91 )">13</text><text style="&st18;" transform="matrix(&st16;  2718.76  434.91 )">14</text><text style="&st18;" transform="matrix(&st16;  2718.76  406.03 )">15</text><g ewd:figtype="title"><text style="&st18;" transform="matrix(&st16;  2767.12  393.25 )">N27</text><text style="&st18;" transform="matrix(&st16;  2767.13  400.07 )" ewd:textID="18">No. 21 Junction <tspan x="0 " dy="6.0">Connector</tspan></text></g></g><g ewd:figtype="conn" ewd:figID="19" ewd:code="G33"><g ewd:lineID="66"><text style="&st18;" transform="matrix(&st16;  2529.28  93.27 )">14</text><text style="&st18;" transform="matrix(&st16;  2538.77  93.27 )">A</text><path style="stroke-width: 1.42 ;&st7;   " d=" M  2545.61,    91.30  C  2545.61     88.80   2543.58     86.77   2541.08     86.77  " /><path style="stroke-width: 1.42 ;&st7;   " d=" M  2541.08,    86.77  C  2538.57     86.77   2536.54     88.80   2536.54     91.30  " /><path style="stroke-width: 1.42 ;&st7;   " d=" M  2536.54,    91.30  C  2536.54     93.81   2538.57     95.84   2541.08     95.84  " /><path style="stroke-width: 1.42 ;&st7;   " d=" M  2541.08,    95.84  C  2543.58     95.84   2545.61     93.81   2545.61     91.30  " /><text style="&st18;" transform="matrix(&st16;  2533.03  83.07 )">PCTY</text></g><g ewd:lineID="69"><text style="&st18;" transform="matrix(&st16;  2719.35  93.27 )">3</text><text style="&st18;" transform="matrix(&st16;  2725.74  93.27 )">A</text><path style="stroke-width: 1.42 ;&st7;   " d=" M  2732.58,    91.30  C  2732.58     88.80   2730.55     86.77   2728.04     86.77  " /><path style="stroke-width: 1.42 ;&st7;   " d=" M  2728.04,    86.77  C  2725.54     86.77   2723.51     88.80   2723.51     91.30  " /><path style="stroke-width: 1.42 ;&st7;   " d=" M  2723.51,    91.30  C  2723.51     93.81   2725.54     95.84   2728.04     95.84  " /><path style="stroke-width: 1.42 ;&st7;   " d=" M  2728.04,    95.84  C  2730.55     95.84   2732.58     93.81   2732.58     91.30  " /><text style="&st18;" transform="matrix(&st16;  2721.47  83.07 )">LIN2</text></g></g><g ewd:figtype="w2w" ewd:figID="48" ewd:code="GN2"><path style="stroke-width: 1.42 ;&st7;  " d=" M  2545.32,   316.80  L  2541.07,   312.55  L  2536.83,   316.80  " /><path style="stroke-width: 1.42 ;&st7;  " d=" M  2545.32,   313.40  L  2541.07,   309.15  L  2536.83,   313.40  " /><text style="&st18;" transform="matrix(&st16;  2525.34  305.45 )">20</text></g><g ewd:figtype="w2w" ewd:figID="49" ewd:code="GN1"><path style="stroke-width: 1.42 ;&st7;  " d=" M  2732.29,   214.82  L  2728.04,   210.57  L  2723.79,   214.82  " /><path style="stroke-width: 1.42 ;&st7;  " d=" M  2732.29,   211.42  L  2728.04,   207.17  L  2723.79,   211.42  " /><text style="&st18;" transform="matrix(&st16;  2715.41  203.47 )">8</text></g><g ewd:figtype="annex" ewd:figID="68" ewd:code=" "><path style="stroke-width: 0.85 ;&st7;  " d=" M  2536.83,   489.04  L  2545.32,   489.04  " /><path style="stroke-width: 0.85 ;&st7;  " d=" M  2539.66,   494.70  L  2542.49,   494.70  " /><path style="stroke-width: 0.85 ;&st7;  " d=" M  2541.07,   477.71  L  2541.07,   486.20  " /><path style="stroke-width: 0.85 ;&st7;  " d=" M  2532.58,   486.20  L  2549.57,   486.20  " /><path style="stroke-width: 0.85 ;&st7;  " d=" M  2538.24,   491.87  L  2543.91,   491.87  " /></g><g ewd:code="2" ewd:figID="69" ewd:comment="" ewd:figtype="comment"><text style="&st18;" transform="matrix(&st16;  2826.62  63.24 )" ewd:textID="2">* 2 :w/o Door Control Battery</text></g><g ewd:code="1" ewd:figID="70" ewd:comment="" ewd:figtype="comment"><text style="&st18;" transform="matrix(&st16;  2826.62  54.75 )" ewd:textID="1">* 1 :w/ Door Control Battery</text></g></svg>