﻿<?xml version="1.0" encoding="utf-8"?>
<!DOCTYPE svg PUBLIC "-//W3C//DTD SVG 1.0//EN" "http://www.w3.org/TR/2001/REC-SVG-20010904/DTD/svg10.dtd"[
	<!ENTITY ns_flows "http://ns.adobe.com/Flows/1.0/">
	<!ENTITY ns_svg "http://www.w3.org/2000/svg">
	<!ENTITY ns_xlink "http://www.w3.org/1999/xlink">
	<!ENTITY st0 "font-size:7px;font-family:'MS-PGothic';adobe-font-script:japanese;">
	<!ENTITY st1 "font-size:6px;font-family:'ArialMT';">
	<!-- White fill  -->
	<!ENTITY st2 "fill:#FFFFFF;stroke:#000000; stroke-width:1.41;stroke-linecap:round;stroke-linejoin:round;">
	<!-- Yellow fill  -->
	<!ENTITY st3 "fill:#FFFFCC;stroke:#FFFFCC; stroke-width:0.1;stroke-linecap:round;stroke-linejoin:round;">
	<!-- Gray fill  -->
	<!ENTITY st4 "fill:#CCCCCC;stroke:#CCCCCC; stroke-width:0.1;stroke-linecap:round;stroke-linejoin:round;">
	<!-- Light-blue fill -->
	<!ENTITY st5 "fill:#CCECF4;stroke:#000000; stroke-width:1.133;stroke-linecap:round;stroke-linejoin:round;">
	<!ENTITY st6 "fill:none;stroke-linecap:butt; stroke-linejoin:round;">
	<!ENTITY st7 "fill:none;stroke:#000000;stroke-linecap:round;stroke-linejoin:round;">
	<!ENTITY st8 "enable-background:new    ;">
	<!-- Black fill -->
	<!ENTITY st9 "fill:#000000;stroke:#000000; stroke-linecap:round;stroke-linejoin:round;">
	<!-- SRS note   -->
	<!ENTITY st10 "font-size:9px;font-family:'ArialMT';">
	<!ENTITY st11 "font-size:9px;font-family:'Svg Symbol';">
	<!ENTITY st12 "font-size:6px;font-family:'Svg Symbol';">
	<!ENTITY st13 "fill:none;stroke:#ff0000;stroke-linecap:round;stroke-linejoin:round;">
	<!-- Yellow fill  -->
	<!ENTITY st14 "fill:#FFFF00;stroke:#FFFF00; stroke-width:0.1;stroke-linecap:round;stroke-linejoin:round;">
	<!ENTITY st15 "font-size:6px;font-family:'MS-PGothic';adobe-font-script:japanese;">
	<!ENTITY st16 "1.00 0.00 0.00 1.00">
	<!ENTITY st17 "0.00 -1.00 1.00 0.00">
	<!ENTITY st18 "font-size:6px;font-family:'Arial';">
	<!ENTITY st19 "font-size:9px;font-family:'Arial';">
	<!ENTITY st20 "font-size:6px;font-family:'MS-PGothic','MS PGothic';adobe-font-script:japanese;">
	<!ENTITY st21 "font-size:7px;font-family:'MS-PGothic','MS PGothic';adobe-font-script:japanese;">
	<!ATTLIST svg
		xmlns:ewd CDATA #FIXED "http://shcl.co.jp/ewd"
		xmlns:a CDATA #FIXED "http://ns.adobe.com/AdobeSVGViewerExtensions/3.0/"
		ewd:ver CDATA #IMPLIED
	>
	<!ATTLIST a
		ewd:lineID CDATA #IMPLIED
		ewd:groupID CDATA #IMPLIED
		ewd:figtype CDATA #IMPLIED
		ewd:code CDATA #IMPLIED
		ewd:figID CDATA #IMPLIED
		ewd:pinNo CDATA #IMPLIED
		ewd:comment CDATA #IMPLIED >
	<!ATTLIST g
		ewd:lineID CDATA #IMPLIED
		ewd:groupID CDATA #IMPLIED
		ewd:figtype CDATA #IMPLIED
		ewd:code CDATA #IMPLIED
		ewd:figID CDATA #IMPLIED
		ewd:pinNo CDATA #IMPLIED
		ewd:comment CDATA #IMPLIED >
	<!ATTLIST text
		ewd:textID CDATA #IMPLIED >
	<!ATTLIST title
		ewd:textID CDATA #IMPLIED >
]>
<!-- Generator: Shintec Hozumi YS   -->
<svg onload="call_execInitLoadProc_svg('system')" style="overflow:visible;  enable-background:new 0 0 1506.155 710.000" viewBox="0 0 1506.155 710.000" height="710.000" width="1506.155" xml:space="preserve" ewd:ver="2.1.2.9" xmlns="&ns_svg;" xmlns:a="http://ns.adobe.com/AdobeSVGViewerExtensions/3.0/" xmlns:ewd="http://shcl.co.jp/ewd" xmlns:xlink="&ns_xlink;">
<text style="&st18;" transform="matrix(&st17;  200.27  242.21 )">W</text><text style="&st18;" transform="matrix(&st17;  200.27  161.47 )">W</text><text style="&st18;" transform="matrix(&st17;  200.27  120.34 )">GR</text><text style="&st18;" transform="matrix(&st17;  55.79  137.33 )">GR</text><path style="stroke-width: 1.42 ;&st7;  " d=" M   212.46,   137.76  L   203.97,   137.76  " /><text style="&st18;" transform="matrix(&st17;  55.79  243.57 )">GR</text><text style="&st18;" transform="matrix(&st17;  327.75  232.94 )">Y</text><text style="&st18;" transform="matrix(&st17;  268.26  594.14 )">W-B</text><text style="&st18;" transform="matrix(&st17;  149.28  594.14 )">W-B</text><text style="&st18;" transform="matrix(&st17;  160.61  596.04 )">(RHD)</text><text style="&st18;" transform="matrix(&st17;  279.59  600.03 )">(*1 LHD)</text><text style="&st18;" transform="matrix(&st17;  217.27  594.14 )">W-B</text><text style="&st18;" transform="matrix(&st17;  228.6  596.0 )">(LHD)</text><text style="&st18;" transform="matrix(&st17;  293.76  594.14 )">W-B</text><text style="&st18;" transform="matrix(&st17;  305.09  596.04 )">(RHD)</text><text style="&st18;" transform="matrix(&st16;  13.59  483.92 )" ewd:textID="7">Combination Meter Assembly</text><text style="&st18;" transform="matrix(&st16;  13.58  477.1 )">G8(A),G9(B),G10(C)</text><text style="&st18;" transform="matrix(&st17;  412.73  496.31 )">R</text><text style="&st18;" transform="matrix(&st17;  378.74  498.52 )">GR</text><text style="&st18;" transform="matrix(&st17;  344.75  497.94 )">SB</text><text style="&st18;" transform="matrix(&st17;  356.08  499.42 )">(*2)</text><text style="&st18;" transform="matrix(&st17;  390.07  499.42 )">(*2)</text><text style="&st18;" transform="matrix(&st17;  424.07  499.42 )">(*2)</text><text style="&st18;" transform="matrix(&st17;  480.72  496.66 )">G</text><text style="&st18;" transform="matrix(&st17;  446.73  496.39 )">Y</text><text style="&st18;" transform="matrix(&st17;  458.06  499.42 )">(*3)</text><text style="&st18;" transform="matrix(&st17;  492.06  499.42 )">(*3)</text><g ewd:figtype="conn" ewd:figID="1" ewd:code="G142,G147"><path style="stroke-width: 1.42 ;&st7;  " d=" M    50.99,   163.26  L    67.99,   163.26  L    67.99,   180.26  L    50.99,   180.26  L    50.99,   163.26  " /><path style="stroke-width: 0.85 ;&st7;  " d=" M    59.49,   163.26  L    59.49,   180.26  " /><text style="&st18;" transform="matrix(&st16;  50.8  195.82 )">8</text><text style="&st18;" transform="matrix(&st16;  47.69  186.76 )">20</text><path style="stroke-width: 1.42 ;&st7;   " d=" M    64.02,   193.85  C    64.02    191.35     61.99    189.32     59.49    189.32  " /><path style="stroke-width: 1.42 ;&st7;   " d=" M    59.49,   189.32  C    56.99    189.32     54.96    191.35     54.96    193.85  " /><path style="stroke-width: 1.42 ;&st7;   " d=" M    54.96,   193.85  C    54.96    196.36     56.99    198.39     59.49    198.39  " /><path style="stroke-width: 1.42 ;&st7;   " d=" M    59.49,   198.39  C    61.99    198.39     64.02    196.36     64.02    193.85  " /><path style="stroke-width: 1.42 ;&st7;   " d=" M    64.02,   184.79  C    64.02    182.28     61.99    180.26     59.49    180.26  " /><path style="stroke-width: 1.42 ;&st7;   " d=" M    59.49,   180.26  C    56.99    180.26     54.96    182.28     54.96    184.79  " /><path style="stroke-width: 1.42 ;&st7;   " d=" M    54.96,   184.79  C    54.96    187.29     56.99    189.32     59.49    189.32  " /><path style="stroke-width: 1.42 ;&st7;   " d=" M    59.49,   189.32  C    61.99    189.32     64.02    187.29     64.02    184.79  " /><text style="&st18;" transform="matrix(&st16;  57.3  195.82 )">B</text><text style="&st18;" transform="matrix(&st16;  57.19  186.76 )">A</text><text style="&st18;" transform="matrix(&st16;  47.69  151.63 )">16</text><text style="&st18;" transform="matrix(&st16;  50.8  160.69 )">1</text><path style="stroke-width: 1.42 ;&st7;   " d=" M    64.02,   149.66  C    64.02    147.16     61.99    145.13     59.49    145.13  " /><path style="stroke-width: 1.42 ;&st7;   " d=" M    59.49,   145.13  C    56.99    145.13     54.96    147.16     54.96    149.66  " /><path style="stroke-width: 1.42 ;&st7;   " d=" M    54.96,   149.66  C    54.96    152.16     56.99    154.19     59.49    154.19  " /><path style="stroke-width: 1.42 ;&st7;   " d=" M    59.49,   154.19  C    61.99    154.19     64.02    152.16     64.02    149.66  " /><path style="stroke-width: 1.42 ;&st7;   " d=" M    64.02,   158.73  C    64.02    156.22     61.99    154.19     59.49    154.19  " /><path style="stroke-width: 1.42 ;&st7;   " d=" M    59.49,   154.19  C    56.99    154.19     54.96    156.22     54.96    158.73  " /><path style="stroke-width: 1.42 ;&st7;   " d=" M    54.96,   158.73  C    54.96    161.23     56.99    163.26     59.49    163.26  " /><path style="stroke-width: 1.42 ;&st7;   " d=" M    59.49,   163.26  C    61.99    163.26     64.02    161.23     64.02    158.73  " /><text style="&st18;" transform="matrix(&st16;  57.3  160.69 )">B</text><text style="&st18;" transform="matrix(&st16;  57.19  151.63 )">A</text><g ewd:figtype="title"><text style="&st18;" transform="matrix(&st17;  18.4  183.16 )" ewd:textID="17">No. 31 Junction <tspan x="0 " dy="6.0">Connector</tspan></text><text style="&st18;" transform="matrix(&st17;  38.51  183.16 )" ewd:textID="13">No. 26 Junction <tspan x="0 " dy="6.0">Connector</tspan></text><text style="&st18;" transform="matrix(&st17;  31.69  183.15 )">G142(B)</text><text style="&st18;" transform="matrix(&st17;  11.58  183.15 )">G147(A)</text></g><g ewd:code="" ewd:figID="50" ewd:comment="" ewd:figtype="commref"><text style="&st18;" transform="matrix(&st16;  64.58  160.69 )">(RHD)</text></g><g ewd:code="" ewd:figID="51" ewd:comment="" ewd:figtype="commref"><text style="&st18;" transform="matrix(&st16;  64.58  151.63 )">(LHD)</text></g><g ewd:code="" ewd:figID="52" ewd:comment="" ewd:figtype="commref"><text style="&st18;" transform="matrix(&st16;  64.58  195.82 )">(RHD)</text></g><g ewd:code="" ewd:figID="53" ewd:comment="" ewd:figtype="commref"><text style="&st18;" transform="matrix(&st16;  64.58  186.76 )">(LHD)</text></g></g><g ewd:figtype="rb" ewd:figID="2" ewd:code="FUSE72"><path style="stroke-width: 1.42 ;&st7;  " d=" M    61.61,    95.27  L    57.37,    95.27  " /><path style="stroke-width: 1.42 ;&st7;  " d=" M    61.61,   103.77  L    57.37,   103.77  " /><path style="stroke-width: 0.85 ;&st7;  " d=" M    59.49,    78.27  L    59.49,    95.27  " /><path style="stroke-width: 1.42 ;&st7;   " d=" M    57.37,    95.27  C    55.02     95.27     53.12     97.17     53.12     99.52  " /><path style="stroke-width: 1.42 ;&st7;   " d=" M    53.12,    99.52  C    53.12    101.87     55.02    103.77     57.37    103.77  " /><path style="stroke-width: 1.42 ;&st7;   " d=" M    61.61,   103.77  C    63.96    103.77     65.86    101.87     65.86     99.52  " /><path style="stroke-width: 1.42 ;&st7;   " d=" M    65.86,    99.52  C    65.86     97.17     63.96     95.27     61.61     95.27  " /><path style="stroke-width: 0.28 ;&st9;  " d=" M    59.49,    90.37  L    56.66,    87.54  L    56.66,    91.79  L    59.49,    94.62  L    62.32,    91.79  L    62.32,    87.54  L    59.49,    90.37  " /><text style="&st18;" transform="matrix(&st16;  75.91  56.17 )">5A <tspan x="0 " dy="6.0">ACC</tspan></text><text style="&st18;" transform="matrix(&st16;  57.69  101.49 )">4</text><text style="&st18;" transform="matrix(&st16;  53.31  86.47 )">2</text><text style="&st18;" transform="matrix(&st16;  50.98  32.08 )">(ACC)</text><path style="stroke-width: 0.85 ;&st7;  " d=" M    59.49,    69.77  L    59.49,    78.27  " /><path style="stroke-width: 1.42 ;&st7;   " d=" M    59.49,    47.11  C    56.75     48.72     55.84     52.25     57.45     54.99  " /><path style="stroke-width: 1.42 ;&st7;   " d=" M    57.45,    54.99  C    57.97     55.87     58.61     56.51     59.49     57.03  " /><path style="stroke-width: 1.42 ;&st7;   " d=" M    59.49,    66.94  C    62.23     65.33     63.14     61.80     61.53     59.06  " /><path style="stroke-width: 1.42 ;&st7;   " d=" M    61.53,    59.06  C    61.01     58.18     60.37     57.55     59.49     57.03  " /><path style="stroke-width: 0.85 ;&st7;   " d=" M    60.91,    45.69  C    60.91     44.91     60.27     44.28     59.49     44.28  " /><path style="stroke-width: 0.85 ;&st7;   " d=" M    59.49,    44.28  C    58.71     44.28     58.07     44.91     58.07     45.69  " /><path style="stroke-width: 0.85 ;&st7;   " d=" M    58.07,    45.69  C    58.07     46.48     58.71     47.11     59.49     47.11  " /><path style="stroke-width: 0.85 ;&st7;   " d=" M    59.49,    47.11  C    60.27     47.11     60.91     46.48     60.91     45.69  " /><path style="stroke-width: 0.85 ;&st7;   " d=" M    60.91,    68.36  C    60.91     67.57     60.27     66.94     59.49     66.94  " /><path style="stroke-width: 0.85 ;&st7;   " d=" M    59.49,    66.94  C    58.71     66.94     58.07     67.57     58.07     68.36  " /><path style="stroke-width: 0.85 ;&st7;   " d=" M    58.07,    68.36  C    58.07     69.14     58.71     69.77     59.49     69.77  " /><path style="stroke-width: 0.85 ;&st7;   " d=" M    59.49,    69.77  C    60.27     69.77     60.91     69.14     60.91     68.36  " /><path style="stroke-width: 1.42 ;&st7;  " d=" M    46.74,    35.78  L    46.74,    78.27  L    72.24,    78.27  L    72.24,    35.78  L    46.74,    35.78  " /></g><g ewd:figtype="rb" ewd:figID="9" ewd:code="FUSE7"><text style="&st18;" transform="matrix(&st16;  195.92  32.08 )">(BAT)</text><text style="&st18;" transform="matrix(&st16;  197.78  86.47 )">2</text><text style="&st18;" transform="matrix(&st16;  202.17  101.49 )">1</text><text style="&st18;" transform="matrix(&st16;  220.39  53.34 )">10A <tspan x="0 " dy="6.0">ECU-B </tspan><tspan x="0 " dy="6.0">NO.1</tspan></text><path style="stroke-width: 0.28 ;&st9;  " d=" M   203.97,    90.37  L   201.13,    87.54  L   201.13,    91.79  L   203.97,    94.62  L   206.80,    91.79  L   206.80,    87.54  L   203.97,    90.37  " /><path style="stroke-width: 1.42 ;&st7;   " d=" M   210.34,    99.52  C   210.34     97.17    208.44     95.27    206.09     95.27  " /><path style="stroke-width: 1.42 ;&st7;   " d=" M   206.09,   103.77  C   208.44    103.77    210.34    101.87    210.34     99.52  " /><path style="stroke-width: 1.42 ;&st7;   " d=" M   197.59,    99.52  C   197.59    101.87    199.49    103.77    201.84    103.77  " /><path style="stroke-width: 1.42 ;&st7;   " d=" M   201.84,    95.27  C   199.49     95.27    197.59     97.17    197.59     99.52  " /><path style="stroke-width: 0.85 ;&st7;  " d=" M   203.97,    78.27  L   203.97,    95.27  " /><path style="stroke-width: 1.42 ;&st7;  " d=" M   206.09,   103.77  L   201.84,   103.77  " /><path style="stroke-width: 1.42 ;&st7;  " d=" M   206.09,    95.27  L   201.84,    95.27  " /><path style="stroke-width: 1.42 ;&st7;  " d=" M   191.22,    35.78  L   191.22,    78.27  L   216.71,    78.27  L   216.71,    35.78  L   191.22,    35.78  " /><path style="stroke-width: 0.85 ;&st7;   " d=" M   205.38,    68.36  C   205.38     67.57    204.75     66.94    203.97     66.94  " /><path style="stroke-width: 0.85 ;&st7;   " d=" M   203.97,    66.94  C   203.18     66.94    202.55     67.57    202.55     68.36  " /><path style="stroke-width: 0.85 ;&st7;   " d=" M   202.55,    68.36  C   202.55     69.14    203.18     69.77    203.97     69.77  " /><path style="stroke-width: 0.85 ;&st7;   " d=" M   203.97,    69.77  C   204.75     69.77    205.38     69.14    205.38     68.36  " /><path style="stroke-width: 0.85 ;&st7;   " d=" M   205.38,    45.69  C   205.38     44.91    204.75     44.28    203.97     44.28  " /><path style="stroke-width: 0.85 ;&st7;   " d=" M   203.97,    44.28  C   203.18     44.28    202.55     44.91    202.55     45.69  " /><path style="stroke-width: 0.85 ;&st7;   " d=" M   202.55,    45.69  C   202.55     46.48    203.18     47.11    203.97     47.11  " /><path style="stroke-width: 0.85 ;&st7;   " d=" M   203.97,    47.11  C   204.75     47.11    205.38     46.48    205.38     45.69  " /><path style="stroke-width: 1.42 ;&st7;   " d=" M   203.97,    66.94  C   206.70     65.33    207.62     61.80    206.00     59.06  " /><path style="stroke-width: 1.42 ;&st7;   " d=" M   206.00,    59.06  C   205.48     58.18    204.85     57.55    203.97     57.03  " /><path style="stroke-width: 1.42 ;&st7;   " d=" M   203.97,    47.11  C   201.23     48.72    200.32     52.25    201.93     54.99  " /><path style="stroke-width: 1.42 ;&st7;   " d=" M   201.93,    54.99  C   202.45     55.87    203.08     56.51    203.97     57.03  " /><path style="stroke-width: 0.85 ;&st7;  " d=" M   203.97,    69.77  L   203.97,    78.27  " /></g><g ewd:figtype="conn" ewd:figID="10" ewd:code="G142,G143"><path style="stroke-width: 0.85 ;&st7;  " d=" M   203.97,   188.75  L   203.97,   205.75  " /><path style="stroke-width: 1.42 ;&st7;  " d=" M   195.47,   188.75  L   212.46,   188.75  L   212.46,   205.75  L   195.47,   205.75  L   195.47,   188.75  " /><text style="&st18;" transform="matrix(&st16;  192.17  221.32 )">19</text><text style="&st18;" transform="matrix(&st16;  195.27  212.25 )">6</text><path style="stroke-width: 1.42 ;&st7;   " d=" M   208.50,   219.35  C   208.50    216.85    206.47    214.82    203.97    214.82  " /><path style="stroke-width: 1.42 ;&st7;   " d=" M   203.97,   214.82  C   201.46    214.82    199.43    216.85    199.43    219.35  " /><path style="stroke-width: 1.42 ;&st7;   " d=" M   199.43,   219.35  C   199.43    221.85    201.46    223.88    203.97    223.88  " /><path style="stroke-width: 1.42 ;&st7;   " d=" M   203.97,   223.88  C   206.47    223.88    208.50    221.85    208.50    219.35  " /><path style="stroke-width: 1.42 ;&st7;   " d=" M   208.50,   210.28  C   208.50    207.78    206.47    205.75    203.97    205.75  " /><path style="stroke-width: 1.42 ;&st7;   " d=" M   203.97,   205.75  C   201.46    205.75    199.43    207.78    199.43    210.28  " /><path style="stroke-width: 1.42 ;&st7;   " d=" M   199.43,   210.28  C   199.43    212.79    201.46    214.82    203.97    214.82  " /><path style="stroke-width: 1.42 ;&st7;   " d=" M   203.97,   214.82  C   206.47    214.82    208.50    212.79    208.50    210.28  " /><text style="&st18;" transform="matrix(&st16;  201.78  221.32 )">B</text><text style="&st18;" transform="matrix(&st16;  201.66  212.25 )">A</text><text style="&st18;" transform="matrix(&st16;  192.17  186.19 )">17</text><text style="&st18;" transform="matrix(&st16;  195.27  177.13 )">8</text><path style="stroke-width: 1.42 ;&st7;   " d=" M   208.50,   175.16  C   208.50    172.65    206.47    170.62    203.97    170.62  " /><path style="stroke-width: 1.42 ;&st7;   " d=" M   203.97,   170.62  C   201.46    170.62    199.43    172.65    199.43    175.16  " /><path style="stroke-width: 1.42 ;&st7;   " d=" M   199.43,   175.16  C   199.43    177.66    201.46    179.69    203.97    179.69  " /><path style="stroke-width: 1.42 ;&st7;   " d=" M   203.97,   179.69  C   206.47    179.69    208.50    177.66    208.50    175.16  " /><path style="stroke-width: 1.42 ;&st7;   " d=" M   208.50,   184.22  C   208.50    181.72    206.47    179.69    203.97    179.69  " /><path style="stroke-width: 1.42 ;&st7;   " d=" M   203.97,   179.69  C   201.46    179.69    199.43    181.72    199.43    184.22  " /><path style="stroke-width: 1.42 ;&st7;   " d=" M   199.43,   184.22  C   199.43    186.72    201.46    188.75    203.97    188.75  " /><path style="stroke-width: 1.42 ;&st7;   " d=" M   203.97,   188.75  C   206.47    188.75    208.50    186.72    208.50    184.22  " /><text style="&st18;" transform="matrix(&st16;  201.78  186.19 )">B</text><text style="&st18;" transform="matrix(&st16;  201.66  177.13 )">A</text><g ewd:figtype="title"><text style="&st18;" transform="matrix(&st17;  182.99  208.66 )" ewd:textID="13">No. 26 Junction <tspan x="0 " dy="6.0">Connector</tspan></text><text style="&st18;" transform="matrix(&st17;  176.17  208.65 )">G142(B)</text><text style="&st18;" transform="matrix(&st17;  156.05  208.65 )">G143(A)</text><text style="&st18;" transform="matrix(&st17;  162.88  208.66 )" ewd:textID="16">No. 27 Junction <tspan x="0 " dy="6.0">Connector</tspan></text></g><g ewd:code="" ewd:figID="54" ewd:comment="" ewd:figtype="commref"><text style="&st18;" transform="matrix(&st16;  209.06  186.19 )">(RHD)</text></g><g ewd:code="" ewd:figID="55" ewd:comment="" ewd:figtype="commref"><text style="&st18;" transform="matrix(&st16;  209.06  177.13 )">(LHD)</text></g><g ewd:code="" ewd:figID="56" ewd:comment="" ewd:figtype="commref"><text style="&st18;" transform="matrix(&st16;  209.06  221.32 )">(RHD)</text></g><g ewd:code="" ewd:figID="57" ewd:comment="" ewd:figtype="commref"><text style="&st18;" transform="matrix(&st16;  209.06  212.25 )">(LHD)</text></g></g><g ewd:figtype="conn" ewd:figID="11" ewd:code="G8,G9,G10"><path style="stroke-width: 0.85 ;&st7;  " d=" M   263.46,   294.99  L   263.46,   303.48  " /><path style="stroke-width: 0.85 ;&st7;  " d=" M   297.45,   303.48  L   297.45,   294.99  " /><path style="stroke-width: 0.28 ;&st9;  " d=" M   297.45,   299.24  L   305.95,   293.57  L   305.95,   304.90  L   297.45,   299.24  " /><path style="stroke-width: 1.42 ;&st7;  " d=" M    17.00,   265.24  L    17.00,   469.21  L   781.87,   469.21  L   781.87,   265.24  L    17.00,   265.24  " /><path style="stroke-width: 1.42 ;&st7;  " d=" M    33.99,   384.22  L    33.99,   418.22  L   764.87,   418.22  L   764.87,   384.22  L    33.99,   384.22  " /><path style="stroke-width: 1.42 ;&st7;  " d=" M   263.46,   341.73  L   263.46,   358.73  L   297.45,   358.73  L   297.45,   341.73  L   263.46,   341.73  " /><path style="stroke-width: 0.85 ;&st7;  " d=" M   280.45,   341.73  L   280.45,   299.24  " /><path style="stroke-width: 0.85 ;&st7;  " d=" M   280.45,   358.73  L   280.45,   384.22  " /><path style="stroke-width: 0.85 ;&st7;  " d=" M   280.45,   299.24  L   331.44,   299.24  L   331.44,   265.24  " /><path style="stroke-width: 0.85 ;&st7;  " d=" M   101.98,   367.22  L   101.98,   384.22  " /><path style="stroke-width: 0.85 ;&st7;  " d=" M   110.48,   367.22  L   110.48,   384.22  " /><path style="stroke-width: 0.85 ;&st7;  " d=" M   118.98,   367.22  L   118.98,   384.22  " /><path style="stroke-width: 0.85 ;&st7;  " d=" M   127.48,   367.22  L   127.48,   384.22  " /><path style="stroke-width: 0.85 ;&st7;  " d=" M   135.98,   367.22  L   135.98,   384.22  " /><path style="stroke-width: 0.85 ;&st7;  " d=" M   144.48,   367.22  L   144.48,   384.22  " /><path style="stroke-width: 0.85 ;&st7;  " d=" M   152.97,   367.22  L   152.97,   384.22  " /><path style="stroke-width: 1.42 ;&st7;  " d=" M    93.48,   341.73  L    93.48,   367.22  L   161.47,   367.22  L   161.47,   341.73  L    93.48,   341.73  " /><path style="stroke-width: 0.85 ;&st7;  " d=" M   314.45,   358.73  L   314.45,   367.22  " /><path style="stroke-width: 0.85 ;&st7;  " d=" M   305.95,   367.22  L   322.95,   367.22  " /><path style="stroke-width: 0.85 ;&st7;  " d=" M   310.20,   370.06  L   318.70,   370.06  " /><path style="stroke-width: 0.85 ;&st7;  " d=" M   311.61,   372.89  L   317.28,   372.89  " /><path style="stroke-width: 0.85 ;&st7;  " d=" M   313.03,   375.72  L   315.86,   375.72  " /><path style="stroke-width: 0.85 ;&st7;  " d=" M   314.45,   358.73  L   314.45,   350.23  L   297.45,   350.23  " /><path style="stroke-width: 0.85 ;&st7;  " d=" M   186.97,   367.22  L   186.97,   384.22  " /><path style="stroke-width: 0.85 ;&st7;  " d=" M   195.47,   367.22  L   195.47,   384.22  " /><path style="stroke-width: 0.85 ;&st7;  " d=" M   203.97,   367.22  L   203.97,   384.22  " /><path style="stroke-width: 0.85 ;&st7;  " d=" M   212.46,   367.22  L   212.46,   384.22  " /><path style="stroke-width: 0.85 ;&st7;  " d=" M   220.96,   367.22  L   220.96,   384.22  " /><path style="stroke-width: 0.85 ;&st7;  " d=" M   229.46,   367.22  L   229.46,   384.22  " /><path style="stroke-width: 0.85 ;&st7;  " d=" M   237.96,   367.22  L   237.96,   384.22  " /><path style="stroke-width: 1.42 ;&st7;  " d=" M   178.47,   341.73  L   178.47,   367.22  L   246.46,   367.22  L   246.46,   341.73  L   178.47,   341.73  " /><path style="stroke-width: 0.28 ;&st9;  " d=" M   263.46,   299.24  L   254.96,   304.90  L   254.96,   293.57  L   263.46,   299.24  " /><path style="stroke-width: 0.85 ;&st7;  " d=" M   203.97,   265.24  L   203.97,   299.24  L   280.45,   299.24  " /><path style="stroke-width: 0.85 ;&st7;  " d=" M   279.26,   298.23  L   278.99,   298.70  L   278.89,   299.24  L   278.99,   299.77  L   279.26,   300.24  L   279.67,   300.58  L   280.18,   300.77  L   280.72,   300.77  L   281.23,   300.58  L   281.65,   300.24  L   281.92,   299.77  L   282.01,   299.24  L   281.92,   298.70  L   281.65,   298.23  L   281.23,   297.89  L   280.72,   297.70  L   280.18,   297.70  L   279.67,   297.89  L   279.26,   298.23  L   279.65,   298.94  L   279.65,   299.53  L   280.03,   299.97  L   280.60,   300.07  L   281.10,   299.78  L   281.30,   299.24  L   281.10,   298.69  L   280.60,   298.40  L   280.03,   298.50  L   280.45,   299.24  " /><path style="stroke-width: 0.85 ;&st7;  " d=" M   152.97,   418.22  L   152.97,   469.21  " /><text style="&st18;" transform="matrix(&st16;  265.31  465.51 )">GND</text><text style="&st18;" transform="matrix(&st16;  272.6  352.2 )">5V IC</text><text style="&st18;" transform="matrix(&st16;  269.91  403.19 )">CPU</text><text style="&st18;" transform="matrix(&st16;  108.93  356.45 )" ewd:textID="8">Display Driver</text><text style="&st18;" transform="matrix(&st16;  263.18  366.92 )">5V+B</text><text style="&st18;" transform="matrix(&st16;  193.91  356.45 )" ewd:textID="8">Display Driver</text><text style="&st18;" transform="matrix(&st16;  334.03  273.43 )">IG+</text><text style="&st18;" transform="matrix(&st16;  206.55  273.43 )">B</text><text style="&st18;" transform="matrix(&st16;  155.56  465.52 )">EP</text><text style="&st18;" transform="matrix(&st16;  46.44  360.69 )">I/F</text><text style="&st18;" transform="matrix(&st16;  41.86  335.2 )" ewd:textID="6">Buzzer</text><path style="stroke-width: 0.85 ;&st7;  " d=" M    50.99,   367.22  L    50.99,   384.22  " /><path style="stroke-width: 0.85 ;&st7;  " d=" M    50.99,   341.73  L    50.99,   350.23  " /><path style="stroke-width: 1.42 ;&st7;  " d=" M    33.99,   350.23  L    33.99,   367.22  L    67.99,   367.22  L    67.99,   350.23  L    33.99,   350.23  " /><path style="stroke-width: 1.42 ;&st7;  " d=" M    33.99,   324.73  L    33.99,   341.73  L    67.99,   341.73  L    67.99,   324.73  L    33.99,   324.73  " /><text style="&st18;" transform="matrix(&st16;  52.84  272.88 )">ACC</text><text style="&st18;" transform="matrix(&st16;  758.96  273.43 )">BKL</text><text style="&st18;" transform="matrix(&st16;  683.83  313.95 )">I/F</text><path style="stroke-width: 1.42 ;&st7;  " d=" M   611.90,   299.24  L   611.90,   324.73  L   764.87,   324.73  L   764.87,   299.24  L   611.90,   299.24  " /><text style="&st18;" transform="matrix(&st16;  622.98  273.43 )">RCSB</text><text style="&st18;" transform="matrix(&st16;  656.97  273.43 )">RRBT</text><text style="&st18;" transform="matrix(&st16;  690.97  273.43 )">P/SB</text><text style="&st18;" transform="matrix(&st16;  724.96  273.43 )">RLBT</text><path style="stroke-width: 0.85 ;&st7;  " d=" M   620.40,   299.24  L   620.40,   265.24  " /><path style="stroke-width: 0.85 ;&st7;  " d=" M   654.39,   299.24  L   654.39,   265.24  " /><path style="stroke-width: 0.85 ;&st7;  " d=" M   688.38,   265.24  L   688.38,   299.24  " /><path style="stroke-width: 0.85 ;&st7;  " d=" M   722.38,   265.24  L   722.38,   299.24  " /><path style="stroke-width: 0.85 ;&st7;  " d=" M   756.37,   265.24  L   756.37,   299.24  " /><path style="stroke-width: 0.85 ;&st7;  " d=" M   620.40,   324.73  L   620.40,   384.22  " /><path style="stroke-width: 0.85 ;&st7;  " d=" M   654.39,   324.73  L   654.39,   384.22  " /><path style="stroke-width: 0.85 ;&st7;  " d=" M   688.38,   324.73  L   688.38,   384.22  " /><path style="stroke-width: 0.85 ;&st7;  " d=" M   722.38,   324.73  L   722.38,   384.22  " /><path style="stroke-width: 0.85 ;&st7;  " d=" M   756.37,   324.73  L   756.37,   384.22  " /><text style="&st18;" transform="matrix(&st16;  648.09  403.19 )">CPU</text><text style="&st18;" transform="matrix(&st16;  373.73  465.51 )">RCMT</text><text style="&st18;" transform="matrix(&st16;  340.05  465.51 )">RRMT</text><text style="&st18;" transform="matrix(&st16;  408.08  465.51 )">RLMT</text><text style="&st18;" transform="matrix(&st16;  578.98  272.88 )">RLSB</text><text style="&st18;" transform="matrix(&st16;  544.95  272.88 )">RRSB</text><text style="&st18;" transform="matrix(&st16;  448.35  465.51 )">L</text><text style="&st18;" transform="matrix(&st16;  479.9  465.51 )">SW</text><text style="&st18;" transform="matrix(&st16;  612.31  465.51 )">RRCY</text><text style="&st18;" transform="matrix(&st16;  697.34  465.51 )">RLCY</text><text style="&st18;" transform="matrix(&st16;  47.69  262.68 )">39</text><text style="&st18;" transform="matrix(&st16;  57.19  262.68 )">A</text><path style="stroke-width: 1.42 ;&st7;   " d=" M    64.02,   260.71  C    64.02    258.21     61.99    256.18     59.49    256.18  " /><path style="stroke-width: 1.42 ;&st7;   " d=" M    59.49,   256.18  C    56.99    256.18     54.96    258.21     54.96    260.71  " /><path style="stroke-width: 1.42 ;&st7;   " d=" M    54.96,   260.71  C    54.96    263.21     56.99    265.24     59.49    265.24  " /><path style="stroke-width: 1.42 ;&st7;   " d=" M    59.49,   265.24  C    61.99    265.24     64.02    263.21     64.02    260.71  " /><text style="&st18;" transform="matrix(&st16;  319.65  262.68 )">22</text><text style="&st18;" transform="matrix(&st16;  329.14  262.68 )">A</text><path style="stroke-width: 1.42 ;&st7;   " d=" M   335.98,   260.71  C   335.98    258.21    333.95    256.18    331.44    256.18  " /><path style="stroke-width: 1.42 ;&st7;   " d=" M   331.44,   256.18  C   328.94    256.18    326.91    258.21    326.91    260.71  " /><path style="stroke-width: 1.42 ;&st7;   " d=" M   326.91,   260.71  C   326.91    263.21    328.94    265.24    331.44    265.24  " /><path style="stroke-width: 1.42 ;&st7;   " d=" M   331.44,   265.24  C   333.95    265.24    335.98    263.21    335.98    260.71  " /><text style="&st18;" transform="matrix(&st16;  336.65  475.71 )">22</text><text style="&st18;" transform="matrix(&st16;  346.25  475.71 )">B</text><path style="stroke-width: 1.42 ;&st7;   " d=" M   352.97,   473.74  C   352.97    471.24    350.95    469.21    348.44    469.21  " /><path style="stroke-width: 1.42 ;&st7;   " d=" M   348.44,   469.21  C   345.94    469.21    343.91    471.24    343.91    473.74  " /><path style="stroke-width: 1.42 ;&st7;   " d=" M   343.91,   473.74  C   343.91    476.24    345.94    478.27    348.44    478.27  " /><path style="stroke-width: 1.42 ;&st7;   " d=" M   348.44,   478.27  C   350.95    478.27    352.97    476.24    352.97    473.74  " /><text style="&st18;" transform="matrix(&st16;  370.64  475.71 )">23</text><path style="stroke-width: 1.42 ;&st7;   " d=" M   386.97,   473.74  C   386.97    471.24    384.94    469.21    382.44    469.21  " /><path style="stroke-width: 1.42 ;&st7;   " d=" M   382.44,   469.21  C   379.93    469.21    377.90    471.24    377.90    473.74  " /><path style="stroke-width: 1.42 ;&st7;   " d=" M   377.90,   473.74  C   377.90    476.24    379.93    478.27    382.44    478.27  " /><path style="stroke-width: 1.42 ;&st7;   " d=" M   382.44,   478.27  C   384.94    478.27    386.97    476.24    386.97    473.74  " /><text style="&st18;" transform="matrix(&st16;  380.25  475.71 )">B</text><text style="&st18;" transform="matrix(&st16;  404.63  475.71 )">24</text><path style="stroke-width: 1.42 ;&st7;   " d=" M   420.96,   473.74  C   420.96    471.24    418.93    469.21    416.43    469.21  " /><path style="stroke-width: 1.42 ;&st7;   " d=" M   416.43,   469.21  C   413.93    469.21    411.90    471.24    411.90    473.74  " /><path style="stroke-width: 1.42 ;&st7;   " d=" M   411.90,   473.74  C   411.90    476.24    413.93    478.27    416.43    478.27  " /><path style="stroke-width: 1.42 ;&st7;   " d=" M   416.43,   478.27  C   418.93    478.27    420.96    476.24    420.96    473.74  " /><text style="&st18;" transform="matrix(&st16;  414.24  475.71 )">B</text><text style="&st18;" transform="matrix(&st16;  438.63  475.71 )">12</text><text style="&st18;" transform="matrix(&st16;  448.0  475.71 )">C</text><path style="stroke-width: 1.42 ;&st7;   " d=" M   454.96,   473.74  C   454.96    471.24    452.93    469.21    450.42    469.21  " /><path style="stroke-width: 1.42 ;&st7;   " d=" M   450.42,   469.21  C   447.92    469.21    445.89    471.24    445.89    473.74  " /><path style="stroke-width: 1.42 ;&st7;   " d=" M   445.89,   473.74  C   445.89    476.24    447.92    478.27    450.42    478.27  " /><path style="stroke-width: 1.42 ;&st7;   " d=" M   450.42,   478.27  C   452.93    478.27    454.96    476.24    454.96    473.74  " /><text style="&st18;" transform="matrix(&st16;  472.62  475.71 )">11</text><path style="stroke-width: 1.42 ;&st7;   " d=" M   488.95,   473.74  C   488.95    471.24    486.92    469.21    484.42    469.21  " /><path style="stroke-width: 1.42 ;&st7;   " d=" M   484.42,   469.21  C   481.92    469.21    479.89    471.24    479.89    473.74  " /><path style="stroke-width: 1.42 ;&st7;   " d=" M   479.89,   473.74  C   479.89    476.24    481.92    478.27    484.42    478.27  " /><path style="stroke-width: 1.42 ;&st7;   " d=" M   484.42,   478.27  C   486.92    478.27    488.95    476.24    488.95    473.74  " /><text style="&st18;" transform="matrix(&st16;  482.0  475.71 )">C</text><text style="&st18;" transform="matrix(&st16;  608.6  475.71 )">18</text><path style="stroke-width: 1.42 ;&st7;   " d=" M   624.93,   473.74  C   624.93    471.24    622.90    469.21    620.40    469.21  " /><path style="stroke-width: 1.42 ;&st7;   " d=" M   620.40,   469.21  C   617.89    469.21    615.86    471.24    615.86    473.74  " /><path style="stroke-width: 1.42 ;&st7;   " d=" M   615.86,   473.74  C   615.86    476.24    617.89    478.27    620.40    478.27  " /><path style="stroke-width: 1.42 ;&st7;   " d=" M   620.40,   478.27  C   622.90    478.27    624.93    476.24    624.93    473.74  " /><text style="&st18;" transform="matrix(&st16;  618.21  475.71 )">B</text><text style="&st18;" transform="matrix(&st16;  693.59  475.71 )">17</text><path style="stroke-width: 1.42 ;&st7;   " d=" M   709.91,   473.74  C   709.91    471.24    707.89    469.21    705.38    469.21  " /><path style="stroke-width: 1.42 ;&st7;   " d=" M   705.38,   469.21  C   702.88    469.21    700.85    471.24    700.85    473.74  " /><path style="stroke-width: 1.42 ;&st7;   " d=" M   700.85,   473.74  C   700.85    476.24    702.88    478.27    705.38    478.27  " /><path style="stroke-width: 1.42 ;&st7;   " d=" M   705.38,   478.27  C   707.89    478.27    709.91    476.24    709.91    473.74  " /><text style="&st18;" transform="matrix(&st16;  703.19  475.71 )">B</text><text style="&st18;" transform="matrix(&st16;  747.68  262.68 )">3</text><text style="&st18;" transform="matrix(&st16;  754.19  262.68 )">B</text><path style="stroke-width: 1.42 ;&st7;   " d=" M   760.91,   260.71  C   760.91    258.21    758.88    256.18    756.37    256.18  " /><path style="stroke-width: 1.42 ;&st7;   " d=" M   756.37,   256.18  C   753.87    256.18    751.84    258.21    751.84    260.71  " /><path style="stroke-width: 1.42 ;&st7;   " d=" M   751.84,   260.71  C   751.84    263.21    753.87    265.24    756.37    265.24  " /><path style="stroke-width: 1.42 ;&st7;   " d=" M   756.37,   265.24  C   758.88    265.24    760.91    263.21    760.91    260.71  " /><text style="&st18;" transform="matrix(&st16;  141.18  475.71 )">27</text><text style="&st18;" transform="matrix(&st16;  150.67  475.71 )">A</text><path style="stroke-width: 1.42 ;&st7;   " d=" M   157.51,   473.74  C   157.51    471.24    155.48    469.21    152.97    469.21  " /><path style="stroke-width: 1.42 ;&st7;   " d=" M   152.97,   469.21  C   150.47    469.21    148.44    471.24    148.44    473.74  " /><path style="stroke-width: 1.42 ;&st7;   " d=" M   148.44,   473.74  C   148.44    476.24    150.47    478.27    152.97    478.27  " /><path style="stroke-width: 1.42 ;&st7;   " d=" M   152.97,   478.27  C   155.48    478.27    157.51    476.24    157.51    473.74  " /><text style="&st18;" transform="matrix(&st16;  577.71  262.68 )">9</text><text style="&st18;" transform="matrix(&st16;  583.98  262.68 )">C</text><path style="stroke-width: 1.42 ;&st7;   " d=" M   590.93,   260.71  C   590.93    258.21    588.91    256.18    586.40    256.18  " /><path style="stroke-width: 1.42 ;&st7;   " d=" M   586.40,   256.18  C   583.90    256.18    581.87    258.21    581.87    260.71  " /><path style="stroke-width: 1.42 ;&st7;   " d=" M   581.87,   260.71  C   581.87    263.21    583.90    265.24    586.40    265.24  " /><path style="stroke-width: 1.42 ;&st7;   " d=" M   586.40,   265.24  C   588.91    265.24    590.93    263.21    590.93    260.71  " /><text style="&st18;" transform="matrix(&st16;  713.69  262.68 )">5</text><text style="&st18;" transform="matrix(&st16;  720.19  262.68 )">B</text><path style="stroke-width: 1.42 ;&st7;   " d=" M   726.91,   260.71  C   726.91    258.21    724.88    256.18    722.38    256.18  " /><path style="stroke-width: 1.42 ;&st7;   " d=" M   722.38,   256.18  C   719.88    256.18    717.85    258.21    717.85    260.71  " /><path style="stroke-width: 1.42 ;&st7;   " d=" M   717.85,   260.71  C   717.85    263.21    719.88    265.24    722.38    265.24  " /><path style="stroke-width: 1.42 ;&st7;   " d=" M   722.38,   265.24  C   724.88    265.24    726.91    263.21    726.91    260.71  " /><text style="&st18;" transform="matrix(&st16;  611.7  262.68 )">6</text><path style="stroke-width: 1.42 ;&st7;   " d=" M   624.93,   260.71  C   624.93    258.21    622.90    256.18    620.40    256.18  " /><path style="stroke-width: 1.42 ;&st7;   " d=" M   620.40,   256.18  C   617.89    256.18    615.86    258.21    615.86    260.71  " /><path style="stroke-width: 1.42 ;&st7;   " d=" M   615.86,   260.71  C   615.86    263.21    617.89    265.24    620.40    265.24  " /><path style="stroke-width: 1.42 ;&st7;   " d=" M   620.40,   265.24  C   622.90    265.24    624.93    263.21    624.93    260.71  " /><text style="&st18;" transform="matrix(&st16;  618.21  262.68 )">B</text><text style="&st18;" transform="matrix(&st16;  679.69  262.68 )">4</text><text style="&st18;" transform="matrix(&st16;  686.2  262.68 )">B</text><path style="stroke-width: 1.42 ;&st7;   " d=" M   692.92,   260.71  C   692.92    258.21    690.89    256.18    688.38    256.18  " /><path style="stroke-width: 1.42 ;&st7;   " d=" M   688.38,   256.18  C   685.88    256.18    683.85    258.21    683.85    260.71  " /><path style="stroke-width: 1.42 ;&st7;   " d=" M   683.85,   260.71  C   683.85    263.21    685.88    265.24    688.38    265.24  " /><path style="stroke-width: 1.42 ;&st7;   " d=" M   688.38,   265.24  C   690.89    265.24    692.92    263.21    692.92    260.71  " /><text style="&st18;" transform="matrix(&st16;  645.7  262.68 )">7</text><text style="&st18;" transform="matrix(&st16;  652.2  262.68 )">B</text><path style="stroke-width: 1.42 ;&st7;   " d=" M   658.92,   260.71  C   658.92    258.21    656.89    256.18    654.39    256.18  " /><path style="stroke-width: 1.42 ;&st7;   " d=" M   654.39,   256.18  C   651.89    256.18    649.86    258.21    649.86    260.71  " /><path style="stroke-width: 1.42 ;&st7;   " d=" M   649.86,   260.71  C   649.86    263.21    651.89    265.24    654.39    265.24  " /><path style="stroke-width: 1.42 ;&st7;   " d=" M   654.39,   265.24  C   656.89    265.24    658.92    263.21    658.92    260.71  " /><text style="&st18;" transform="matrix(&st16;  192.17  262.68 )">21</text><path style="stroke-width: 1.42 ;&st7;   " d=" M   208.50,   260.71  C   208.50    258.21    206.47    256.18    203.97    256.18  " /><path style="stroke-width: 1.42 ;&st7;   " d=" M   203.97,   256.18  C   201.46    256.18    199.43    258.21    199.43    260.71  " /><path style="stroke-width: 1.42 ;&st7;   " d=" M   199.43,   260.71  C   199.43    263.21    201.46    265.24    203.97    265.24  " /><path style="stroke-width: 1.42 ;&st7;   " d=" M   203.97,   265.24  C   206.47    265.24    208.50    263.21    208.50    260.71  " /><text style="&st18;" transform="matrix(&st16;  201.66  262.68 )">A</text><text style="&st18;" transform="matrix(&st16;  540.61  262.68 )">10</text><path style="stroke-width: 1.42 ;&st7;   " d=" M   556.94,   260.71  C   556.94    258.21    554.91    256.18    552.41    256.18  " /><path style="stroke-width: 1.42 ;&st7;   " d=" M   552.41,   256.18  C   549.90    256.18    547.88    258.21    547.88    260.71  " /><path style="stroke-width: 1.42 ;&st7;   " d=" M   547.88,   260.71  C   547.88    263.21    549.90    265.24    552.41    265.24  " /><path style="stroke-width: 1.42 ;&st7;   " d=" M   552.41,   265.24  C   554.91    265.24    556.94    263.21    556.94    260.71  " /><text style="&st18;" transform="matrix(&st16;  549.99  262.68 )">C</text><text style="&st18;" transform="matrix(&st16;  260.16  475.71 )">20</text><text style="&st18;" transform="matrix(&st16;  269.77  475.71 )">B</text><path style="stroke-width: 1.42 ;&st7;   " d=" M   276.49,   473.74  C   276.49    471.24    274.46    469.21    271.95    469.21  " /><path style="stroke-width: 1.42 ;&st7;   " d=" M   271.95,   469.21  C   269.45    469.21    267.42    471.24    267.42    473.74  " /><path style="stroke-width: 1.42 ;&st7;   " d=" M   267.42,   473.74  C   267.42    476.24    269.45    478.27    271.95    478.27  " /><path style="stroke-width: 1.42 ;&st7;   " d=" M   271.95,   478.27  C   274.46    478.27    276.49    476.24    276.49    473.74  " /><g ewd:figtype="title"><text style="&st18;" transform="matrix(&st17;  796.59  472.11 )" ewd:textID="7">Combination Meter Assembly</text><text style="&st18;" transform="matrix(&st17;  789.76  472.11 )">G8(A),G9(B),G10(C)</text></g></g><g ewd:figtype="conn" ewd:figID="16" ewd:code="G27"><path style="stroke-width: 1.42 ;&st7;  " d=" M   331.44,   520.20  L   501.42,   520.20  L   501.42,   562.69  L   331.44,   562.69  L   331.44,   520.20  " /><text style="&st18;" transform="matrix(&st16;  393.03  543.41 )" ewd:textID="24">Rear Passenger's <tspan x="0 " dy="6.0">Seat Belt Warning </tspan><tspan x="0 " dy="6.0">Light</tspan></text><text style="&st18;" transform="matrix(&st16;  409.47  527.83 )">RLID</text><text style="&st18;" transform="matrix(&st16;  375.13  527.83 )">RCID</text><text style="&st18;" transform="matrix(&st16;  341.45  527.83 )">RRID</text><text style="&st18;" transform="matrix(&st16;  442.73  527.83 )">LAPL</text><text style="&st18;" transform="matrix(&st16;  476.61  527.83 )">LAPB</text><text style="&st18;" transform="matrix(&st16;  342.26  516.51 )">3</text><text style="&st18;" transform="matrix(&st16;  376.25  516.51 )">2</text><text style="&st18;" transform="matrix(&st16;  410.25  516.51 )">1</text><text style="&st18;" transform="matrix(&st16;  444.24  516.51 )">7</text><text style="&st18;" transform="matrix(&st16;  478.23  516.51 )">9</text><g ewd:figtype="title"><text style="&st18;" transform="matrix(&st16;  328.04  577.41 )" ewd:textID="25">Telltale Light Assembly</text><text style="&st18;" transform="matrix(&st16;  328.03  570.58 )">G27</text></g></g><g ewd:figtype="jb" ewd:figID="20" ewd:code="2"><path style="stroke-width: 0.85 ;&st7;  " d=" M   331.44,    69.77  L   331.44,    78.27  " /><path style="stroke-width: 1.42 ;&st7;  " d=" M   333.57,    95.27  L   329.32,    95.27  " /><path style="stroke-width: 1.42 ;&st7;  " d=" M   333.57,   103.77  L   329.32,   103.77  " /><path style="stroke-width: 0.85 ;&st7;  " d=" M   331.44,    78.27  L   331.44,    95.27  " /><path style="stroke-width: 1.42 ;&st7;   " d=" M   331.44,    47.11  C   328.71     48.72    327.79     52.25    329.41     54.99  " /><path style="stroke-width: 1.42 ;&st7;   " d=" M   329.41,    54.99  C   329.93     55.87    330.56     56.51    331.44     57.03  " /><path style="stroke-width: 1.42 ;&st7;   " d=" M   331.44,    66.94  C   334.18     65.33    335.09     61.80    333.48     59.06  " /><path style="stroke-width: 1.42 ;&st7;   " d=" M   333.48,    59.06  C   332.96     58.18    332.33     57.55    331.44     57.03  " /><path style="stroke-width: 0.85 ;&st7;   " d=" M   332.86,    45.69  C   332.86     44.91    332.23     44.28    331.44     44.28  " /><path style="stroke-width: 0.85 ;&st7;   " d=" M   331.44,    44.28  C   330.66     44.28    330.03     44.91    330.03     45.69  " /><path style="stroke-width: 0.85 ;&st7;   " d=" M   330.03,    45.69  C   330.03     46.48    330.66     47.11    331.44     47.11  " /><path style="stroke-width: 0.85 ;&st7;   " d=" M   331.44,    47.11  C   332.23     47.11    332.86     46.48    332.86     45.69  " /><path style="stroke-width: 0.85 ;&st7;   " d=" M   332.86,    68.36  C   332.86     67.57    332.23     66.94    331.44     66.94  " /><path style="stroke-width: 0.85 ;&st7;   " d=" M   331.44,    66.94  C   330.66     66.94    330.03     67.57    330.03     68.36  " /><path style="stroke-width: 0.85 ;&st7;   " d=" M   330.03,    68.36  C   330.03     69.14    330.66     69.77    331.44     69.77  " /><path style="stroke-width: 0.85 ;&st7;   " d=" M   331.44,    69.77  C   332.23     69.77    332.86     69.14    332.86     68.36  " /><path style="stroke-width: 1.42 ;&st7;   " d=" M   329.32,    95.27  C   326.97     95.27    325.07     97.17    325.07     99.52  " /><path style="stroke-width: 1.42 ;&st7;   " d=" M   325.07,    99.52  C   325.07    101.87    326.97    103.77    329.32    103.77  " /><path style="stroke-width: 1.42 ;&st7;   " d=" M   333.57,   103.77  C   335.92    103.77    337.82    101.87    337.82     99.52  " /><path style="stroke-width: 1.42 ;&st7;   " d=" M   337.82,    99.52  C   337.82     97.17    335.92     95.27    333.57     95.27  " /><path style="stroke-width: 0.28 ;&st9;  " d=" M   331.44,    90.37  L   328.61,    87.54  L   328.61,    91.79  L   331.44,    94.62  L   334.28,    91.79  L   334.28,    87.54  L   331.44,    90.37  " /><path style="stroke-width: 1.42 ;&st7;  " d=" M   318.70,    35.78  L   318.70,    78.27  L   344.19,    78.27  L   344.19,    35.78  L   318.70,    35.78  " /><text style="&st18;" transform="matrix(&st16;  347.87  56.17 )">5A <tspan x="0 " dy="6.0">METER</tspan></text><text style="&st18;" transform="matrix(&st16;  327.9  101.49 )">2P</text><text style="&st18;" transform="matrix(&st16;  320.94  101.49 )">6</text><text style="&st18;" transform="matrix(&st16;  325.26  86.47 )">2</text><text style="&st18;" transform="matrix(&st16;  326.23  32.08 )">(IG)</text></g><g ewd:figtype="w2w" ewd:figID="21" ewd:code="AG1"><text style="&st18;" transform="matrix(&st16;  188.23  135.48 )">24</text><path style="stroke-width: 1.42 ;&st7;  " d=" M   208.22,   143.43  L   203.97,   139.18  L   199.72,   143.43  " /><path style="stroke-width: 1.42 ;&st7;  " d=" M   208.22,   146.83  L   203.97,   142.58  L   199.72,   146.83  " /></g><g ewd:figtype="gp" ewd:figID="37" ewd:code="GD"><path style="stroke-width: 0.85 ;&st7;  " d=" M   144.48,   701.50  L   161.47,   701.50  " /><path style="stroke-width: 0.85 ;&st7;  " d=" M   152.97,   697.25  L   152.97,   701.50  " /><path style="stroke-width: 0.85 ;&st7;  " d=" M   151.56,   710.00  L   154.39,   710.00  " /><path style="stroke-width: 0.85 ;&st7;  " d=" M   150.14,   707.17  L   155.81,   707.17  " /><path style="stroke-width: 0.85 ;&st7;  " d=" M   148.73,   704.33  L   157.22,   704.33  " /></g><g ewd:figtype="gp" ewd:figID="38" ewd:code="GA"><path style="stroke-width: 0.85 ;&st7;  " d=" M   271.95,   697.25  L   271.95,   701.50  " /><path style="stroke-width: 0.85 ;&st7;  " d=" M   263.46,   701.50  L   280.45,   701.50  " /><path style="stroke-width: 0.85 ;&st7;  " d=" M   267.71,   704.33  L   276.20,   704.33  " /><path style="stroke-width: 0.85 ;&st7;  " d=" M   269.12,   707.17  L   274.79,   707.17  " /><path style="stroke-width: 0.85 ;&st7;  " d=" M   270.54,   710.00  L   273.37,   710.00  " /></g><g ewd:code="1" ewd:figID="49" ewd:comment="" ewd:figtype="comment"><text style="&st18;" transform="matrix(&st16;  328.04  632.65 )" ewd:textID="1">* 1 :w/ TFT Display</text></g><g ewd:code="48" ewd:figID="64" ewd:comment="" ewd:figtype="comment"><text style="&st18;" transform="matrix(&st16;  328.04  658.14 )" ewd:textID="4">*48 :w/ Courtesy Light</text></g><g ewd:code="3" ewd:figID="60" ewd:comment="" ewd:figtype="comment"><text style="&st18;" transform="matrix(&st16;  328.04  649.65 )" ewd:textID="3">* 3 :w/ Seat Belt Warning (Rear No. 2 Seat)</text></g><g ewd:code="51" ewd:figID="63" ewd:comment="" ewd:figtype="comment"><text style="&st18;" transform="matrix(&st16;  328.04  666.64 )" ewd:textID="5">*51 :w/o Courtesy Light</text></g><g ewd:code="2" ewd:figID="46" ewd:comment="" ewd:figtype="comment"><text style="&st18;" transform="matrix(&st16;  328.04  641.15 )" ewd:textID="2">* 2 :w/ Seat Belt Warning (Rear No. 1 Seat)</text></g></svg>